
*
NOTE JEDEC CREATED BY: Lattice Semiconductor Diamond Deployment Tool 3.9*
NOTE Version:         Diamond (64-bit) 3.10.0.111.2*
NOTE Readback:       Off*
NOTE Security:      Off*
NOTE Copyright (C), 1992-2010, Lattice Semiconductor Corporation *
NOTE All Rights Reserved *
NOTE DATE CREATED: Thu Jul 26 18:51:59 2018 *
NOTE DESIGN NAME: cnrom *
NOTE DEVICE NAME: LAMXO256C-3TQFP100 *
NOTE PIN ASSIGNMENTS *
NOTE PINS n_irq : 49 : out *
NOTE PINS caddr[13] : 51 : in *
NOTE PINS led[2] : 6 : out *
NOTE PINS led[1] : 7 : out *
NOTE PINS led[0] : 8 : out *
NOTE PINS n_toe : 87 : out *
NOTE PINS coaddr[22] : 14 : out *
NOTE PINS coaddr[21] : 15 : out *
NOTE PINS coaddr[20] : 16 : out *
NOTE PINS coaddr[19] : 13 : out *
NOTE PINS coaddr[18] : 11 : out *
NOTE PINS coaddr[17] : 9 : out *
NOTE PINS coaddr[16] : 23 : out *
NOTE PINS coaddr[15] : 22 : out *
NOTE PINS coaddr[14] : 21 : out *
NOTE PINS coaddr[13] : 20 : out *
NOTE PINS coaddr[12] : 19 : out *
NOTE PINS coaddr[11] : 18 : out *
NOTE PINS coaddr[10] : 17 : out *
NOTE PINS n_paoe : 83 : out *
NOTE PINS n_pawe : 85 : out *
NOTE PINS n_pace : 82 : out *
NOTE PINS n_poce : 70 : out *
NOTE PINS poaddr[22] : 57 : out *
NOTE PINS poaddr[21] : 58 : out *
NOTE PINS poaddr[20] : 59 : out *
NOTE PINS poaddr[19] : 56 : out *
NOTE PINS poaddr[18] : 55 : out *
NOTE PINS poaddr[17] : 86 : out *
NOTE PINS poaddr[16] : 69 : out *
NOTE PINS poaddr[15] : 68 : out *
NOTE PINS poaddr[14] : 67 : out *
NOTE PINS poaddr[13] : 66 : out *
NOTE PINS va10 : 32 : out *
NOTE PINS paddr[12] : 30 : in *
NOTE PINS paddr[11] : 29 : in *
NOTE PINS paddr[10] : 27 : in *
NOTE PINS phi2 : 38 : in *
NOTE PINS n_we : 47 : in *
NOTE PINS cdata[7] : 81 : in *
NOTE PINS cdata[6] : 80 : in *
NOTE PINS cdata[5] : 79 : in *
NOTE PINS cdata[4] : 78 : in *
NOTE PINS cdata[3] : 77 : in *
NOTE PINS cdata[2] : 76 : in *
NOTE PINS cdata[1] : 73 : in *
NOTE PINS cdata[0] : 72 : in *
NOTE PINS n_rom : 50 : in *
NOTE PINS caddr[14] : 46 : in *
NOTE CONFIGURATION MODE: NONE *
NOTE COMPRESSION: off *


QF56640*
G0*
F0*
L00000
11111111001111111111010111011100111111111101011101110011111111110101110111001111
11111101011110110011111111110101110111001111111111010111101111111111111111111011
11111111111111111110111111111111
11111111001111111111011110111100111111111101001111110011111111110101110111001111
11111101011110110011111111110101110111001111111111010111101111111111111111111011
11111111111111111110111111111111
11111111111111111111111111111111111111111111111111110011111111110101110111111111
11111111111111110011111111110101110111111111111111111111111111111111111111111011
11111111111111111111111111111111
11111111111111111111111111111111111111111111111111110011111111110101110111111111
11111111111111110011111111110101111011111111111111111111111100111111111101011101
11111111111111111111111111111111
11111111111111111111111111111111111111111111111111111111111111111111111111111111
11111111111111111111111111110111111111111111111111111111111111111111111111111111
11111111111111111111111111111111
11111111111111111111111111111111111111111111111111111111111111111111111111110111
11110101111111111111111111111111111111110111111111011111111111111111111111111111
11111111111111111111111111111111
11111111111111111111111111111111111111111111111111111111111111111111111111111111
11111111111111111111111111111111111111111111111111111111111111111111111111111111
11111111111111111111111111111111
11111111111111111111111111111111111111111111111111111111111111111111111111111111
11111111111111111111111111111111111111111111111111111111111111111111111111111111
11111111111111111111111111111111
11111111111111111111111111111111111111111111111111111111111111111111111111111111
11111111111111111111111111111111111111111111111111111111111111111111111111111111
11111111111111111111111111111111
11111111111111111111111111111111111111111111111111111111111111111111111111111111
11111011111111111111111111111111111111101111111110111111111111111111111111111111
11111111111111111111111111111111
11111111111111111111111111111111111111111111111111111111111111111111111111111111
11111111111111111111111111011111111111111111111111111111111111111111111111111111
11111111111111111111111111111111
11111111111110111111111111111111111011111111111111111111100111111110111111011111
11110111111111111111111111111110111111001111111100111111111111111111111111111111
11111111111111111111111111111111
11111111111111111111111111111111111111111111111111111111100011111110111111111111
11111111111111111111101111111111111111111111111111111111111111111111111111100111
11111111111111111111111111111111
11111111111111001111111111111111111100111111111111111111110111111111011111111111
11111111111111111111110111111111011111111111111111111111111111111111111111111111
11111111111111111111111111111111
11111111111111111111111111111111111111111111111111111111110111111111001111111111
11111111111111111111110111111111111111111111111111111111111111111111111111110111
11111111111111111111111111111111
11111111111111111111111111101111111111111111111111111111111011111111111111111111
11111111111111111111111111111111101111111111111111111111111111111111111111111111
11111111111111111111111111111111
11111111111111111111111111111111111111111111111111111111111111111111111111111111
11111111111111111111111111111111111111111111111111111111111111111111111111111111
11111111111111111111111111111111
11111111111110111111111111101111111011111111111111111111111111111110101111111111
11111111111111111111101111111110111111111111111111111111111111111111111111111111
11111111111111111111111111111111
11111111111111111111111111111111111111111111111111111111111111111110111111111111
11111111111111111111101011111111111111111111111111111111111111111111111111111011
11111111111111111111111111111111
11111111111111111111111111111111111111111111111111111111111111111111111111111111
11111111111111111111111111111111111111111111111111111111111111111111111111111111
11111111111111111111111111111111
01111111111111111111111111111111111111111111111111111111111111111111111111111111
11111111111111111111111111111111111111111111111111111111111111111111111111111111
11111111111111111111111111111111
01011111111111111111111111111101111111111111111111111111111111111111111111111111
11111111111111111111111111111111111111111111111111111111111111111111111111111111
11111111111111111111111111111110
11111111111111111111111111111111111111111111111111111111111111111111111111111111
11111111111111111111111111111111111111111111111111111111111111111111111111111111
11111111111111111111111111111111
11111111111111111111111111111110111111111111111111111111111111111111111111111111
11111111111111111111111111111111111111111111111111111111111111111111111111111111
11111111111111111111111111111111
10111111111111111111111111111111111111111111110111111111111111111111111111111111
11111111111111111111111111111111111111111111111111111111111111111111111111111111
11111111111111111111111111111111
11111111111111111111111111111110111111111111111111111111111111111111111111111111
11111111111111111111111111111111111111111111111111111111111111111111111111111111
11111111111111111111111111111111
11111111111111111111111111111111111111111111111111111111111111111111111111111111
11111111111111111111111111111111111111111111111111111111111111111111111111111111
11111111111111111111111111111111
11111111111111111111111111111110111111111111101111111111111111111111111111111111
11111111111111111111111111111111111111111111111111111111111111111111111111111111
11111111111111111111111111111111
01111111111111111111111111111110111111111111111111111111111111111111111111111111
11111111111111111111111111111111111111111111111111111111111111111111111111111111
11111111111111111111111111111111
01011111111111111111111111111110111111111111111111111111111111111111111111111111
11111111111111111111111111111111111111111111111111111111111111111111111111111111
11111111111111111111111111111110
11111111111111111111111111111111111111111111111111111111111111111111111111111111
11111111111111111111111111111111111111111111111111111111111111111111111111111111
11111111111111111111111111111111
11111111111111111111111111111110111111111111111111111111111111111111111111111111
11111111111111111111111111111111111111111111111111111111111111111111111111111111
11111111111111111111111111111111
10111111111111111111111111111111111111111111111111111111111111111111111111111111
11111111111111111111111111111111111111111111111111111111111111111111111111111111
11111111111111111111111111111111
11111111111111111111111111111111111111111111111111111111111111111111111111111111
11111111111111111111111111111111111111111111111111111111111111111111111111111111
11111111111111111111111111111111
11111111111111111111111111111101111111111111111111111111111111111111111111111111
11111111111111111111111111111111111111111111111111111111111111111111111111111111
11111111111111111111111111111111
11111111111111111111111111111111111111111111111111111111111111111111111111111111
11111111111111111111111111111111111111111111111111111111111111111111111111111111
11111111111111111111111111111111
01111111111111111111100111111111111111101111111111111111111110111111111111111111
11111111111111111111111111111111111111111111111111111111111111111111111111111111
11111111111111111111111111111111
01111111111111111111111101111111111111111111111111111111111111111111111111111111
11111111111111111111111111111111111111111111111111111111111111111111111111111111
11111111111111111111111111111110
11011111111111111011000101111111111111101101111111111111111111011111111111111111
11111111111111111111111111111111111111111111111111111111111111111111111111111111
11111111111111111111111111111111
11111111111111111111111111111111111111110111111111111111111111111111111111111111
11111111111111111111111111111111111111111111111111111111111111111111111111111111
11111111111111111111111111111111
10111111111111111111111111111111111111111111111111111111111111111111111111111111
11111111111111111111111110111111111111111111111111111111111111111111111111111111
11111111111111111111111111111111
11111111111111111111111111111111111111111111111111111111111111111111111111111111
11111111111111111111111111011111111111111111111111111111111111111111111111111111
11111111111111111111111111111111
10111111111111111111111111111111111111111111111111111111111111111111111111111111
11111111111111111111111110110111111111111111111111111111111111111111111111111111
11111111111111111111111111111111
11111111111111111111111111111111111111111111111111111111111111111111111111111111
11111111111111111111111111111111111111111111111111111111111111111111111111111111
11111111111111111111111111111111
11111111111111111111111111111111111111111111111111111111111110111111111111111111
11111111111111111111111110111111111111111111111111111111111111111111111111111111
11111111111111111111111111111111
11000111111111111111111111111111111111111111111111111111111111111111111111111111
11111111111111111111111111011111111111111111111111111111111111111111111111111111
11111111111111111111111111111110
11111111111111111111111111111111111111111111111111001111111111010111111111111111
11111111111111111111111111110111111111111111111111111111111111111111111111111111
11111111111111111111111111111111
11110111111111111111111111111111111111111111111111111111111111110111111111111111
11111111111111111111111111110111111111111111111111111111111111111111111111111111
11111111111111111111111111111111
11111111111111111111111111111111111111111111111111111111111111110111111111111111
11111111111111111111111111111111111111111111111111111111111111111111111111111111
11111111111111111111111111111111
11111011111111111111111111111111111111111111111111111111111111100111111111111111
11111111111111111111111111111111111111111111111111111111111111111111111111111111
11111111111111111111111111111111
11111111111111111111111111111111111111111111111111111111111111111111111111111111
11111111111111111111111111111111111111111111111111111111111111111111111111111111
11111111111111111101111111111111
11111111111111111111111111111111111111111111111111111111111110111111111111111111
11111111111111111111111111111111111111111111111111111111111111111111111111111111
11111111111111111101111111111111
11111111111111111111111111111111111111111111111111111111111110111111111111111111
11111111111111111111111111111111111111111111111111111111111111111111111111111111
11111111111111111111111111111111
11111111111111111111111111111111111111111111111111111111111111111111111111111111
11111111111111111111111111111111111111111111111111111111111111111111111111111111
11111111111111111111111111111110
11111111111111111111111111111111111111111111111111111111111111010111111111111111
11111111111111111111111111111111111111111111111111111111111111111111111111111111
11111111111111111111111111111111
11111111111111111111111111111111111111111111111111111111111111110111111111111111
11111111111111111111111111111111111111111111111111111111111111111111111111111111
11111111111111111111111111111111
11111111111111111111111111111111111111111111111111111111111111111111111111111111
11111111111111111111111111111111111111111111111111111111111111111111111111111111
11111111111111111111111111111111
11111111111111111111111111111111111111111111111111111111111111111111111111111111
11111111111111111111111111111111111111111111111111111111111111111111111111111111
11111111111111111111111111111111
11111111111111111111111111111111111111111111111111111111111111111111111111111111
11111111111111111111111111111111111111111111111111111111111111111111111111111111
11111111111111111111111111111111
11111111111111111111111111111111111111111111111111111111111111111111111111111111
11111111111111111111111111111111111111111111111111111111111111111111111111111111
11111111111111111111111111111111
11111111111111111111111111111111111111111111111111111111111110111111111111111111
11111111111111111111111111111111111111111111111111111111111111111111111111111111
11111111111111111111111111111111
11111111111111111111111111111111111111111111111111111111111111011111111111111111
11111111111111111111111111111111111111111111111111111111111111111111111111111111
11111111111111111111111111111110
11111111111111111111111111111111111111111111111111111111111111110111111111111111
11111111111111111111111111111111111111111111111111111111111111111111111111111111
11111111111111111111111111111111
11111111111111111111111111111111111111111111111111111111111111110111111111111111
11111111111111111111111111111111111111111111111111111111111111111111111111111111
11111111111111111111111111111111
11111110111111111010011111111111111111111111111111111111111111111111111111111111
11111111111111111111111111111111111111111111111111111111111111111111111111111111
11111111111111111111111111111111
11111110111111111100011111111111111111111111111111111111111111111111111111111111
11111111111111111111111111111111111111111111111111111111111111111111111111111111
11111111111111111111111111111111
11111111111111111111011111111111111111111111111111111111111111111111111111111111
11111111111111111111111111111111111111111111111111111111111111111111111111111111
11111111111111111111111111111111
11111111111111111111011111111111111111111111111111111111111111111111111111111111
11111111111111111111111111111111111111111111111111111111111111111111111111111111
11111111111111111111111111111111
11111111111111111111111111111111111111111111111111111111111111111111111111111111
11111111111111111111111111111111111111111111111111111111111111111111111111111111
11111111111111111111111111111111
11111111111111111111111111111111111111111111111111111111111111111111111111111111
11111111111111111111111111111111111111111111111111111111111111111111111111111111
11111111111111111111111111111111
11111111111111111111111111111111111111111111111111111111111111111111111111111111
11111111111111111111111111111111111111111111111111111111111111111111111111111111
11111111111111111111111111111111
11111111111111111111111111111111111111111111111111111111111111111111111111111111
11111111111111111111111111111111111111111111111111111111111111111111111111111111
11111111111111111111111111111111
11111111111111111111111111111111111111111110111111111111111110111111111111111111
11111111111111111111111111111111111111111111111111111111111111111111101111111111
11111111111111111111111111111111
11111111111111111111111111111111111111111110010111111111111110111111111111111111
11111111111111111111111111111111111111111111111111111111111111111111101111111111
11111111111111111111111111111111
11111111111111111111111111111111111111111110011111111111111111010111111111111111
11111111111111111111111111111111111111111111111111111111111111111111110101111111
11111111111111111111111111111111
11111111111111111111111111111111111111111110101111111111111111111111111111111111
11111111111111111111111111111111111111111111111111111111111111111111111111111111
11111111111111111111111111111111
11111111111111111110011111111111111111111111111111011111111111111111111111111111
11101111111111111111111111111111111111111111111111111111111111111111111111111111
11111111111111111111111111111111
11111111111111111111011111111111111111111111111111011111111111111111111111111111
11111111111111111111111111111111111111111111111111111111111111111111111110111111
11111111111111111111111111111111
11111111111111111110111111111111111111111111111011111111111111111111111111111111
11110101111111111111111111111111111111111111111111111111111111111111111111110111
11111111111111111111111111111111
11111111111111111111111111111111111111111111111110111111111111111111111111111111
11111101111111111111111111111111111111111111111111111111111111111111111111111111
11111111111111111111111111111111
11111111111111111101011111111111111111111111111111111111111111111111111111111111
11111111111111111111111111111111111111111111111111111111111111111111111111111111
11111111111111111111111111111111
11111111111111111111011111111111111111111111111111111111111111111111111111111111
11101111111111111111111111111111111111111111111111111111111111111111111111111111
11111111111111111111111111111111
11111111111111111110111111111111111111111111111111111111111111111111111111111111
11111101111111111111111111111111111111111111111111111111111111111111111111111111
11111111111111111111111111111111
11111111111111111111111111111111111111111111111111111111111111111111111111111111
11111111111111111111111111111111111111111111111111111111111111111111111111111111
11111111111111111111111111111111
11111111111111111111111111111111111111111111111111111111111111111111111111111111
11111111111111111111111111111111111111111111111111111111111111111111111111111111
11111111111111111111111111111111
11011111111111111111111111111111111111111111111111111111111111111111111111111111
11111111111111111111111111111111111111111111111111111111111111111111111111111111
11111111111111111111111111111110
11111111111111111111111111111111111111111111111111111111111111111111111111111111
11111111111111111111111111111111111111111111111111111111111111111111111111111111
11111111111111111111111111111111
11111111111111111111111111111111111111111111111111111111111111111111111111111111
11111111111111111111111111111111111111111111111111111111111111111111111111111111
11111111111111111111111111111111
11111111111111111111111111111111111111111111111111111111111111111111111111111111
11111111111111111111111111111111111111111111111111111111111111111111111111111111
11111111111111011111111111111111
11111111111111111111111111111111111111111111111111111111111111111111111111111111
11111111111111111111111111111111111111111111111111111111111111111111111111111111
11111111111111111111111111111111
11111111111111111111111111111111111111111111111111111111111111111111111111111111
11111111111111111111111111111111111111111111111111111111111111111111111111111111
11111111111110111111111111111111
11111111111111111111111111111111111111111111111111111111111111111111111111111111
11111111111111111111111111111111111111111111111111111111111111111111111111111111
11111111111111111111111111111111
11111111111111111111011111111111111111101111111111111111111111111111111111111111
11111111111111111111111111111111111111111111111001011111111111111111111111111111
11111111111111111111111111111111
11011111111111111110111111111111111111110111111111111111111111111111111111111111
11111111111111111111111111111111111111111111111001011111111111111111111111111111
11111111111111111111111111111110
11111111111111111111111111111111111111111101111111111111111111111111111111111111
11111111111111111111111111111111111111111111111111011111111111111111111111111111
11111111111111111111111111111111
11111111111111111111111111111111111111111101111111111111111111111111111111111111
11111111111111111111111111111111111111111111111110111111111111111111111111111111
11111111111111111111111111111111
11111111111111111111111111111111111111111111111111111111111111111111111111111111
11111111111111111111111111111111111111111111111111111111111111111111101111111111
11111111111111111111111111111111
11111111111111111111111111111111111111111111111111111111111111111111111111111111
11111111111111111111111111111111111111111111111111111111111111111111111111111111
11111111111111111111111111111111
11111111111111111111111111111111111111111111111111111111111111111111111111111111
11111111111111111111111111111111111111111111111111111111111111111111110111111111
11111111111111111111111111111111
11111111111111111111111111111111111111111111111111111111111111111111111111111111
11111111111111111111111111111111111111111111111111111111111111111111111111111111
11111111111111111111111111111111
01111111111111111111111111111111111111111111111111111111111111111111111111111111
11111111111111111111111110111111111111111111111111111111111111111111111111111111
11111111111111111111111111111111
01011111111111111111111111111111111111111111111111111111111111111111111111111111
11111111111111111111111111011111111111111111111111111111111111111111111111111111
11111111111111111111111111111110
11111100111111111111111111111111111111111111111111111111111111111111111111111111
11111111111111111111111110110111111111111111111111111111111111111111111111111111
11111111111111111111111111111111
11111111111111111111111111111111111111111111111111111111111111111111111111111111
11111111111111111111111111111111111111111111111111111111111111111111111111111111
11111111111111111111111111111111
10111111111111111111111111111111111111111111111111111111111111111111111111111111
11111111111111111111111111111111111111111111111111111111111111111111111111111111
11111111111111111111111111111111
11111111111111111111111111111111111111111111111111111111111111111111111111111111
11111111111111111111111111111111111111111111111111111111111111111111111111111111
11111111111111111111111111111111
11111111111111111111111111111111111111111111111111111111111111111111111111111111
11111111111111111111111111111111111111111111111111111111111111111111111111111111
11111111111111111111111111111111
11111111111111111111111111111111111111111111111111111111111111111111111111111111
11111111111111111111111111111111111111111111111111111111111111111111111111111111
11111111111111111111111111111111
11111111111111111111111111111111111111111111111111111111111111111111111111111111
11111111111111111111111110111111111111111111111111111111111111111111111111111111
11111111111111111111111111111011
11011111111111111111111111111111111111111111111111111111111111111111111111111111
11111111111111111111111111011111111111111111111111111111111111111111111111111111
11111111111111111111111111111011
11111111111111111111111111111111111111111111111111111111111111111111111111111111
11111111111111111111111110110111111111111111111111111111111111111111111111111111
11111111111111111111111111111111
11111110111111111111111111111111111111111111111111111111111111111111111111111111
11111111111111111111111111111111111111111111111111111111111111111111111111111111
11111111111111111111111111111110
11111111111111111111111111111111111111111111111111111111111111111111111111111111
11111111111111111111111111111111111111111111111111111111111111111111111111111111
11111111111111111111111111111101
11111111111111111111111111111111111111111111111111111111111111111111111111111111
11111111111111111111111111111111111111111111111111111111111111111111111111111111
11111111111111111111111111111111
11111111111111111111111111111111111111111111111111111111111111111111111111111111
11111111111111111111111111111111111111111111111111111111111111111111111111111111
11111111111111111111111111111101
11111110111111111111111111111111111111111111111111111111111111111111111111111111
11111111111111111111111111111111111111111111111111111111111111111111111111111111
11111111111111111111111111111111
11111111111111111111111111111111111111111111111111111111111111111111111111111111
11111111111111111111111111111111111111111111111111111111111111111111111111111111
11111111111111111111111111111111
11111111111111111111111111111111111111111111111111111111111111111111111111111111
11111111111111111111111111111111111111111111111111111111111111111111111111111111
11111111111111111111111111111111
11111111111111111111111111111111111111111111111111111111111111111111111111111111
11111111111111111111111111111111111111111111111111111111111111111111111111111111
11111111111111111111111101011111
11111111111111111111111111111111111111111111111111111111111111111111111111111111
11111111111111111111111111111111111111111111111111111111111111111111111111111111
11111111111111111111111111111111
11111111111111111111111111111111111111111111111111111111111111111111111111111111
11111111111111111111111111111111111111111111111111111111111111111111111111111111
11111111111111111111111110111111
11111111111111111111111111111111111111111111111111111111111111111111111111111111
11111111111111111111111111111111111111111111111111111111111111111111111111111111
11111111111111111111111111111111
11111111111111111111111111111111111111111111111111111111111111111111111111111111
11111111111111111111111111111111111111111111111111111111111111111111111111111111
11111111111111111111111101111111
11111111111111111111111111111111111111111111111111111111111111111111111111111111
11111111111111111111111111111111111111111111111111111111111111111111111111111111
11111111111111111111111111111111
11111111111111111111111111111111111111111111111111111111111111111111111111111111
11111111111111111111111111111111111111111111111111111111111111111111101111111111
11111111111111111111111111111111
11111111111111111111111111111111111111111111111111111111111111111111111111111111
11111111111111111111111111111111111111111111111111111111111111111111110111111111
11111111111111111111111111111111
11111111111111111111111111111111111111111111111111111111111111111111111111111111
11111111111111111111111111111111111111111111111111111111111111111111101101111111
11111111111111111111111111111111
11111111111111111111111111111111111111111111111111111111111111111111111111111111
11111111111111111111111111111111111111111111111111111111111111111111111111111111
11111111111111111111111111111111
11111111111111111111111111111111111111111111111111111111111111111111111111111111
11111111111111111111111111111111111111111111111111111111111111111111111111111111
11111111111111111111111111111111
11111111111111111111111111111111111111111111111111111111111111111111111111111111
11111111111111111111111111111111111111111111111111111111111111111111111111111111
11111111111111111111111111111111
11111111111111111111111111111111111111111111111111111111111111111111111111111111
11111111111111111111111111111111111111111111111111111111111111111111111111111111
11111111111111111111111111111111
11111111111111111111111111111111111111111111111111111111111111111111111111111111
11111111111111111111111111111111111111111111111111111111111111111111111111111111
11111111111111111111111111111111
11111111111111111111111111111111111111101111111111111111111111111111111111111111
11111111111111111111111111111111111111111111111111111111111111111111111111111111
11111111111111111111111111111111
11111111111111111111111111111111111111111111111111111111111111111111111111111111
11111111111111111111111111111111111111111111111111111111111111111111111111111111
11111111111111111111111111111111
11111111111111111111111111111111111111101101111111111111111111111111111111111111
11111111111111111111111111111111111111111111111111111111111111111111111111111111
11111111111111111111111111111111
11111111111111111111111111111111111111110111111111111111111111111111111111111111
11111111111111111111111111111111111111111111111111111111111111111111111111111111
11111111111111111111111111111111
11111111111111111111111111111111111111111111111111111111111111111111111111111111
11111111111111111111111111111111111111111111111111111111111111111111111111111111
11111111111111111111111111111111
11111111111111111111111111111111111111111111111111111111111111111111111111111111
11111111111111111111111111111111111111111111111111111111111111111111111111111111
11111111111111111111111111111111
11111111111111111111111111111111111111111111111111111111111111111111111111111111
11111111111111111111111111111111111111111111111111111111111111111111111111111111
11111111111111111111111111111111
11111111111111111111111111111111111111111111111111111111111111111111111111111111
11111111111111111111111111111111111111111111111111111111111111111111111111111111
11111111111111111111111111111111
11111111111111111111111111111111111111111111111111111111111111111111111111111111
11111111111111111111111111111111111111111111111111111111111111111111111111111111
11111111111111111111111111111111
11111111111111111111111111111111111111111111111111111111111111111111111111111111
11111111111111111111111111111111111111111111111111111111111111111111111111111111
11111111111111111111111111111111
11111111111111111111111111111111111111111111111111111111111111111111111111111111
11111111111111111111111111111111111111111111111111111111111111111111111111111111
11111111111111111101111111111111
11111111111111111111111111111111111111111111111111111111111111111111111111111111
11111111111111111111111111111111111111111111111111111111111111111111111111111111
11111111111111111101111111111111
11111111111111111111111111111111111111111111111111111111111111111111111111111111
11111111111111111111111111111111111111111111111111111111111111111111111111111111
11111111111111111111111111111111
11111111111111111111111111111111111111111111111111111111111111111111111111111111
11111111111111111111111111111111111111111111111111111111111111111111111111111111
11111111111111111111111111111111
11111111111111111111111111111111111111111111111111111111111111111111111111111111
11111111111111111111111111111111111111111111111111111111111111111111111111111111
11111111111111111111111111111111
11111111111111111111111111111111111111111111111111111111111111111111111111111111
11111111111111111111111111111111111111111111111111111111111111111111111111111111
11111111111111111111111111111111
11111111111111111111011111111111111111111111111111111111111111110111111111111111
11111111111111111111111111111111111111111111111111111111111111111111111111111111
11111111111111111111111101101011
11011111111111111111011111111111111111111111111111111111111111110111111111111111
11111111111111111111111111111111111111111111111111111111111111111111111111111111
11111111111111111111111111011011
11111111111111111111111111111111111111111111111111111111111111111111111111111111
11111111111111111111111111111111111111111111111111111111111111111111111111111111
11111111111111111111111111101111
11111111111111111010111111111111111111111111111111111111111110101111111111111111
11111111111111111111111111111111111111111111111111111111111111111111111111111111
11111111111111111111111111110110
11111111111111111111111111111111111111111111111111111111111111111111111111111111
11111111111111111111111111111111111111111111111111111111111111111111111111111111
11111111111111111111111110101101
11111111111111111111111111111111111111111111111111111111111111111111111111111111
11111111111111111111111111111111111111111111111111111111111111111111111111111111
11111111111111111111111111111111
11111111111111111111111111111111111111111111111111111111111111111111111111111111
11111111111111111111111111111111111111111111111111111111111111111111111111111111
11111111111111111111111101011101
11111111111111111111111111111111111111111111111111111111111111111111111111111111
11111111111111111111111111111111111111111111111111111111111111111111111111111111
11111111111111111111111101111111
11111111111111111111111111111111111111111111111111111111111111111111111111111111
11111111111111111111111111111111111111111111111111111111111111111111111111111111
11111111111111111111111111111011
11011111111111111111111111111111111111111111111111111111111111111111111111111111
11111111111111111111111111111111111111111111111111111111111111111111111111111111
11111111111111111111111111111011
11111111111111111111111111111111111111111111111111111111111111111111111111111111
11111111111111111111111111111111111111111111111111111111111111111111111111111111
11111111111111111111111111111111
11111111111111111111111111111111111111111111111111111111111111111111111111111111
11111111111111111111111111111111111111111111111111111111111111111111111111111111
11111111111111111111111111111110
11111111111111111111111111111111111111111111111111111111111111111111111111111111
11111111111111111111111111111111111111111111111111111111111111111111110101111111
11111111111111111111111101011101
11111111111111111111111111111111111111111111111111111111111111111111111111111111
11111111111111111111111111111111111111111111111111111111111111111111111001111111
11111111111111111111111100111111
11111111111111111111111111111111111111111111111111111111111111111111111111111111
11111111111111111111111111111111111111111111111111111111111111111111111111111111
11111111111111111111111111111101
11111111111111111111111111111111111111111111111111111111111111111111111111111111
11111111111111111111111111111111111111111111111111111111111111111111111111111111
11111111111111111111111111111111
11111111111111111111111111111111111111111111111111111111111111111111111111111111
11111111111111111111111111111111111111111111111111111111111111111111111111111111
11111111111111111111111111111011
11011111111111111111111111111111111111111111111111111111111111111111111111111111
11111111111111111111111111111111111111111111111111111111111111111111111111111111
11111111111111111111111111111011
11111111111111111111111111111111111111111111111111111111111111111111111111111111
11111111111111111111111111111111111111111111111111111111111111111111111111111111
11111111111111111111111111111111
11111111111111111111111111111111111111111111111111111111111111111111111111111111
11111111111111111111111111111111111111111111111111111111111111111111111111111111
11111111111111111111111111111110
11111111111111111111111111111111111111111111111111111111111111111111111111111111
11111111111111111111111111111111111111111111111111111111111111111111111111111111
11111111111111111111111111111101
11111111111111111111111111111111111111111111111111111111111111111111111111111111
11111111111111111111111111111111111111111111111111111111111111111111111111111111
11111111111111111111111111111111
11111111111111111111111111111111111111111111111111111111111111111111111111111111
11111111111111111111111111111111111111111111111111111111111111111111111111111111
11111111111111111111111111111101
11111111111111111111111111111111111111111111111111111111111111111111111111111111
11111111111111111111111111111111111111111111111111111111111111111111111111111111
11111111111111111111111111111111
01111111111111111111111111111111111111111111111111111111111111111111111111111111
11111111111111111111111111111111111111111111111111111111111111111111111111111111
11111111111111111111111111111011
01011111111111111111111111111111111111111111111111111111111111111111111111111111
11111111111111111111111111111111111111111111111111111111111111111111111111111111
11111111111111111111111111111011
11111111111111111111111111111111111111111111111111111111111111111111111111111111
11111111111111111111111111111111111111111111111111111111111111111111111111111111
11111111111111111111111111111111
11111111111111111111111111111111111111111111111111111111111111111111111111111111
11111111111111111111111111111111111111111111111111111111111111111111111111111111
11111111111111111111111111111110
10111111111111111111111111111111111111111111111111111111111111111111111111111111
11111111111111111111111111111111111111111111111111111111111111111111111111111111
11111111111111111111111111111101
11111111111111111111111111111111111111111111111111111111111111111111111111111111
11111111111111111111111111111111111111111111111111111111111111111111111111111111
11111111111111111111111111111111
11111111111111111111111111111111111111111111111111111111111111111111111111111111
11111111111111111111111111111111111111111111111111111111111111111111111111111111
11111111111111111111111111111101
11111111111111111111111111111111111111111111111111111111111111111111111111111111
11111111111111111111111111111111111111111111111111111111111111111111111111111111
11111111111111111111111111111111
11111111111111111111111111111111111111111111111111111111111111111111111111111111
11111111111111111111111111111111111111111111111101011111111111111111111111111111
11111111111111111111111101111011
11111111111111111111111111111111111111111111111111111111111111111111111111111111
11111111111111111111111111111111111111111111111111011111111111111111111111111111
11111111111111111111111101111010
11111111111111111111111111111111111111111111111111111111111111111111111111111111
11111111111111111111111111111111111111111111111111111111111111111111111111111111
11111111111111111111111111111111
11111111111111111111111111111111111111111111111111111111111111111111111111111111
11111111111111111111111111111111111111111111111110111111111111111111111111111111
11111111111111111111111111111111
11111111111111111111111111111111111111111111111111111111111111111111111111111111
11111111111111111111111111111111111111111111111111111111111111111111111111111111
11111111111111111111111110111101
11111111111111111111111111111111111111111111111111111111111111111111111111111111
11111111111111111111111111111111111111111111111111111111111111111111111111111111
11111111111111111111111110111111
11111111111111111111111111111111111111111111111111111111111111111111111111111111
11111111111111111111111111111111111111111111111111111111111111111111111111111111
11111111111111111111111101011111
11111111111111111111111111111111111111111111111111111111111111111111111111111111
11111111111111111111111111111111111111111111111111111111111111111111111111111111
11111111111111111111111101011111
11111111111111111111111111111111111111111111111111111111111111111111111111111111
11111111111111111111111111111111111111111111111111111111111111111111111111111111
11111111111111111111111111111011
11111111111111111111111111111111111111111111111111111111111111111111111111111111
11111111111111111111111111111111111111111111111111111111111111111111111111111111
11111111111111111111111111111010
11111111111111111111111111111111111111111111111111111111111111111111111111111111
11111111111111111111111111111111111111111111111111111111111111111111111111111111
11111111111111111111111111111111
11111111111111111111111111111111111111111111111111111111111111111111111111111111
11111111111111111111111111111111111111111111111111111111111111111111111111111111
11111111111111111111111111111111
11111101111111111111111111111111111111111111111111111111111111111111111111111111
11111111111111111111111111111111111111111111111111111111111111111111111111111111
11111111111111111111111111111101
11111011111111111111111111111111111111111111111111111111111111111111111111111111
11111111111111111111111111111111111111111111111111111111111111111111111111111111
11111111111111111111111111111111
11111111111111111111111111111111111111111111111111111111111111111111111111111111
11111111111111111111111111111111111111111111111111111111111111111111111111111111
11111111111111111111111111111111
11111111111111111111111111111111111111111111111111111111111111111111111111111111
11111111111111111111111111111111111111111111111111111111111111111111111111111111
11111111111111111111111111111111
11111111111111111111111111111111111111111111111111111111111111111111111111111111
11111111111111111111111111111111111111111111111111111111111111111111111111111111
11111111111111111111111111111111
11111111111111111111111111111111111111111111111111111111111111111111111111111111
11111111111111111111111111111111111111111111111111111111111111111111111111111111
11111111111111111111111111111111
11111111111111111111111111111111111111111111111111111111111111111111111111111111
11111111111111111111111111111111111111111111111111111111111111111111111111111111
11111111111111111111111111111111
11111111111111111111111111111111111111111111111111111111111111111111111111111111
11111111111111111111111111111111111111111111111111111111111111111111111111111111
11111111111111111111111111111111
11111111111111111111111111111111111111111111111111111111111111111111111111111111
11111111111111111111111111111111111111111111111111111111111111111111111111111111
11111111111111111111111111111111
11111111111111111111111111111111111111111111111111111111111111111111111111111111
11111111111111111111111111111111111111111111111111111111111111111111111111111111
11111111111111111111111111111111
11111111111111111111111111111111111111111111111111111111111111111111111111111111
11111111111111111111111111111111111111111111111111111111111111111111111111111111
11111111111111111111111111111111
11111111111111111111111111111111111111111111111111111111111111111111111111111111
11111111111111111111111111111111111111111111111111111111111111111111111111111111
11111111111111111111111111111111
11111111111111111111011111111111111111111111111111111111111111111111111111111111
11111111111111111111111111111111111111111111111111111111111111111111111110111111
11111111111111111111111111111111
11111111111111111110011111111111111111111111111111111111111111111111111111111111
11111111111111111111111111111111111111111111111111111111111111111111111111111111
11111111111111111111111111111111
11111111111111111111111111111111111111111111111111111111111111111111111111111111
11111111111111111111111111111111111111111111111111111111111111111111111110110111
11111111111111111111111111111111
11111111111111111011111111111111111111111111111111111111111111111111111111111111
11111111111111111111111111111111111111111111111111111111111111111111111111011111
11111111111111111111111111111111
11111111111111111111111111111111111111111111111111111111111111111111111111111111
11111111111111111111111111111111111111111111111111111111111111111111111111111111
11111111111111111111111111111111
11111111111111111111111111111111111111111111111111111111111111111111111111111111
11111111111111111111111111111111111111111111111111111111111111111111111111111111
11111111111111111111111111111111
11111111111111111111111111111111111111111111111111111111111111111111111111111111
11111111111111111111111111111111111111111111111111111111111111111111111111111111
11111111111111111111111111111111
11111111111111111111111111111111111111111111111111111111111111111111111111111111
11111111111111111111111111111111111111111111111111111111111111111111111111111111
11111111111111111111111111111111
01111111111111111111111101111111111111111111111111111111111111111111111111111111
11111111111111111111111111111111111111111111111111111111111111011111111111111111
11111111111011111111111111111011
01011111111111111111101101111111111111111111111111111111111111111111111111111111
11111111111111111111111111111111111111011111111111111111111101011111111111111111
11111111111101111111111111111010
11111111111111111111111011111111111111111111111111111111111111111111111111111111
11111111111111111111111111111111111111111111111111111111111111011111111111111111
11111111111111011111111111111111
11111111111111111111100111111111111111111111111111111111111111111111111111111111
11111111111111111111111111111111111111101111111111111111111110011111111111111111
11111111111111011111111111111111
10111111111111111111101111111111111111111111111111111111111110111111111111111111
11111111111111111111111111111111111111111111111101111101110011111011101111110111
11111111111111111111111111111101
11111111111111111111111111111111111111111111111111111111111111011111111111111111
11111111111111111111111111111111111111101111111111011101110110111011001111110111
11111111111111111111111111111111
11111111111111111111110101111111111111111111111111111111111111111111111111111111
11111111111111111111111111111111111111111111111111111011111111111011010101111111
11111111111111111111111111111111
11111111111111111111111111111111111111111111111111111111111111111111111111111111
11111111111111111111111111111111111111101111111111101111101110111100011111101111
11111111111111111111111111111111
11111111111111111111101111111111111111111111111111111111111111111111111111111111
11111111111111111111111111111111111111101111111111111111111110001111101111110111
11111111111111111111111111111011
11011111111111111111111111111111111111111111111111111111111111111111111111111111
11111111111111111111111111111111111111101111111111111111111110001111101111111111
11111111111111111111111111111010
11111111111111111111111111111111111111111111111111111111111111111111111111111111
11111111111111111111111111111111111111111111111111111111111111001111111101111111
11111111111111111111111111111111
11111111111111111111111111111111111111111111111111111111111111111111111111111111
11111111111111111111111111111111111111101111111111111111111110001111110111111111
11111111111111111111111111111111
11111101111111111111111111111111111111111111111111111111111111111111111111111111
11111111111111111111111111111111111111111111111110011111111111011111111111111111
11111111111111111111111110010101
11111011111111111111111111111111111111111111111111111111111111111111111111111111
11111111111111111111111111111111111111111111111110011111111111011111111111111111
11111111111111111111111111110111
11111111111111111111111111111111111111111111111111111111111111111111111111111111
11111111111111111111111111111111111111011111111111111111111101011111111111111111
11111111111111111111111111111111
11111111111111111111111111111111111111111111111111111111111111111111111111111111
11111111111111111111111111111111111111111111111111111111111111011111111111111111
11111111111111111111111111111111
01111111110011111111111101111111111111111111111111111111111111111111111111111111
11111111111111111111111111100111111111111111111111111111111111111111111111111111
11111111111111111111111111111011
01111111010011111111111111111111111111111111111111111111111111111111111111111111
11111111111111111111111111100111111111111111111111111111111111111111111111111111
11111111111111111111111111111010
11111111110011111111111111111111111111111111111111111111111111111111111111111111
11111111111111111111111111111111111111111111111111111111111111111111111111111111
11111111111111111111111111111111
11111111100011111111111011111111111111111111111111111111111111111111111111111111
11111111111111111111111111111111111111111111111111111111111111111111111111111111
11111111111111111111111111111111
10111111110011111101011101111111111111111111111111111111111111110111111111111111
11111111111111111111111111111111111111111111111111111111111111111111111111111111
11111111111111111111111111111101
11111111100011111110001011111111111111111111111111111111111111110111111111111111
11111111111111111111111111111111111111111111111111111111111111111111111111111111
11111111111111111111111111111111
10111111110011111111111101111111111111111111111111111111111111101111111111111111
11111111111111111111111111111111111111111111111111111111111111111111111111111111
11111111111111111111111111111111
10111111100011111111111111111111111111111111111111111111111110111111111111111111
11111111111111111111111111111111111111111111111111111111111111111111111111111111
11111111111111111111111111111111
01111111101111111111111111111111111111111111111111111111111111111111111111111111
11111111111111111111111111111111111111111111111111111111111111111111111111111111
11111111111111111111111111111111
01011111101111111111111111111111111111111111111111111111111111111111111111111111
11111111111111111111111111111111111111111111111111111111111111111111111111111011
01111111111111111111111111111110
11111111111111111111111111111111111111111111111111111111111111111111111111111111
11111111111111111111111111111111111111111111111111111111111111111111111111111111
11111111111111111111111111111111
11111111101111111111111111111111111111111111111111111111111111111111111111111111
11111111111111111111111111111111111111111111111111111111111111111111111111111111
11111111111111111111111111111111
10111111111111111111111111111111111111111111111111111111111111111111111111111111
11111111111111111111111111111111111111111111111111111111111111111111111111111111
11111111111111111111111111111111
11111111111111111111111111111111111111111111111111111111111111111111111111111111
11111111111111111111111111111111111111111111111111111111111111111111111111111111
11111111111111111111111111111111
11111111011111111111111111111111111111111111111111111111111111111111111111111111
11111111111111111111111111111111111111111111111111111111111111111111111111111111
11111111111111111111111111111111
11111111111111111111111111111111111111111111111111111111111111111111111111111111
11111111111111111111111111111111111111111111111111111111111111111111111111111111
11111111111111111111111111111111
11111111111111111111111111111111111111111111111111111111111111111111111111111111
11111111111111111111111111111111111111111111111111111111111111111111111111111111
11111111111111101111111111111111
11111111111111111111111111111111111111111111111111111111111111111111111111111111
11111111111111111111111111111111111111111111111111111111111111111111111111111111
11111111111111111111111111111111
11111111111111111111111111111111111111111111111111111111111111111111111111111111
11111111111111111111111111111111111111111111111111111111111111111111111111111111
11111111111111110111111111111111
11111111111111111111111111111111111111111111111111111111111111111111111111111111
11111111111111111111111111111111111111111111111111111111111111111111111111111111
11111111111111111111111111111111
11111111111111111111111111111111111111111111111111111111111111111111111111111111
11111111111111111111111111111111111111111111111111111111111111111000111111111111
11111111111111111111111111111111
11111111111111111111111111111111111111111111111111111111111111111111111111111111
11111111111111111111111111111111111111111111111111111111111111111011011111111111
11111111111111111111111111111111
11111111111111111111111111111111111111111111111111111111111111111111111111111111
11111111111111111111111111111111111111111111111111111111111111111011011111111111
11111111111111111111111111111111
11111111111111111111111111111111111111111111111111111111111111111111111111111111
11111111111111111111111111111111111111111111111111111111111111111111011111111111
11111111111111111111111111111111
11101111111111111111111111111111111111111111111111111111111111111111111111111111
11111111111111111111111111111111111111111111111111111111111111111111111111111111
11111111111111111111111111111111
11111111111111111111111111111111111111111111111111111111111111111111111111111111
11111111111111111111111111111111111111111111111111111111111111111111111111111111
11111111111111111111111111111111
11111111111111111111111111111111111111111111111111111111111111111111111111111111
11111111111111111111111111111111111111111111111111111111111111111111111111111111
11111111111111111111111111111111
11111111111111111111111111111111111111111111111111111111111111111111111111111111
11111111111111111111111111111111111111111111111111111111111111111111111111111111
11111111111111111111111111111111
11111111111111111111111111111111111111111111111111111111111111111111111111111111
11111111111111111111111111111111111111111111111101111111111111111111111111111111
11111111111111111111111111111111
11111111111111111111111111111111111111111111111111111111111111111111111111111111
11111111111111111111111111111111111111111111111111011111111111111111111111111111
11111111111111111111111111111111
11111111111111111111111111111111111111111111111111111111111111111111111111111111
11111111111111111111111111111111111111111111111111111111111111111111111111111111
11111111111111111111111111111111
11111111111111111111111111111111111111111111111111111111111111111111111111111111
11111111111111111111111111111111111111111111111111111111111111111111111111111111
11111111111111111111111111111111
11111111111111111111111111111111111111111111111111111111111111111111111111111111
11111111111111111111111110111111111111111111111111111111111111111111111111111111
11111111111111111111111111111111
11111111111111111111111111111111111111111111111111111111111111111111111111111111
11111111111111111111111110011111111111111111111111111111111111111111111111111111
11111111111111111111111111111111
11111111111111111111111111111111111111111111111111111111111111111111111111111111
11111111111111111111111111110111111111111111111111111111111111111111111111111111
11111111111111111111111111111111
11111111111111111111111111111111111111111111111111111111111111111111111111111111
11111111111111111111111111111111111111111111111111111111111111111111111111111111
11111111111111111111111111111111
11111111111111111111111111111111111111111111111111111111111111111111111111111111
11111111111111111111111111111111111111111111111011101111111111111111101110111111
11111111111011111111111111111111
11111111111111111111111111111111111111111111111111111111111111111111111111111111
11111101111111111111111111111111111111111111111111101101111111111111110110010111
11111111111001111111111111111111
11111111111111111111111111111111111111111111111111111111111111111111111111111111
11111111111111111111111111111111111111111111111111001111111111111111101100101111
11111111111111011111111111111111
11111111111111111111111111111111111111111111111111111111111111111111111111111111
11101111111111111111111111111111111111111111111101000001111111111111111110011111
11111111111111111111111111111111
11111111111111111111111111111111111111111111111111111111111111111111111111111111
11111111111111111111111110111111111111111111111111111110110111111111111111111011
01111111111111111111111111111111
11111111111111111111111110111011111111111111111111111111111111111111111111111111
11111111111111111111111110011111111111111111111111111111111111111111111111111111
11111111111111111111111111111111
11111111111111111111111111010111111111111111111111111111111111111111111111111111
11111111111111111111111111110111111111111111111111111111111111111111111111111111
11111111111111111111111111111111
11111111111111111111111111111111111111111111111111111111111111111111111111111111
11111111111111111111111111111111111111111111111111111111111111111111111111111111
11111111111111111111111111111111
11111111111111111111111111111111111111111111111111111111111111111011111111111111
11111111111111111111111111111111111111111111111011111111111111111111111111111111
11111111111111111111111111111111
11111111111111111111111111111111111111111111111111111111111111111011111111111111
11111111111111111111111111111111111111111111111111111111111111111111111110111111
11111111111111111111111111111111
11111111111111111111111111111111111111111111111111111111111111111111011111111111
11111111111111111111111111111111111111111111111111011111111111111111111111110111
11111111111111111111111111111111
11111111111111111111111111111111111111111111111111111111111111111101111111111111
11111111111111111111111111111111111111111111111101011111111111111111111111111111
11111111111111111111111111111111
11111111111111111111111111111111111111111111111111111101111111110111111111111111
11111111111111111111111111111111111111111111111111111111111111111111111101111111
11111111111111111111111111111111
11111111111111111111110111111111111111111111111111111101111111110111111111111111
11111101111111111111111111111111111111110111111111111111111111111111111111111111
11111101111111111111111111111111
11111111111111111111111111111111111111111111111111111111111111111111111111111111
11111111111111111111111111111111111111111111111111111111111101111111111111111111
11111111111111111111111111111111
11111111111111111111110111111111111111111111111111111111111111111111111111111111
11111111111111111111111111111111111111111111111111111111111111111111111111111111
11111101111111111111111111111111
11111111111111111111111111111111111111111111111111111111111111111111111111111111
11111111111111111111111111111111111111111111111111111111111110111111111111111111
11111111111111111111111111111111
11111111111111111111111111111111111111111111111111111111111111111111111111111111
11111111111111111111111111111111111111111111111111111111111111111111111111111111
11111111111111111111111111111111
11111111111111111111111111111111111111111111111111110111111111011111111111111111
11111111111111111111111111111111111111111111111111111111111101011111110111111111
11111111111111111111111111111111
11111111111111111111111111111111111111111111111111110111111111011111111111111111
11110111111111111111101111111111111111011111111111111011111111111111111111111111
11111111111111111111111111111111
11111111111111111111111111111111111111111111111111111111111111111111111111111111
11111111111111111111111111111111111111111111111111111111111111111111111111111111
11111111111111111111111111111111
11111111111111111111111111111111111111111111111111111111111111111111111111111111
11111111111111111111100111111111111111111111111111111101111111111111111111111111
11111111111111111111111111111111
11111111111111111111111111111111111111111111111111111111111111111111111111111111
11111111111111111111111111111111111111111111111111111111111111111111111111111111
11111111111111111111111111111111
11111111111111111111111111111111111111111111111111111111111111111111111111111111
11111111111111111111111111111111111111111111111111111011111111111111111111111111
11111111111111111111111111111111
11111111111111111111111111111111111111111111111111111111111111111111111111111111
11111111111111111111111111111111111111111111111111111111111111111111111111111111
11111111111111111111111111111111
11111111111111111111111111111111111111111111111111111111111111111111111111111111
11111111111111111111111011111111111111111111111111111110111111111111111111111111
11111111111111111111111111111111
11111111111111111111111111111111111111111111111111111111111111111111111111111111
11111111111111111111111111111111111111111111111111111111111111111111111111111111
11111111111111111111111111111111
11111111111111111111111110111111111111111111111011110011111111110101111011111111
11111111111011110011111111110101110111001111111111010111101100111111111101111011
11001111111111011110111111111111
11111111001111111111011110111111111111111111111011110011111111110101111011001111
11111101011110111111111111111111101111001111111111010111011111111111111111111011
11001111111111011110111111111111
11111111111111111111111111111111111111111111111111110011111111110101111011111111
11111111111111111111111111111111101111111111111111111111111100111111111101011110
11111111111111111111111111111111
11111111111111111111111111111111111111111111111111110011111111110101111011111111
11111111111111111111111111111111101111111111111111111111111100111111111101011110
11111111111111111111111111111111
*
C3198*
N User Electronic Signature Data*
U00000000000000000000000000000000*
B63D
