LCMXO256,,,,
Pin,Name,Side,Type,Unit
1,PL2A,left,bi,A
2,PL2B,left,bi,A
3,PL3A,left,bi,A
4,PL3B,left,bi,A
5,PL3C,left,bi,A
6,PL3D,left,bi,A
7,PL4A,left,bi,A
8,PL4B,left,bi,A
9,PL5A,left,bi,A
10,VCCIO1,top,pwr,B
11,PL5B,left,bi,A
12,GNDIO1,bottom,pwr,B
13,PL5C,left,bi,A
14,PL5D/GSRN,left,bi,A
15,PL6A,left,bi,A
16,PL6B/TSALL,left,bi,A
17,PL7A,left,bi,A
18,PL7B,left,bi,A
19,PL7C,left,bi,A
20,PL7D,left,bi,A
21,PL8A,left,bi,A
22,PL8B,left,bi,A
23,PL9A,left,bi,A
24,VCCIO1,top,pwr,B
25,GNDIO1,bottom,pwr,B
26,TMS,right,in,B
27,PL9B,left,bi,A
28,TCK,right,in,B
29,PB2A,bottom,bi,A
30,PB2B,bottom,bi,A
31,TDO,right,out,B
32,PB2C,bottom,bi,A
33,TDI,right,in,B
34,PB2D,bottom,bi,A
35,VCC,top,pwr,B
36,PB3A/PCLK1_1,bottom,bi,A
37,PB3B,bottom,bi,A
38,PB3C/PCLK1_0,bottom,bi,A
39,PB3D,bottom,bi,A
40,GND,bottom,pwr,B
41,VCCIO1,top,pwr,B
42,GNDIO1,bottom,pwr,B
43,PB4A,bottom,bi,A
44,PB4B,bottom,bi,A
45,PB4C,bottom,bi,A
46,PB4D,bottom,bi,A
47,PB5A,bottom,bi,A
48,SLEEPN,left,in,B
49,PB5C,bottom,bi,A
50,PB5D,bottom,bi,A
51,PR9B,right,bi,A
52,PR9A,right,bi,A
53,PR8B,right,bi,A
54,PR8A,right,bi,A
55,PR7D,right,bi,A
56,PR7C,right,bi,A
57,PR7B,right,bi,A
58,PR7A,right,bi,A
59,PR6B,right,bi,A
60,VCCIO0,top,pwr,B
61,PR6A,right,bi,A
62,GNDIO0,bottom,pwr,B
63,PR5D,right,bi,A
64,PR5C,right,bi,A
65,PR5B,right,bi,A
66,PR5A,right,bi,A
67,PR4B,right,bi,A
68,PR4A,right,bi,A
69,PR3D,right,bi,A
70,PR3C,right,bi,A
71,PR3B,right,bi,A
72,PR3A,right,bi,A
73,PR2B,right,bi,A
74,VCCIO0,top,pwr,B
75,GNDIO0,bottom,pwr,B
76,PR2A,right,bi,A
77,PT5C,top,bi,A
78,PT5B,top,bi,A
79,PT5A,top,bi,A
80,PT4F,top,bi,A
81,PT4E,top,bi,A
82,PT4D,top,bi,A
83,PT4C,top,bi,A
84,GND,bottom,pwr,B
85,PT4B/PCLK0_1,top,bi,A
86,PT4A/PCLK0_0,top,bi,A
87,PT3D,top,bi,A
88,VCCAUX,top,pwr,B
89,PT3C,top,bi,A
90,VCC,top,pwr,B
91,PT3B,top,bi,A
92,VCCIO0,top,pwr,B
93,GNDIO0,bottom,pwr,B
94,PT3A,top,bi,A
95,PT2F,top,bi,A
96,PT2E,top,bi,A
97,PT2D,top,bi,A
98,PT2C,top,bi,A
99,PT2B,top,bi,A
100,PT2A,top,bi,A
