EESchema Schematic File Version 4
EELAYER 30 0
EELAYER END
$Descr A3 16535 11693
encoding utf-8
Sheet 1 1
Title "MOJO-NES MKIII Programmer"
Date "2017-09-25"
Rev "A"
Comp "doragasu@1985alternativo"
Comment1 "License: CERN-OHL-S v2"
Comment2 "Check if it is possible to program both flash chips simultaneously (multiplexed)"
Comment3 "Add connector for Famicom cart?"
Comment4 "TODO:"
$EndDescr
$Comp
L power:GND #PWR017
U 1 1 57285613
P 1800 2700
F 0 "#PWR017" H 1800 2450 50  0001 C CNN
F 1 "GND" H 1808 2526 50  0001 C CNN
F 2 "" H 1800 2700 50  0000 C CNN
F 3 "" H 1800 2700 50  0000 C CNN
	1    1800 2700
	1    0    0    -1  
$EndComp
$Comp
L 93cxxc:93CxxC U5
U 1 1 572857DF
P 3250 8700
F 0 "U5" H 3350 9050 50  0000 C CNN
F 1 "93C46" H 3400 8950 50  0000 C CNN
F 2 "Housings_SOIC:SOIC-8_3.9x4.9mm_Pitch1.27mm" H 3150 8700 50  0001 C CNN
F 3 "" H 3250 8800 50  0000 C CNN
F 4 "M93C46-WMN6TP" H 3250 8700 60  0001 C CNN "manf#"
	1    3250 8700
	1    0    0    -1  
$EndComp
$Comp
L power:GND #PWR054
U 1 1 572858FA
P 3250 9050
F 0 "#PWR054" H 3250 8800 50  0001 C CNN
F 1 "GND" H 3258 8876 50  0001 C CNN
F 2 "" H 3250 9050 50  0000 C CNN
F 3 "" H 3250 9050 50  0000 C CNN
	1    3250 9050
	1    0    0    -1  
$EndComp
$Comp
L Device:R R18
U 1 1 5728599F
P 4000 8500
F 0 "R18" V 4100 8450 50  0000 L CNN
F 1 "2k2" V 4000 8500 50  0000 C CNN
F 2 "Resistors_SMD:R_0805" V 3930 8500 50  0001 C CNN
F 3 "" H 4000 8500 50  0000 C CNN
F 4 "RC0805JR-072K2L" V 4000 8500 60  0001 C CNN "manf#"
	1    4000 8500
	0    1    1    0   
$EndComp
$Comp
L Device:R R13
U 1 1 57285F94
P 3800 7900
F 0 "R13" V 3900 7900 50  0000 L CNN
F 1 "10k" V 3800 7900 50  0000 C CNN
F 2 "Resistors_SMD:R_0805" V 3730 7900 50  0001 C CNN
F 3 "" H 3800 7900 50  0000 C CNN
F 4 "RMCF0805JT10K0" V 3800 7900 60  0001 C CNN "manf#"
	1    3800 7900
	-1   0    0    1   
$EndComp
$Comp
L Device:Crystal Y3
U 1 1 5728678A
P 3550 9500
F 0 "Y3" H 3550 9750 50  0000 C CNN
F 1 "12MHz" H 3550 9650 50  0000 C CNN
F 2 "Crystals:Crystal_HC49-4H_Vertical" H 3550 9500 50  0001 C CNN
F 3 "" H 3550 9500 50  0000 C CNN
F 4 "9B-12.000MBBK-B" H 3550 9500 60  0001 C CNN "manf#"
	1    3550 9500
	1    0    0    -1  
$EndComp
$Comp
L Device:C C28
U 1 1 57286885
P 3300 9650
F 0 "C28" H 3050 9700 50  0000 L CNN
F 1 "22p" H 3050 9600 50  0000 L CNN
F 2 "Capacitors_SMD:C_0603" H 3338 9500 50  0001 C CNN
F 3 "" H 3300 9650 50  0000 C CNN
	1    3300 9650
	1    0    0    -1  
$EndComp
$Comp
L Device:C C29
U 1 1 572868DB
P 3800 9650
F 0 "C29" H 3915 9696 50  0000 L CNN
F 1 "22p" H 3915 9604 50  0000 L CNN
F 2 "Capacitors_SMD:C_0603" H 3838 9500 50  0001 C CNN
F 3 "" H 3800 9650 50  0000 C CNN
	1    3800 9650
	1    0    0    -1  
$EndComp
$Comp
L power:GND #PWR057
U 1 1 57286920
P 3300 9800
F 0 "#PWR057" H 3300 9550 50  0001 C CNN
F 1 "GND" H 3308 9626 50  0001 C CNN
F 2 "" H 3300 9800 50  0000 C CNN
F 3 "" H 3300 9800 50  0000 C CNN
	1    3300 9800
	1    0    0    -1  
$EndComp
$Comp
L power:GND #PWR058
U 1 1 5728694C
P 3800 9800
F 0 "#PWR058" H 3800 9550 50  0001 C CNN
F 1 "GND" H 3808 9626 50  0001 C CNN
F 2 "" H 3800 9800 50  0000 C CNN
F 3 "" H 3800 9800 50  0000 C CNN
	1    3800 9800
	1    0    0    -1  
$EndComp
Text Label 4300 6700 2    60   ~ 0
FT_D-
Text Label 4300 6800 2    60   ~ 0
FT_D+
NoConn ~ 13500 2000
Text Label 12100 2100 0    60   ~ 0
A11
Text Label 12100 2200 0    60   ~ 0
A10
Text Label 12100 2300 0    60   ~ 0
A9
Text Label 12100 2400 0    60   ~ 0
A8
Text Label 12100 2500 0    60   ~ 0
A7
Text Label 12100 2600 0    60   ~ 0
A6
Text Label 12100 2700 0    60   ~ 0
A5
Text Label 12100 2800 0    60   ~ 0
A4
Text Label 12100 2900 0    60   ~ 0
A3
Text Label 12100 3000 0    60   ~ 0
A2
Text Label 12100 3100 0    60   ~ 0
A1
Text Label 12100 3200 0    60   ~ 0
A0
Text Label 13800 2100 2    60   ~ 0
PHI2
Text Label 13800 2200 2    60   ~ 0
A12
Text Label 13800 2300 2    60   ~ 0
A13
Text Label 13800 2400 2    60   ~ 0
A14
Text Label 13800 2500 2    60   ~ 0
D7
Text Label 13800 2600 2    60   ~ 0
D6
Text Label 13800 2700 2    60   ~ 0
D5
Text Label 13800 2800 2    60   ~ 0
D4
Text Label 13800 2900 2    60   ~ 0
D3
Text Label 13800 3000 2    60   ~ 0
D2
Text Label 13800 3100 2    60   ~ 0
D1
Text Label 13800 3200 2    60   ~ 0
D0
Text Label 13800 3300 2    60   ~ 0
~PRG
Text Label 12100 3300 0    60   ~ 0
R/~W
NoConn ~ 12400 3400
$Comp
L power:GND #PWR059
U 1 1 57299DD2
P 5400 9850
F 0 "#PWR059" H 5400 9600 50  0001 C CNN
F 1 "GND" H 5408 9676 50  0001 C CNN
F 2 "" H 5400 9850 50  0000 C CNN
F 3 "" H 5400 9850 50  0000 C CNN
	1    5400 9850
	1    0    0    -1  
$EndComp
$Comp
L power:GND #PWR037
U 1 1 5729A1C7
P 13550 5950
F 0 "#PWR037" H 13550 5700 50  0001 C CNN
F 1 "GND" H 13558 5776 50  0001 C CNN
F 2 "" H 13550 5950 50  0000 C CNN
F 3 "" H 13550 5950 50  0000 C CNN
	1    13550 5950
	1    0    0    -1  
$EndComp
$Comp
L power:GND #PWR012
U 1 1 5729A39D
P 12100 1900
F 0 "#PWR012" H 12100 1650 50  0001 C CNN
F 1 "GND" H 12108 1726 50  0001 C CNN
F 2 "" H 12100 1900 50  0000 C CNN
F 3 "" H 12100 1900 50  0000 C CNN
	1    12100 1900
	1    0    0    -1  
$EndComp
NoConn ~ 12400 4400
Text Label 12100 4500 0    60   ~ 0
A6
Text Label 12100 4600 0    60   ~ 0
A5
Text Label 12100 4700 0    60   ~ 0
A4
Text Label 12100 4800 0    60   ~ 0
A3
Text Label 12100 4900 0    60   ~ 0
A2
Text Label 12100 5000 0    60   ~ 0
A1
Text Label 12100 5100 0    60   ~ 0
A0
Text Label 12100 5200 0    60   ~ 0
D0
Text Label 12100 5300 0    60   ~ 0
D1
Text Label 12100 5400 0    60   ~ 0
D2
Text Label 12100 5500 0    60   ~ 0
D3
Text Label 13800 4500 2    60   ~ 0
A7
Text Label 13800 4600 2    60   ~ 0
A8
Text Label 13800 4700 2    60   ~ 0
A9
Text Label 13800 4900 2    60   ~ 0
A10
Text Label 13800 4800 2    60   ~ 0
A11
Text Label 13800 5000 2    60   ~ 0
A12
Text Label 13800 5100 2    60   ~ 0
A13
Text Label 13800 5200 2    60   ~ 0
D7
Text Label 13800 5300 2    60   ~ 0
D6
Text Label 13800 5400 2    60   ~ 0
D5
Text Label 13800 5500 2    60   ~ 0
D4
NoConn ~ 13500 5800
Text Label 13800 4200 2    60   ~ 0
C_~W
Entry Wire Line
	13800 2100 13900 2200
Entry Wire Line
	13800 2200 13900 2300
Entry Wire Line
	13800 2300 13900 2400
Entry Wire Line
	13800 2400 13900 2500
Entry Wire Line
	13800 2500 13900 2600
Entry Wire Line
	13800 2600 13900 2700
Entry Wire Line
	13800 2700 13900 2800
Entry Wire Line
	13800 2800 13900 2900
Entry Wire Line
	13800 2900 13900 3000
Entry Wire Line
	13800 3000 13900 3100
Entry Wire Line
	13800 3100 13900 3200
Entry Wire Line
	13800 3200 13900 3300
Entry Wire Line
	13800 3300 13900 3400
Entry Wire Line
	13800 3700 13900 3800
Entry Wire Line
	13800 3800 13900 3900
Entry Wire Line
	13800 4000 13900 4100
Entry Wire Line
	13800 4200 13900 4300
Entry Wire Line
	13800 4500 13900 4600
Entry Wire Line
	13800 4600 13900 4700
Entry Wire Line
	13800 4700 13900 4800
Entry Wire Line
	13800 4800 13900 4900
Entry Wire Line
	13800 4900 13900 5000
Entry Wire Line
	13800 5000 13900 5100
Entry Wire Line
	13800 5100 13900 5200
Entry Wire Line
	13800 5200 13900 5300
Entry Wire Line
	13800 5300 13900 5400
Entry Wire Line
	13800 5400 13900 5500
Entry Wire Line
	13800 5500 13900 5600
Entry Wire Line
	13800 5700 13900 5800
Entry Wire Line
	12000 2200 12100 2100
Entry Wire Line
	12000 2300 12100 2200
Entry Wire Line
	12000 2400 12100 2300
Entry Wire Line
	12000 2500 12100 2400
Entry Wire Line
	12000 2600 12100 2500
Entry Wire Line
	12000 2700 12100 2600
Entry Wire Line
	12000 2800 12100 2700
Entry Wire Line
	12000 2900 12100 2800
Entry Wire Line
	12000 3000 12100 2900
Entry Wire Line
	12000 3100 12100 3000
Entry Wire Line
	12000 3200 12100 3100
Entry Wire Line
	12000 3300 12100 3200
Entry Wire Line
	12000 3400 12100 3300
Entry Wire Line
	12000 3800 12100 3700
Entry Wire Line
	12000 4000 12100 3900
Entry Wire Line
	12000 4100 12100 4000
Entry Wire Line
	12000 4400 12100 4300
Entry Wire Line
	12000 4600 12100 4500
Entry Wire Line
	12000 4700 12100 4600
Entry Wire Line
	12000 4800 12100 4700
Entry Wire Line
	12000 4900 12100 4800
Entry Wire Line
	12000 5000 12100 4900
Entry Wire Line
	12000 5100 12100 5000
Entry Wire Line
	12000 5200 12100 5100
Entry Wire Line
	12000 5300 12100 5200
Entry Wire Line
	12000 5400 12100 5300
Entry Wire Line
	12000 5500 12100 5400
Entry Wire Line
	12000 5600 12100 5500
Entry Wire Line
	12000 5800 12100 5700
Entry Wire Line
	12000 5900 12100 5800
NoConn ~ 12400 3600
NoConn ~ 12400 3800
NoConn ~ 13500 3900
NoConn ~ 13500 3600
Entry Wire Line
	11900 1300 12000 1400
Entry Wire Line
	11900 1400 12000 1500
Entry Wire Line
	11900 1500 12000 1600
Entry Wire Line
	11900 1600 12000 1700
Entry Wire Line
	11900 1700 12000 1800
Entry Wire Line
	11900 1800 12000 1900
Entry Wire Line
	11900 1900 12000 2000
Entry Wire Line
	11900 2000 12000 2100
Entry Wire Line
	11900 4900 12000 5000
Entry Wire Line
	11900 5600 12000 5700
Entry Wire Line
	11900 2200 12000 2300
Entry Wire Line
	11900 5200 12000 5300
Entry Wire Line
	11900 3100 12000 3200
Entry Wire Line
	11900 3200 12000 3300
Entry Wire Line
	11900 3300 12000 3400
Entry Wire Line
	11900 3400 12000 3500
Entry Wire Line
	11900 3500 12000 3600
Entry Wire Line
	11900 3600 12000 3700
Entry Wire Line
	11900 3700 12000 3800
Entry Wire Line
	11900 5500 12000 5600
Entry Wire Line
	11900 6000 12000 6100
Entry Wire Line
	11900 6100 12000 6200
Entry Wire Line
	11900 6200 12000 6300
Entry Wire Line
	11900 6300 12000 6400
Entry Wire Line
	11900 6400 12000 6500
Entry Wire Line
	11900 6500 12000 6600
Text Label 11900 6000 2    60   ~ 0
D2
Text Label 11900 6100 2    60   ~ 0
D3
Text Label 11900 6200 2    60   ~ 0
D4
Text Label 11900 6300 2    60   ~ 0
D5
Text Label 11900 6400 2    60   ~ 0
D6
Text Label 11900 6500 2    60   ~ 0
D7
Text Label 11900 1300 2    60   ~ 0
A0
Text Label 11900 1400 2    60   ~ 0
A1
Text Label 11900 1500 2    60   ~ 0
A2
Text Label 11900 1600 2    60   ~ 0
A3
Text Label 11900 1700 2    60   ~ 0
A4
Text Label 11900 1800 2    60   ~ 0
A5
Text Label 11900 1900 2    60   ~ 0
A6
Text Label 11900 2000 2    60   ~ 0
A7
Text Label 11900 3100 2    60   ~ 0
A8
Text Label 11900 3200 2    60   ~ 0
A9
Text Label 11900 3300 2    60   ~ 0
A10
Text Label 11900 3400 2    60   ~ 0
A11
Text Label 11900 3500 2    60   ~ 0
A12
Text Label 11900 3600 2    60   ~ 0
A13
Text Label 11900 3700 2    60   ~ 0
A14
Text Label 11900 5500 2    60   ~ 0
~PRG
NoConn ~ 6700 7000
NoConn ~ 6700 7100
NoConn ~ 6700 7200
NoConn ~ 6700 8000
NoConn ~ 6700 8100
NoConn ~ 6700 8200
NoConn ~ 6700 8600
NoConn ~ 6700 8700
NoConn ~ 6700 8800
NoConn ~ 6700 8900
NoConn ~ 6700 9000
NoConn ~ 6700 9400
Text Label 12100 4300 0    60   ~ 0
C_~R
Text Label 11900 4900 2    60   ~ 0
PHI2
Text Label 11900 2200 2    60   ~ 0
C_~R
Text Label 11900 5200 2    60   ~ 0
C_~W
Text Label 11900 5600 2    60   ~ 0
R/~W
$Comp
L power:+5V #PWR036
U 1 1 572B35AF
P 12350 5900
F 0 "#PWR036" H 12350 5750 50  0001 C CNN
F 1 "+5V" V 12350 6100 50  0000 C CNN
F 2 "" H 12350 5900 50  0000 C CNN
F 3 "" H 12350 5900 50  0000 C CNN
	1    12350 5900
	0    -1   -1   0   
$EndComp
$Comp
L Device:C C23
U 1 1 572B3B0C
P 9800 7450
F 0 "C23" H 9915 7496 50  0000 L CNN
F 1 "100n" H 9915 7404 50  0000 L CNN
F 2 "Capacitors_SMD:C_0603" H 9838 7300 50  0001 C CNN
F 3 "" H 9800 7450 50  0000 C CNN
	1    9800 7450
	1    0    0    -1  
$EndComp
$Comp
L power:+5V #PWR042
U 1 1 572B3D08
P 10200 7250
F 0 "#PWR042" H 10200 7100 50  0001 C CNN
F 1 "+5V" H 10218 7424 50  0000 C CNN
F 2 "" H 10200 7250 50  0000 C CNN
F 3 "" H 10200 7250 50  0000 C CNN
	1    10200 7250
	1    0    0    -1  
$EndComp
$Comp
L power:GND #PWR045
U 1 1 572B3DCA
P 10200 7650
F 0 "#PWR045" H 10200 7400 50  0001 C CNN
F 1 "GND" H 10208 7476 50  0001 C CNN
F 2 "" H 10200 7650 50  0000 C CNN
F 3 "" H 10200 7650 50  0000 C CNN
	1    10200 7650
	1    0    0    -1  
$EndComp
Text Label 12100 3700 0    60   ~ 0
TCK
Text Label 12100 3900 0    60   ~ 0
TMS
Text Label 12100 4000 0    60   ~ 0
SS
Text Label 13800 3700 2    60   ~ 0
~POWE
Text Label 13800 3800 2    60   ~ 0
TDI
Text Label 13800 4000 2    60   ~ 0
TDO
Text Label 13800 5700 2    60   ~ 0
SCK
Text Label 12100 5800 0    60   ~ 0
MOSI
Text Label 12100 5700 0    60   ~ 0
MISO
$Comp
L power:+3.3V #PWR033
U 1 1 572B8A3A
P 5800 5300
F 0 "#PWR033" H 5800 5150 50  0001 C CNN
F 1 "+3.3V" H 5800 5450 50  0000 C CNN
F 2 "" H 5800 5300 50  0000 C CNN
F 3 "" H 5800 5300 50  0000 C CNN
	1    5800 5300
	1    0    0    -1  
$EndComp
$Comp
L Device:R R12
U 1 1 572B8D0B
P 4100 7000
F 0 "R12" V 4000 7000 50  0000 C CNN
F 1 "12k" V 4100 7000 50  0000 C CNN
F 2 "Resistors_SMD:R_0805" V 4030 7000 50  0001 C CNN
F 3 "" H 4100 7000 50  0000 C CNN
F 4 "RC0805JR-0712KL" V 4100 7000 60  0001 C CNN "manf#"
	1    4100 7000
	0    1    1    0   
$EndComp
$Comp
L power:GND #PWR040
U 1 1 572B8FB3
P 3850 7000
F 0 "#PWR040" H 3850 6750 50  0001 C CNN
F 1 "GND" H 3858 6826 50  0001 C CNN
F 2 "" H 3850 7000 50  0000 C CNN
F 3 "" H 3850 7000 50  0000 C CNN
	1    3850 7000
	1    0    0    -1  
$EndComp
$Comp
L power:+3.3V #PWR049
U 1 1 572B9642
P 3250 8400
F 0 "#PWR049" H 3250 8250 50  0001 C CNN
F 1 "+3.3V" H 3250 8550 50  0000 C CNN
F 2 "" H 3250 8400 50  0000 C CNN
F 3 "" H 3250 8400 50  0000 C CNN
	1    3250 8400
	1    0    0    -1  
$EndComp
$Comp
L power:+3.3V #PWR052
U 1 1 572B9814
P 2800 8700
F 0 "#PWR052" H 2800 8550 50  0001 C CNN
F 1 "+3.3V" V 2800 8950 50  0000 C CNN
F 2 "" H 2800 8700 50  0000 C CNN
F 3 "" H 2800 8700 50  0000 C CNN
	1    2800 8700
	0    -1   -1   0   
$EndComp
$Comp
L power:+3.3V #PWR044
U 1 1 572B9B8D
P 4000 7650
F 0 "#PWR044" H 4000 7500 50  0001 C CNN
F 1 "+3.3V" H 4000 7800 50  0000 C CNN
F 2 "" H 4000 7650 50  0000 C CNN
F 3 "" H 4000 7650 50  0000 C CNN
	1    4000 7650
	1    0    0    -1  
$EndComp
$Comp
L Device:R R14
U 1 1 572BA032
P 4000 7900
F 0 "R14" V 4100 7900 50  0000 L CNN
F 1 "10k" V 4000 7900 50  0000 C CNN
F 2 "Resistors_SMD:R_0805" V 3930 7900 50  0001 C CNN
F 3 "" H 4000 7900 50  0000 C CNN
	1    4000 7900
	-1   0    0    1   
$EndComp
$Comp
L Device:R R15
U 1 1 572BA08E
P 4200 7900
F 0 "R15" V 4300 7900 50  0000 L CNN
F 1 "10k" V 4200 7900 50  0000 C CNN
F 2 "Resistors_SMD:R_0805" V 4130 7900 50  0001 C CNN
F 3 "" H 4200 7900 50  0000 C CNN
	1    4200 7900
	-1   0    0    1   
$EndComp
$Comp
L Device:Crystal Y2
U 1 1 572BAE3D
P 8600 3350
F 0 "Y2" V 8550 3500 50  0000 L CNN
F 1 "8MHz" V 8650 3500 50  0000 L CNN
F 2 "Crystals:Crystal_HC49-4H_Vertical" H 8600 3350 50  0001 C CNN
F 3 "" H 8600 3350 50  0000 C CNN
F 4 "ABL-8.000MHZ-B2" V 8600 3350 60  0001 C CNN "manf#"
	1    8600 3350
	0    1    1    0   
$EndComp
$Comp
L Device:C C12
U 1 1 572BB198
P 8400 3200
F 0 "C12" V 8350 3150 50  0000 R CNN
F 1 "22p" V 8350 3250 50  0000 L CNN
F 2 "Capacitors_SMD:C_0603" H 8438 3050 50  0001 C CNN
F 3 "" H 8400 3200 50  0000 C CNN
	1    8400 3200
	0    1    1    0   
$EndComp
$Comp
L Device:C C14
U 1 1 572BB2BB
P 8400 3500
F 0 "C14" V 8450 3450 50  0000 R CNN
F 1 "22p" V 8450 3550 50  0000 L CNN
F 2 "Capacitors_SMD:C_0603" H 8438 3350 50  0001 C CNN
F 3 "" H 8400 3500 50  0000 C CNN
	1    8400 3500
	0    1    1    0   
$EndComp
$Comp
L power:GND #PWR022
U 1 1 572BB542
P 8200 3550
F 0 "#PWR022" H 8200 3300 50  0001 C CNN
F 1 "GND" H 8208 3376 50  0001 C CNN
F 2 "" H 8200 3550 50  0000 C CNN
F 3 "" H 8200 3550 50  0000 C CNN
	1    8200 3550
	1    0    0    -1  
$EndComp
$Comp
L Device:C C34
U 1 1 572BC8D5
P 5900 10500
F 0 "C34" H 5950 10600 50  0000 L CNN
F 1 "100n" H 5950 10400 50  0000 L CNN
F 2 "Capacitors_SMD:C_0603" H 5938 10350 50  0001 C CNN
F 3 "" H 5900 10500 50  0000 C CNN
	1    5900 10500
	1    0    0    -1  
$EndComp
$Comp
L Device:C C21
U 1 1 572BCB92
P 3900 5450
F 0 "C21" H 3950 5550 50  0000 L CNN
F 1 "100n" H 3950 5350 50  0000 L CNN
F 2 "Capacitors_SMD:C_0603" H 3938 5300 50  0001 C CNN
F 3 "" H 3900 5450 50  0000 C CNN
	1    3900 5450
	1    0    0    -1  
$EndComp
$Comp
L Device:C C19
U 1 1 572BCBF2
P 3300 5400
F 0 "C19" H 3350 5500 50  0000 L CNN
F 1 "100n" H 3350 5300 50  0000 L CNN
F 2 "Capacitors_SMD:C_0603" H 3338 5250 50  0001 C CNN
F 3 "" H 3300 5400 50  0000 C CNN
	1    3300 5400
	1    0    0    -1  
$EndComp
$Comp
L Device:C C33
U 1 1 572BCC55
P 5350 10500
F 0 "C33" H 5400 10600 50  0000 L CNN
F 1 "100n" H 5400 10400 50  0000 L CNN
F 2 "Capacitors_SMD:C_0603" H 5388 10350 50  0001 C CNN
F 3 "" H 5350 10500 50  0000 C CNN
	1    5350 10500
	1    0    0    -1  
$EndComp
$Comp
L Device:C C32
U 1 1 572BCD13
P 5050 10500
F 0 "C32" H 5100 10600 50  0000 L CNN
F 1 "100n" H 5100 10400 50  0000 L CNN
F 2 "Capacitors_SMD:C_0603" H 5088 10350 50  0001 C CNN
F 3 "" H 5050 10500 50  0000 C CNN
	1    5050 10500
	1    0    0    -1  
$EndComp
$Comp
L Device:C C31
U 1 1 572BCD97
P 4750 10500
F 0 "C31" H 4800 10600 50  0000 L CNN
F 1 "100n" H 4800 10400 50  0000 L CNN
F 2 "Capacitors_SMD:C_0603" H 4788 10350 50  0001 C CNN
F 3 "" H 4750 10500 50  0000 C CNN
	1    4750 10500
	1    0    0    -1  
$EndComp
$Comp
L Device:C C30
U 1 1 572BCE1F
P 4450 10500
F 0 "C30" H 4500 10600 50  0000 L CNN
F 1 "100n" H 4500 10400 50  0000 L CNN
F 2 "Capacitors_SMD:C_0603" H 4488 10350 50  0001 C CNN
F 3 "" H 4450 10500 50  0000 C CNN
F 4 "CL10F104ZB8NNNC" H 4450 10500 60  0001 C CNN "manf#"
	1    4450 10500
	1    0    0    -1  
$EndComp
$Comp
L power:GND #PWR062
U 1 1 572BDB65
P 4900 10750
F 0 "#PWR062" H 4900 10500 50  0001 C CNN
F 1 "GND" H 4908 10576 50  0001 C CNN
F 2 "" H 4900 10750 50  0000 C CNN
F 3 "" H 4900 10750 50  0000 C CNN
	1    4900 10750
	1    0    0    -1  
$EndComp
$Comp
L power:+3.3V #PWR060
U 1 1 572BDD41
P 4900 10250
F 0 "#PWR060" H 4900 10100 50  0001 C CNN
F 1 "+3.3V" H 4900 10400 50  0000 C CNN
F 2 "" H 4900 10250 50  0000 C CNN
F 3 "" H 4900 10250 50  0000 C CNN
	1    4900 10250
	1    0    0    -1  
$EndComp
$Comp
L Device:C C27
U 1 1 572BDF92
P 2600 9250
F 0 "C27" H 2650 9350 50  0000 L CNN
F 1 "100n" H 2650 9150 50  0000 L CNN
F 2 "Capacitors_SMD:C_0603" H 2638 9100 50  0001 C CNN
F 3 "" H 2600 9250 50  0000 C CNN
	1    2600 9250
	1    0    0    -1  
$EndComp
$Comp
L power:GND #PWR055
U 1 1 572BE0C4
P 2600 9400
F 0 "#PWR055" H 2600 9150 50  0001 C CNN
F 1 "GND" H 2608 9226 50  0001 C CNN
F 2 "" H 2600 9400 50  0000 C CNN
F 3 "" H 2600 9400 50  0000 C CNN
	1    2600 9400
	1    0    0    -1  
$EndComp
$Comp
L power:+3.3V #PWR053
U 1 1 572BE129
P 2600 9100
F 0 "#PWR053" H 2600 8950 50  0001 C CNN
F 1 "+3.3V" H 2600 9250 50  0000 C CNN
F 2 "" H 2600 9100 50  0000 C CNN
F 3 "" H 2600 9100 50  0000 C CNN
	1    2600 9100
	1    0    0    -1  
$EndComp
Entry Wire Line
	7150 7500 7250 7600
Entry Wire Line
	7150 7600 7250 7700
Entry Wire Line
	7150 7700 7250 7800
Entry Wire Line
	7150 7800 7250 7900
Entry Wire Line
	7150 5700 7250 5800
Entry Wire Line
	7150 5800 7250 5900
Entry Wire Line
	7150 5900 7250 6000
Entry Wire Line
	7150 6000 7250 6100
$Comp
L Device:C C3
U 1 1 572C6065
P 5700 1500
F 0 "C3" H 5750 1600 50  0000 L CNN
F 1 "100n" H 5750 1400 50  0000 L CNN
F 2 "Capacitors_SMD:C_0603" H 5738 1350 50  0001 C CNN
F 3 "" H 5700 1500 50  0000 C CNN
	1    5700 1500
	1    0    0    -1  
$EndComp
$Comp
L power:GND #PWR010
U 1 1 572C606B
P 6000 1700
F 0 "#PWR010" H 6000 1450 50  0001 C CNN
F 1 "GND" H 6008 1526 50  0001 C CNN
F 2 "" H 6000 1700 50  0000 C CNN
F 3 "" H 6000 1700 50  0000 C CNN
	1    6000 1700
	1    0    0    -1  
$EndComp
$Comp
L power:+3.3V #PWR05
U 1 1 572C6071
P 6000 1300
F 0 "#PWR05" H 6000 1150 50  0001 C CNN
F 1 "+3.3V" H 6000 1450 50  0000 C CNN
F 2 "" H 6000 1300 50  0000 C CNN
F 3 "" H 6000 1300 50  0000 C CNN
	1    6000 1300
	1    0    0    -1  
$EndComp
Text Label 7150 7500 2    60   ~ 0
TCK
Text Label 7150 7600 2    60   ~ 0
TDI
Text Label 7150 7700 2    60   ~ 0
TDO
Text Label 7150 7800 2    60   ~ 0
TMS
Text Label 7150 5700 2    60   ~ 0
SCK
Text Label 7150 5800 2    60   ~ 0
MOSI
Text Label 7150 5900 2    60   ~ 0
MISO
Text Label 7150 6000 2    60   ~ 0
SS
$Comp
L Device:R R1
U 1 1 572D2530
P 8550 1600
F 0 "R1" V 8650 1600 50  0000 L CNN
F 1 "10k" V 8550 1600 50  0000 C CNN
F 2 "Resistors_SMD:R_0805" V 8480 1600 50  0001 C CNN
F 3 "" H 8550 1600 50  0000 C CNN
	1    8550 1600
	0    -1   -1   0   
$EndComp
$Comp
L Device:Jumper_NC_Small JP1
U 1 1 572E4079
P 8400 1300
F 0 "JP1" H 8400 1400 50  0000 C CNN
F 1 "Jumper_NC_Small" H 8410 1240 50  0001 C CNN
F 2 "doragasu:JUMPER_0603" H 8400 1300 50  0001 C CNN
F 3 "" H 8400 1300 50  0000 C CNN
F 4 "68001-402HLF" H 8400 1300 60  0001 C CNN "manf#"
	1    8400 1300
	1    0    0    -1  
$EndComp
Entry Wire Line
	7250 5800 7350 5700
Text Label 7350 5700 0    60   ~ 0
SS_MCU
$Comp
L doragasu:AZ1117CH U1
U 1 1 572FEF2D
P 3950 1400
F 0 "U1" H 3950 1600 40  0000 C CNN
F 1 "AZ1117CH" H 4150 1200 40  0000 C CNN
F 2 "TO_SOT_Packages_SMD:SOT-223" H 3950 1618 40  0001 C CNN
F 3 "" H 3950 1400 60  0000 C CNN
F 4 "AZ1117CH-3.3TRG1" H 3950 1400 60  0001 C CNN "manf#"
	1    3950 1400
	1    0    0    -1  
$EndComp
$Comp
L Device:C C8
U 1 1 57300039
P 4450 1600
F 0 "C8" H 4500 1700 50  0000 L CNN
F 1 "100n" H 4500 1500 50  0000 L CNN
F 2 "Capacitors_SMD:C_0603" H 4488 1450 50  0001 C CNN
F 3 "" H 4450 1600 50  0000 C CNN
	1    4450 1600
	1    0    0    -1  
$EndComp
$Comp
L power:GND #PWR011
U 1 1 5730051B
P 3950 1800
F 0 "#PWR011" H 3950 1550 50  0001 C CNN
F 1 "GND" H 3958 1626 50  0001 C CNN
F 2 "" H 3950 1800 50  0000 C CNN
F 3 "" H 3950 1800 50  0000 C CNN
	1    3950 1800
	1    0    0    -1  
$EndComp
$Comp
L Device:C C7
U 1 1 57300953
P 3450 1600
F 0 "C7" H 3500 1700 50  0000 L CNN
F 1 "100n" H 3500 1500 50  0000 L CNN
F 2 "Capacitors_SMD:C_0603" H 3488 1450 50  0001 C CNN
F 3 "" H 3450 1600 50  0000 C CNN
	1    3450 1600
	1    0    0    -1  
$EndComp
$Comp
L Device:CP C6
U 1 1 57300FC1
P 3150 1600
F 0 "C6" H 3200 1700 50  0000 L CNN
F 1 "6.8u" H 3200 1500 50  0000 L CNN
F 2 "Capacitors_THT:CP_Radial_D5.0mm_P2.50mm" H 3188 1450 50  0001 C CNN
F 3 "" H 3150 1600 50  0000 C CNN
F 4 "860020472002" H 3150 1600 60  0001 C CNN "manf#"
	1    3150 1600
	1    0    0    -1  
$EndComp
$Comp
L power:+3.3V #PWR030
U 1 1 57302635
P 3650 5000
F 0 "#PWR030" H 3650 4850 50  0001 C CNN
F 1 "+3.3V" H 3650 5150 50  0000 C CNN
F 2 "" H 3650 5000 50  0000 C CNN
F 3 "" H 3650 5000 50  0000 C CNN
	1    3650 5000
	1    0    0    -1  
$EndComp
NoConn ~ 6700 6600
NoConn ~ 6700 6700
NoConn ~ 6700 6800
NoConn ~ 6700 6900
$Comp
L doragasu:NES-CART-CONN P2
U 1 1 57305340
P 12950 3900
F 0 "P2" H 12950 6087 60  0000 C CNN
F 1 "NES-CART-CONN" H 12950 5981 60  0000 C CNN
F 2 "doragasu:NES-CART-CONN" H 12950 4100 60  0001 C CNN
F 3 "" H 12950 4100 60  0000 C CNN
F 4 "CR22-72D-2.54DS(70)" H 12950 3900 60  0001 C CNN "manf#"
	1    12950 3900
	1    0    0    -1  
$EndComp
$Comp
L Device:CP C22
U 1 1 5730FF52
P 4150 6050
F 0 "C22" H 4200 6150 50  0000 L CNN
F 1 "4.7u" H 4200 5950 50  0000 L CNN
F 2 "Capacitors_SMD:C_0805" H 4188 5900 50  0001 C CNN
F 3 "" H 4150 6050 50  0000 C CNN
	1    4150 6050
	1    0    0    -1  
$EndComp
$Comp
L Device:R R16
U 1 1 5731B684
P 11300 8300
F 0 "R16" V 11200 8350 50  0000 R CNN
F 1 "330" V 11300 8300 50  0000 C CNN
F 2 "Resistors_SMD:R_0805" V 11230 8300 50  0001 C CNN
F 3 "" H 11300 8300 50  0000 C CNN
F 4 "RMCF0805JT100RCT-ND" V 11300 8300 60  0001 C CNN "manf#"
	1    11300 8300
	0    1    1    0   
$EndComp
$Comp
L Device:LED D1
U 1 1 5731B8A3
P 11000 8300
F 0 "D1" H 11000 8400 50  0000 C CNN
F 1 "LED" V 11045 8378 50  0001 L CNN
F 2 "LEDs:LED_D5.0mm" H 11000 8300 50  0001 C CNN
F 3 "" H 11000 8300 50  0000 C CNN
F 4 "LTL2R3KGD-EM" H 11000 8300 60  0001 C CNN "manf#"
	1    11000 8300
	-1   0    0    -1  
$EndComp
$Comp
L Device:R R17
U 1 1 5731BF2D
P 11300 8500
F 0 "R17" V 11200 8550 50  0000 R CNN
F 1 "330" V 11300 8500 50  0000 C CNN
F 2 "Resistors_SMD:R_0805" V 11230 8500 50  0001 C CNN
F 3 "" H 11300 8500 50  0000 C CNN
	1    11300 8500
	0    1    1    0   
$EndComp
$Comp
L Device:LED D2
U 1 1 5731BF33
P 11000 8500
F 0 "D2" H 11000 8600 50  0000 C CNN
F 1 "LED" V 11045 8578 50  0001 L CNN
F 2 "LEDs:LED_D5.0mm" H 11000 8500 50  0001 C CNN
F 3 "" H 11000 8500 50  0000 C CNN
F 4 "LTL2R3KGD-EM" H 11000 8500 60  0001 C CNN "manf#"
	1    11000 8500
	-1   0    0    -1  
$EndComp
$Comp
L Device:R R19
U 1 1 5731C005
P 11300 8800
F 0 "R19" V 11200 8850 50  0000 R CNN
F 1 "1k" V 11300 8800 50  0000 C CNN
F 2 "Resistors_SMD:R_0805" V 11230 8800 50  0001 C CNN
F 3 "" H 11300 8800 50  0000 C CNN
F 4 "RMCF0805JT220R" V 11300 8800 60  0001 C CNN "manf#"
	1    11300 8800
	0    1    1    0   
$EndComp
$Comp
L Device:LED D3
U 1 1 5731C00B
P 11000 8800
F 0 "D3" H 11000 8900 50  0000 C CNN
F 1 "LED" V 11045 8878 50  0001 L CNN
F 2 "LEDs:LED_D5.0mm" H 11000 8800 50  0001 C CNN
F 3 "" H 11000 8800 50  0000 C CNN
F 4 "C503B-BCS-CV0Z0461" H 11000 8800 60  0001 C CNN "manf#"
	1    11000 8800
	-1   0    0    -1  
$EndComp
$Comp
L Device:R R20
U 1 1 5731C011
P 11300 9000
F 0 "R20" V 11200 9000 50  0000 C CNN
F 1 "1k" V 11300 9000 50  0000 C CNN
F 2 "Resistors_SMD:R_0805" V 11230 9000 50  0001 C CNN
F 3 "" H 11300 9000 50  0000 C CNN
	1    11300 9000
	0    1    1    0   
$EndComp
$Comp
L Device:LED D4
U 1 1 5731C017
P 11000 9000
F 0 "D4" H 11000 9100 50  0000 C CNN
F 1 "LED" V 11045 9078 50  0001 L CNN
F 2 "LEDs:LED_D5.0mm" H 11000 9000 50  0001 C CNN
F 3 "" H 11000 9000 50  0000 C CNN
F 4 "LTL2R3KRD-EM" H 11000 9000 60  0001 C CNN "manf#"
	1    11000 9000
	-1   0    0    -1  
$EndComp
Entry Wire Line
	11900 8300 12000 8400
Entry Wire Line
	11900 8500 12000 8600
Entry Wire Line
	11900 8800 12000 8900
Entry Wire Line
	11900 9000 12000 9100
$Comp
L power:+3.3V #PWR047
U 1 1 5731D70C
P 10800 8250
F 0 "#PWR047" H 10800 8100 50  0001 C CNN
F 1 "+3.3V" H 10800 8400 50  0000 C CNN
F 2 "" H 10800 8250 50  0000 C CNN
F 3 "" H 10800 8250 50  0000 C CNN
	1    10800 8250
	1    0    0    -1  
$EndComp
Text Label 11900 8300 2    60   ~ 0
FPGA_LED
Text Label 11900 8500 2    60   ~ 0
AVR_LED
Text Label 11900 8800 2    60   ~ 0
STAT_LED
Text Label 11900 9000 2    60   ~ 0
BSY_LED
$Comp
L Device:C C35
U 1 1 5730F43E
P 6200 10500
F 0 "C35" H 6250 10600 50  0000 L CNN
F 1 "100n" H 6250 10400 50  0000 L CNN
F 2 "Capacitors_SMD:C_0603" H 6238 10350 50  0001 C CNN
F 3 "" H 6200 10500 50  0000 C CNN
	1    6200 10500
	1    0    0    -1  
$EndComp
$Comp
L Device:C C36
U 1 1 5730F5C6
P 6500 10500
F 0 "C36" H 6550 10600 50  0000 L CNN
F 1 "100n" H 6550 10400 50  0000 L CNN
F 2 "Capacitors_SMD:C_0603" H 6538 10350 50  0001 C CNN
F 3 "" H 6500 10500 50  0000 C CNN
	1    6500 10500
	1    0    0    -1  
$EndComp
$Comp
L power:+1V8 #PWR032
U 1 1 573101A0
P 5300 5300
F 0 "#PWR032" H 5300 5150 50  0001 C CNN
F 1 "+1V8" H 5300 5450 50  0000 C CNN
F 2 "" H 5300 5300 50  0000 C CNN
F 3 "" H 5300 5300 50  0000 C CNN
	1    5300 5300
	1    0    0    -1  
$EndComp
$Comp
L power:+1V8 #PWR061
U 1 1 57310553
P 6200 10250
F 0 "#PWR061" H 6200 10100 50  0001 C CNN
F 1 "+1V8" H 6200 10400 50  0000 C CNN
F 2 "" H 6200 10250 50  0000 C CNN
F 3 "" H 6200 10250 50  0000 C CNN
	1    6200 10250
	1    0    0    -1  
$EndComp
$Comp
L power:GND #PWR063
U 1 1 57310E99
P 6200 10750
F 0 "#PWR063" H 6200 10500 50  0001 C CNN
F 1 "GND" H 6208 10576 50  0001 C CNN
F 2 "" H 6200 10750 50  0000 C CNN
F 3 "" H 6200 10750 50  0000 C CNN
	1    6200 10750
	1    0    0    -1  
$EndComp
$Comp
L Device:CP C20
U 1 1 57338D24
P 3650 5450
F 0 "C20" H 3700 5550 50  0000 L CNN
F 1 "4.7u" H 3700 5350 50  0000 L CNN
F 2 "Capacitors_SMD:C_0805" H 3688 5300 50  0001 C CNN
F 3 "" H 3650 5450 50  0000 C CNN
	1    3650 5450
	1    0    0    -1  
$EndComp
$Comp
L Device:CP C18
U 1 1 57339B4E
P 3050 5400
F 0 "C18" H 3100 5500 50  0000 L CNN
F 1 "4.7u" H 3100 5300 50  0000 L CNN
F 2 "Capacitors_SMD:C_0805" H 3088 5250 50  0001 C CNN
F 3 "" H 3050 5400 50  0000 C CNN
F 4 "CL21A475KQFNNNG" H 3050 5400 60  0001 C CNN "manf#"
	1    3050 5400
	1    0    0    -1  
$EndComp
$Comp
L Device:L_Small L1
U 1 1 5733CD71
P 3050 5100
F 0 "L1" V 3000 5100 50  0000 C CNN
F 1 "2.2u" V 3144 5100 50  0001 C CNN
F 2 "Capacitors_SMD:C_0805" H 3050 5100 50  0001 C CNN
F 3 "" H 3050 5100 50  0000 C CNN
F 4 "74479875222C" V 3050 5100 60  0001 C CNN "manf#"
	1    3050 5100
	1    0    0    -1  
$EndComp
$Comp
L Device:L_Small L2
U 1 1 5733E31F
P 3650 5100
F 0 "L2" V 3600 5100 50  0000 C CNN
F 1 "2.2u" V 3744 5100 50  0001 C CNN
F 2 "Capacitors_SMD:C_0805" H 3650 5100 50  0001 C CNN
F 3 "" H 3650 5100 50  0000 C CNN
	1    3650 5100
	1    0    0    -1  
$EndComp
$Comp
L power:+3.3V #PWR029
U 1 1 57340A08
P 3050 5000
F 0 "#PWR029" H 3050 4850 50  0001 C CNN
F 1 "+3.3V" H 3050 5150 50  0000 C CNN
F 2 "" H 3050 5000 50  0000 C CNN
F 3 "" H 3050 5000 50  0000 C CNN
	1    3050 5000
	1    0    0    -1  
$EndComp
$Comp
L power:+3.3V #PWR04
U 1 1 57348405
P 4450 1300
F 0 "#PWR04" H 4450 1150 50  0001 C CNN
F 1 "+3.3V" H 4450 1450 50  0000 C CNN
F 2 "" H 4450 1300 50  0000 C CNN
F 3 "" H 4450 1300 50  0000 C CNN
	1    4450 1300
	1    0    0    -1  
$EndComp
$Comp
L power:GND #PWR034
U 1 1 5734E119
P 3300 5600
F 0 "#PWR034" H 3300 5350 50  0001 C CNN
F 1 "GND" H 3308 5426 50  0001 C CNN
F 2 "" H 3300 5600 50  0000 C CNN
F 3 "" H 3300 5600 50  0000 C CNN
	1    3300 5600
	1    0    0    -1  
$EndComp
$Comp
L power:+5V #PWR051
U 1 1 572DA8A0
P 10800 8750
F 0 "#PWR051" H 10800 8600 50  0001 C CNN
F 1 "+5V" H 10800 8900 50  0000 C CNN
F 2 "" H 10800 8750 50  0000 C CNN
F 3 "" H 10800 8750 50  0000 C CNN
	1    10800 8750
	1    0    0    -1  
$EndComp
$Comp
L doragasu:AT90USB646 U3
U 1 1 59880210
P 10200 3900
F 0 "U3" H 10700 6750 60  0000 L CNN
F 1 "AT90USB646" H 10700 6650 60  0000 L CNN
F 2 "Housings_QFP:LQFP-64_14x14mm_Pitch0.8mm" H 9550 2950 60  0001 C CNN
F 3 "" H 9550 2950 60  0000 C CNN
F 4 "AT90USB646-AUR" H 10200 3900 60  0001 C CNN "manf#"
	1    10200 3900
	1    0    0    -1  
$EndComp
$Comp
L Device:C C10
U 1 1 59886E0D
P 8200 3000
F 0 "C10" H 8100 2950 50  0000 R CNN
F 1 "1u" H 8100 3050 50  0000 R CNN
F 2 "Capacitors_SMD:C_0805" H 8238 2850 50  0001 C CNN
F 3 "" H 8200 3000 50  0000 C CNN
F 4 "CL21B105KOFNNNG" H 8200 3000 60  0001 C CNN "manf#"
	1    8200 3000
	-1   0    0    1   
$EndComp
$Comp
L Device:C C17
U 1 1 598878F8
P 8850 4100
F 0 "C17" H 8800 4000 50  0000 R CNN
F 1 "NP" H 8800 4200 50  0000 R CNN
F 2 "Capacitors_SMD:C_0603" H 8888 3950 50  0001 C CNN
F 3 "" H 8850 4100 50  0000 C CNN
	1    8850 4100
	-1   0    0    1   
$EndComp
$Comp
L power:GND #PWR028
U 1 1 59888829
P 8850 4250
F 0 "#PWR028" H 8850 4000 50  0001 C CNN
F 1 "GND" H 8858 4076 50  0001 C CNN
F 2 "" H 8850 4250 50  0000 C CNN
F 3 "" H 8850 4250 50  0000 C CNN
	1    8850 4250
	1    0    0    -1  
$EndComp
$Comp
L usb2422:USB2422 U2
U 1 1 5988C902
P 5200 2900
F 0 "U2" H 5200 1664 50  0000 C CNN
F 1 "USB2422" H 5200 1573 50  0000 C CNN
F 2 "Housings_DFN_QFN:QFN-24-1EP_4x4mm_Pitch0.5mm" H 3800 2450 60  0001 C CNN
F 3 "" H 3800 2450 60  0001 C CNN
F 4 "USB2422-I/MJ" H 5200 2900 60  0001 C CNN "manf#"
	1    5200 2900
	1    0    0    -1  
$EndComp
$Comp
L power:GND #PWR038
U 1 1 5988D8CB
P 4150 6200
F 0 "#PWR038" H 4150 5950 50  0001 C CNN
F 1 "GND" H 4158 6026 50  0001 C CNN
F 2 "" H 4150 6200 50  0000 C CNN
F 3 "" H 4150 6200 50  0000 C CNN
	1    4150 6200
	1    0    0    -1  
$EndComp
$Comp
L power:+3.3V #PWR035
U 1 1 5988D944
P 4300 5650
F 0 "#PWR035" H 4300 5500 50  0001 C CNN
F 1 "+3.3V" H 4300 5800 50  0000 C CNN
F 2 "" H 4300 5650 50  0000 C CNN
F 3 "" H 4300 5650 50  0000 C CNN
	1    4300 5650
	1    0    0    -1  
$EndComp
Text Label 3800 2250 2    60   ~ 0
HOST_D+
Text Label 3800 2350 2    60   ~ 0
HOST_D-
$Comp
L power:+5V #PWR03
U 1 1 573018EC
P 3450 1300
F 0 "#PWR03" H 3450 1150 50  0001 C CNN
F 1 "+5V" H 3450 1450 50  0000 C CNN
F 2 "" H 3450 1300 50  0000 C CNN
F 3 "" H 3450 1300 50  0000 C CNN
	1    3450 1300
	1    0    0    -1  
$EndComp
$Comp
L power:+3.3V #PWR09
U 1 1 598955DE
P 5200 1700
F 0 "#PWR09" H 5200 1550 50  0001 C CNN
F 1 "+3.3V" H 5200 1850 50  0000 C CNN
F 2 "" H 5200 1700 50  0000 C CNN
F 3 "" H 5200 1700 50  0000 C CNN
	1    5200 1700
	1    0    0    -1  
$EndComp
$Comp
L Device:Crystal Y1
U 1 1 59898A1B
P 3500 2900
F 0 "Y1" V 3450 3050 50  0000 L CNN
F 1 "24MHz" V 3550 3050 50  0000 L CNN
F 2 "Crystals:Crystal_HC49-4H_Vertical" H 3500 2900 50  0001 C CNN
F 3 "" H 3500 2900 50  0000 C CNN
F 4 "9B-24.000MBBK-B" V 3500 2900 60  0001 C CNN "manf#"
	1    3500 2900
	0    1    1    0   
$EndComp
$Comp
L Device:C C9
U 1 1 59898A22
P 3300 2750
F 0 "C9" V 3250 2700 50  0000 R CNN
F 1 "22p" V 3250 2800 50  0000 L CNN
F 2 "Capacitors_SMD:C_0603" H 3338 2600 50  0001 C CNN
F 3 "" H 3300 2750 50  0000 C CNN
F 4 "CL10C220JB8NNWC" V 3300 2750 60  0001 C CNN "manf#"
	1    3300 2750
	0    1    1    0   
$EndComp
$Comp
L Device:C C11
U 1 1 59898A29
P 3300 3050
F 0 "C11" V 3350 3000 50  0000 R CNN
F 1 "22p" V 3350 3100 50  0000 L CNN
F 2 "Capacitors_SMD:C_0603" H 3338 2900 50  0001 C CNN
F 3 "" H 3300 3050 50  0000 C CNN
	1    3300 3050
	0    1    1    0   
$EndComp
$Comp
L power:GND #PWR019
U 1 1 59898A30
P 3100 3100
F 0 "#PWR019" H 3100 2850 50  0001 C CNN
F 1 "GND" H 3108 2926 50  0001 C CNN
F 2 "" H 3100 3100 50  0000 C CNN
F 3 "" H 3100 3100 50  0000 C CNN
	1    3100 3100
	1    0    0    -1  
$EndComp
$Comp
L power:GND #PWR027
U 1 1 5989961C
P 5300 4050
F 0 "#PWR027" H 5300 3800 50  0001 C CNN
F 1 "GND" H 5308 3876 50  0001 C CNN
F 2 "" H 5300 4050 50  0000 C CNN
F 3 "" H 5300 4050 50  0000 C CNN
	1    5300 4050
	1    0    0    -1  
$EndComp
$Comp
L Device:C C13
U 1 1 59899953
P 2800 3250
F 0 "C13" H 2950 3200 50  0000 L CNN
F 1 "100n" H 2950 3300 50  0000 L CNN
F 2 "Capacitors_SMD:C_0603" H 2838 3100 50  0001 C CNN
F 3 "" H 2800 3250 50  0000 C CNN
	1    2800 3250
	-1   0    0    1   
$EndComp
$Comp
L Device:R R7
U 1 1 59899B63
P 2600 3050
F 0 "R7" V 2500 3050 50  0000 C CNN
F 1 "100k" V 2600 3050 50  0000 C CNN
F 2 "Resistors_SMD:R_0805" V 2530 3050 50  0001 C CNN
F 3 "" H 2600 3050 50  0000 C CNN
F 4 "RMCF0805JT1K00" V 2600 3050 60  0001 C CNN "manf#"
	1    2600 3050
	0    1    1    0   
$EndComp
$Comp
L power:GND #PWR021
U 1 1 5989A5E7
P 2800 3400
F 0 "#PWR021" H 2800 3150 50  0001 C CNN
F 1 "GND" H 2808 3226 50  0001 C CNN
F 2 "" H 2800 3400 50  0000 C CNN
F 3 "" H 2800 3400 50  0000 C CNN
	1    2800 3400
	1    0    0    -1  
$EndComp
$Comp
L power:+3.3V #PWR018
U 1 1 5989ABF5
P 2400 3000
F 0 "#PWR018" H 2400 2850 50  0001 C CNN
F 1 "+3.3V" H 2400 3150 50  0000 C CNN
F 2 "" H 2400 3000 50  0000 C CNN
F 3 "" H 2400 3000 50  0000 C CNN
	1    2400 3000
	1    0    0    -1  
$EndComp
$Comp
L Device:C C16
U 1 1 5989BBA2
P 3550 3600
F 0 "C16" H 3600 3500 50  0000 L CNN
F 1 "100n" H 3550 3700 50  0000 L CNN
F 2 "Capacitors_SMD:C_0603" H 3588 3450 50  0001 C CNN
F 3 "" H 3550 3600 50  0000 C CNN
	1    3550 3600
	-1   0    0    1   
$EndComp
$Comp
L Device:C C15
U 1 1 5989BE68
P 3250 3600
F 0 "C15" H 3350 3550 50  0000 L CNN
F 1 "1u" H 3350 3650 50  0000 L CNN
F 2 "Capacitors_SMD:C_0805" H 3288 3450 50  0001 C CNN
F 3 "" H 3250 3600 50  0000 C CNN
	1    3250 3600
	-1   0    0    1   
$EndComp
$Comp
L Device:R R9
U 1 1 5989D700
P 2950 3600
F 0 "R9" V 3050 3600 50  0000 C CNN
F 1 "12k" V 2950 3600 50  0000 C CNN
F 2 "Resistors_SMD:R_0805" V 2880 3600 50  0001 C CNN
F 3 "" H 2950 3600 50  0000 C CNN
F 4 "RC0805FR-0712KL" V 2950 3600 60  0001 C CNN "manf#"
	1    2950 3600
	-1   0    0    1   
$EndComp
$Comp
L power:GND #PWR023
U 1 1 5989DEC9
P 3250 3800
F 0 "#PWR023" H 3250 3550 50  0001 C CNN
F 1 "GND" H 3258 3626 50  0001 C CNN
F 2 "" H 3250 3800 50  0000 C CNN
F 3 "" H 3250 3800 50  0000 C CNN
	1    3250 3800
	1    0    0    -1  
$EndComp
$Comp
L Device:R R11
U 1 1 5989EDFE
P 3400 4050
F 0 "R11" V 3500 4050 50  0000 C CNN
F 1 "100k" V 3400 4050 50  0000 C CNN
F 2 "Resistors_SMD:R_0805" V 3330 4050 50  0001 C CNN
F 3 "" H 3400 4050 50  0000 C CNN
F 4 "RMCF0805JT1K00" V 3400 4050 60  0001 C CNN "manf#"
	1    3400 4050
	0    -1   -1   0   
$EndComp
$Comp
L power:+3.3V #PWR025
U 1 1 5989F161
P 3050 4000
F 0 "#PWR025" H 3050 3850 50  0001 C CNN
F 1 "+3.3V" H 3050 4150 50  0000 C CNN
F 2 "" H 3050 4000 50  0000 C CNN
F 3 "" H 3050 4000 50  0000 C CNN
	1    3050 4000
	1    0    0    -1  
$EndComp
$Comp
L Device:R R10
U 1 1 5989FC6A
P 3800 3900
F 0 "R10" V 3900 3900 50  0000 C CNN
F 1 "100k" V 3800 3900 50  0000 C CNN
F 2 "Resistors_SMD:R_0805" V 3730 3900 50  0001 C CNN
F 3 "" H 3800 3900 50  0000 C CNN
F 4 "RMCF0805JT1K00" V 3800 3900 60  0001 C CNN "manf#"
	1    3800 3900
	1    0    0    -1  
$EndComp
$Comp
L power:GND #PWR026
U 1 1 5989FD5E
P 3800 4050
F 0 "#PWR026" H 3800 3800 50  0001 C CNN
F 1 "GND" H 3808 3876 50  0001 C CNN
F 2 "" H 3800 4050 50  0000 C CNN
F 3 "" H 3800 4050 50  0000 C CNN
	1    3800 4050
	1    0    0    -1  
$EndComp
$Comp
L power:+3.3V #PWR08
U 1 1 598A1F80
P 2350 1650
F 0 "#PWR08" H 2350 1500 50  0001 C CNN
F 1 "+3.3V" H 2350 1800 50  0000 C CNN
F 2 "" H 2350 1650 50  0000 C CNN
F 3 "" H 2350 1650 50  0000 C CNN
	1    2350 1650
	1    0    0    -1  
$EndComp
Text Label 6600 2500 0    60   ~ 0
MCU_D-
Text Label 6600 2400 0    60   ~ 0
MCU_D+
NoConn ~ 6600 2050
NoConn ~ 6600 3250
$Comp
L Device:R R8
U 1 1 5989A46C
P 6750 3050
F 0 "R8" V 6850 3050 50  0000 C CNN
F 1 "100k" V 6750 3050 50  0000 C CNN
F 2 "Resistors_SMD:R_0805" V 6680 3050 50  0001 C CNN
F 3 "" H 6750 3050 50  0000 C CNN
F 4 "RMCF0805JT1K00" V 6750 3050 60  0001 C CNN "manf#"
	1    6750 3050
	1    0    0    -1  
$EndComp
$Comp
L power:GND #PWR020
U 1 1 5989A71C
P 6750 3200
F 0 "#PWR020" H 6750 2950 50  0001 C CNN
F 1 "GND" H 6758 3026 50  0001 C CNN
F 2 "" H 6750 3200 50  0000 C CNN
F 3 "" H 6750 3200 50  0000 C CNN
	1    6750 3200
	1    0    0    -1  
$EndComp
$Comp
L power:+5V #PWR01
U 1 1 598A4393
P 10150 950
F 0 "#PWR01" H 10150 800 50  0001 C CNN
F 1 "+5V" H 10150 1100 50  0000 C CNN
F 2 "" H 10150 950 50  0000 C CNN
F 3 "" H 10150 950 50  0000 C CNN
	1    10150 950 
	1    0    0    -1  
$EndComp
$Comp
L power:GND #PWR039
U 1 1 598A4C70
P 10200 6850
F 0 "#PWR039" H 10200 6600 50  0001 C CNN
F 1 "GND" H 10208 6676 50  0001 C CNN
F 2 "" H 10200 6850 50  0000 C CNN
F 3 "" H 10200 6850 50  0000 C CNN
	1    10200 6850
	1    0    0    -1  
$EndComp
NoConn ~ 6700 6200
NoConn ~ 6700 6300
NoConn ~ 6700 6400
$Comp
L Device:R R4
U 1 1 598AB464
P 6800 2150
F 0 "R4" V 6900 2150 50  0000 C CNN
F 1 "NP" V 6800 2150 50  0000 C CNN
F 2 "Resistors_SMD:R_0805" V 6730 2150 50  0001 C CNN
F 3 "" H 6800 2150 50  0000 C CNN
F 4 "RMCF0805JT1K00" V 6800 2150 60  0001 C CNN "manf#"
	1    6800 2150
	0    1    1    0   
$EndComp
$Comp
L power:GND #PWR015
U 1 1 598AB584
P 7000 2200
F 0 "#PWR015" H 7000 1950 50  0001 C CNN
F 1 "GND" H 7008 2026 50  0001 C CNN
F 2 "" H 7000 2200 50  0000 C CNN
F 3 "" H 7000 2200 50  0000 C CNN
	1    7000 2200
	1    0    0    -1  
$EndComp
Text Label 11900 2300 2    60   ~ 0
SCK
Text Label 11900 2400 2    60   ~ 0
MOSI
Text Label 11900 2500 2    60   ~ 0
MISO
Entry Wire Line
	11900 5800 12000 5900
Entry Wire Line
	11900 5900 12000 6000
Text Label 11900 5800 2    60   ~ 0
D0
Text Label 11900 5900 2    60   ~ 0
D1
Entry Wire Line
	11900 2300 12000 2400
Entry Wire Line
	11900 2400 12000 2500
Entry Wire Line
	11900 2500 12000 2600
Text Notes 500  11200 0    60   ~ 0
FT2232 channel usage:\n===============\n- CH1: bitfile uploading to in-cart FPGA\n- CH2:\n  + MCU flashing: short JPX and disconnect cartridge.\n  + CIC: Ensure JPX is open and connect cartridge.\nAlternatively to use JPX, different SS pins can be used, but ALWAYS remove cart before flashing MCU.
NoConn ~ 6700 8400
NoConn ~ 6700 8500
Entry Wire Line
	7150 9100 7250 9200
Entry Wire Line
	7150 7300 7250 7400
Text Label 7150 9100 2    60   ~ 0
FPGA_LED
Text Label 7150 7300 2    60   ~ 0
AVR_LED
Entry Wire Line
	11900 4200 12000 4300
Entry Wire Line
	11900 4300 12000 4400
Text Label 11900 4200 2    60   ~ 0
RXD
Text Label 11900 4300 2    60   ~ 0
TXD
Entry Wire Line
	11900 2600 12000 2700
Entry Wire Line
	11900 2700 12000 2800
Text Label 11900 2600 2    60   ~ 0
STAT_LED
Text Label 11900 2700 2    60   ~ 0
BSY_LED
Entry Wire Line
	11900 2800 12000 2900
Text Label 11900 2800 2    60   ~ 0
~POWE
$Comp
L power:GND #PWR016
U 1 1 598E9182
P 8850 2650
F 0 "#PWR016" H 8850 2400 50  0001 C CNN
F 1 "GND" H 8858 2476 50  0001 C CNN
F 2 "" H 8850 2650 50  0000 C CNN
F 3 "" H 8850 2650 50  0000 C CNN
	1    8850 2650
	1    0    0    -1  
$EndComp
$Comp
L Device:R R5
U 1 1 598EA82A
P 8300 2200
F 0 "R5" V 8200 2200 50  0000 C CNN
F 1 "22" V 8300 2200 50  0000 C CNN
F 2 "Resistors_SMD:R_0805" V 8230 2200 50  0001 C CNN
F 3 "" H 8300 2200 50  0000 C CNN
F 4 "RMCF0805JT22R0CT-ND" V 8300 2200 60  0001 C CNN "manf#"
	1    8300 2200
	0    1    1    0   
$EndComp
$Comp
L Device:R R6
U 1 1 598EAAC6
P 8300 2400
F 0 "R6" V 8200 2400 50  0000 C CNN
F 1 "22" V 8300 2400 50  0000 C CNN
F 2 "Resistors_SMD:R_0805" V 8230 2400 50  0001 C CNN
F 3 "" H 8300 2400 50  0000 C CNN
	1    8300 2400
	0    1    1    0   
$EndComp
Text Label 8900 2200 2    60   ~ 0
_MCU_D-
Text Label 8900 2400 2    60   ~ 0
_MCU_D+
$Comp
L power:+5V #PWR07
U 1 1 598ED409
P 8350 1550
F 0 "#PWR07" H 8350 1400 50  0001 C CNN
F 1 "+5V" H 8350 1700 50  0000 C CNN
F 2 "" H 8350 1550 50  0000 C CNN
F 3 "" H 8350 1550 50  0000 C CNN
	1    8350 1550
	1    0    0    -1  
$EndComp
Wire Wire Line
	2600 6700 4300 6700
Wire Wire Line
	2700 6800 4300 6800
Wire Wire Line
	2800 8600 2800 8200
Wire Wire Line
	2800 8200 4000 8200
Wire Wire Line
	4000 8050 4000 8200
Wire Wire Line
	4000 8300 4300 8300
Wire Wire Line
	4200 8400 4300 8400
Wire Wire Line
	4150 8500 4200 8500
Wire Wire Line
	4300 8800 4100 8800
Wire Wire Line
	4100 9200 3300 9200
Wire Wire Line
	3300 9200 3300 9500
Wire Wire Line
	3300 9500 3400 9500
Wire Wire Line
	12400 2100 12100 2100
Wire Wire Line
	12400 2200 12100 2200
Wire Wire Line
	12400 2300 12100 2300
Wire Wire Line
	12400 2400 12100 2400
Wire Wire Line
	12400 2500 12100 2500
Wire Wire Line
	12400 2600 12100 2600
Wire Wire Line
	12400 2700 12100 2700
Wire Wire Line
	12400 2800 12100 2800
Wire Wire Line
	12400 2900 12100 2900
Wire Wire Line
	12400 3000 12100 3000
Wire Wire Line
	12400 3100 12100 3100
Wire Wire Line
	12400 3200 12100 3200
Wire Wire Line
	12400 3300 12100 3300
Wire Wire Line
	12400 3700 12100 3700
Wire Wire Line
	12400 3900 12100 3900
Wire Wire Line
	12400 4000 12100 4000
Wire Wire Line
	12400 4300 12100 4300
Wire Wire Line
	12400 4500 12100 4500
Wire Wire Line
	12400 4600 12100 4600
Wire Wire Line
	12400 4700 12100 4700
Wire Wire Line
	12400 4800 12100 4800
Wire Wire Line
	12400 4900 12100 4900
Wire Wire Line
	12400 5000 12100 5000
Wire Wire Line
	12400 5100 12100 5100
Wire Wire Line
	12400 5200 12100 5200
Wire Wire Line
	12400 5300 12100 5300
Wire Wire Line
	12400 5400 12100 5400
Wire Wire Line
	12400 5500 12100 5500
Wire Wire Line
	12400 5700 12100 5700
Wire Wire Line
	12400 5800 12100 5800
Wire Wire Line
	13500 2100 13800 2100
Wire Wire Line
	13500 2200 13800 2200
Wire Wire Line
	13500 2300 13800 2300
Wire Wire Line
	13500 2400 13800 2400
Wire Wire Line
	13500 2500 13800 2500
Wire Wire Line
	13500 2600 13800 2600
Wire Wire Line
	13500 2700 13800 2700
Wire Wire Line
	13500 2800 13800 2800
Wire Wire Line
	13500 2900 13800 2900
Wire Wire Line
	13500 3000 13800 3000
Wire Wire Line
	13500 3100 13800 3100
Wire Wire Line
	13500 3200 13800 3200
Wire Wire Line
	13500 3300 13800 3300
Wire Wire Line
	13500 3700 13800 3700
Wire Wire Line
	13500 3800 13800 3800
Wire Wire Line
	13500 4000 13800 4000
Wire Wire Line
	13500 4200 13800 4200
Wire Wire Line
	13500 4500 13800 4500
Wire Wire Line
	13500 4600 13800 4600
Wire Wire Line
	13500 4700 13800 4700
Wire Wire Line
	13500 4800 13800 4800
Wire Wire Line
	13500 4900 13800 4900
Wire Wire Line
	13500 5000 13800 5000
Wire Wire Line
	13500 5100 13800 5100
Wire Wire Line
	13500 5200 13800 5200
Wire Wire Line
	13500 5300 13800 5300
Wire Wire Line
	13500 5400 13800 5400
Wire Wire Line
	13500 5500 13800 5500
Wire Wire Line
	13500 5700 13800 5700
Wire Wire Line
	13500 5900 13550 5900
Wire Wire Line
	11500 6000 11900 6000
Wire Wire Line
	11500 6100 11900 6100
Wire Wire Line
	11500 6200 11900 6200
Wire Wire Line
	11500 6300 11900 6300
Wire Wire Line
	11500 6400 11900 6400
Wire Wire Line
	11500 6500 11900 6500
Wire Wire Line
	11500 4900 11900 4900
Wire Wire Line
	11500 5600 11900 5600
Wire Wire Line
	11500 2200 11900 2200
Wire Wire Line
	11500 5200 11900 5200
Wire Wire Line
	11500 1300 11900 1300
Wire Wire Line
	11500 1400 11900 1400
Wire Wire Line
	11500 1500 11900 1500
Wire Wire Line
	11500 1600 11900 1600
Wire Wire Line
	11500 1700 11900 1700
Wire Wire Line
	11500 1800 11900 1800
Wire Wire Line
	11500 1900 11900 1900
Wire Wire Line
	11500 2000 11900 2000
Wire Wire Line
	11500 3100 11900 3100
Wire Wire Line
	11500 3200 11900 3200
Wire Wire Line
	11500 3300 11900 3300
Wire Wire Line
	11500 3400 11900 3400
Wire Wire Line
	11500 3500 11900 3500
Wire Wire Line
	11500 3600 11900 3600
Wire Wire Line
	11500 3700 11900 3700
Wire Wire Line
	11500 5500 11900 5500
Connection ~ 5400 9800
Wire Wire Line
	5400 9800 5400 9850
Wire Wire Line
	13550 5900 13550 5950
Wire Wire Line
	4100 8800 4100 9200
Wire Wire Line
	4300 9200 4200 9200
Wire Wire Line
	4200 9200 4200 9500
Wire Wire Line
	4150 5900 4300 5900
Wire Wire Line
	4150 5350 4150 5900
Wire Wire Line
	4150 5350 5300 5350
Wire Wire Line
	5500 5350 5500 5400
Wire Wire Line
	5400 5400 5400 5350
Connection ~ 5400 5350
Wire Wire Line
	5300 5300 5300 5350
Connection ~ 5300 5350
Wire Wire Line
	12350 5900 12400 5900
Wire Wire Line
	5000 5300 5000 5400
Wire Wire Line
	6000 5350 6000 5400
Wire Wire Line
	5900 5350 5900 5400
Connection ~ 5900 5350
Wire Wire Line
	5800 5300 5800 5350
Connection ~ 5800 5350
Wire Wire Line
	5100 5250 5100 5400
Wire Wire Line
	3850 7000 3950 7000
Wire Wire Line
	4250 7000 4300 7000
Wire Wire Line
	3800 8500 3800 8050
Wire Wire Line
	3800 7750 3800 7700
Wire Wire Line
	3800 7700 4000 7700
Wire Wire Line
	4200 7700 4200 7750
Wire Wire Line
	4000 7650 4000 7700
Connection ~ 4000 7700
Connection ~ 4000 8200
Wire Wire Line
	4300 9400 4300 9800
Wire Wire Line
	8250 3200 8200 3200
Wire Wire Line
	8200 3150 8200 3200
Wire Wire Line
	8250 3500 8200 3500
Connection ~ 8200 3500
Wire Wire Line
	4450 10350 4450 10300
Wire Wire Line
	5900 10300 5900 10350
Wire Wire Line
	4450 10650 4450 10700
Wire Wire Line
	5900 10700 5900 10650
Wire Wire Line
	4750 10350 4750 10300
Connection ~ 4750 10300
Wire Wire Line
	5050 10300 5050 10350
Connection ~ 5050 10300
Wire Wire Line
	5050 10700 5050 10650
Connection ~ 5050 10700
Wire Wire Line
	4750 10650 4750 10700
Connection ~ 4750 10700
Wire Wire Line
	6700 7500 7150 7500
Wire Wire Line
	6700 7600 7150 7600
Wire Wire Line
	6700 7700 7150 7700
Wire Wire Line
	6700 7800 7150 7800
Wire Wire Line
	6700 5700 7150 5700
Wire Wire Line
	6700 5800 7150 5800
Wire Wire Line
	6700 5900 7150 5900
Wire Wire Line
	6700 6000 7150 6000
Wire Wire Line
	8700 1600 8800 1600
Wire Wire Line
	8500 1300 8800 1300
Wire Wire Line
	8800 1300 8800 1600
Connection ~ 8800 1600
Wire Wire Line
	8300 1300 7850 1300
Wire Wire Line
	4450 1450 4350 1450
Wire Wire Line
	11450 8300 11900 8300
Wire Wire Line
	11450 8500 11900 8500
Wire Wire Line
	11450 8800 11900 8800
Wire Wire Line
	11450 9000 11900 9000
Wire Wire Line
	10800 9000 10850 9000
Wire Wire Line
	10850 8300 10800 8300
Connection ~ 10800 8300
Wire Wire Line
	10800 8500 10850 8500
Wire Wire Line
	10850 8800 10800 8800
Connection ~ 10800 8800
Wire Wire Line
	5900 10300 6200 10300
Wire Wire Line
	6500 10300 6500 10350
Wire Wire Line
	6200 10250 6200 10300
Connection ~ 6200 10300
Wire Wire Line
	5900 10700 6200 10700
Wire Wire Line
	6500 10700 6500 10650
Wire Wire Line
	6200 10650 6200 10700
Connection ~ 6200 10700
Wire Wire Line
	4900 10300 4900 10250
Connection ~ 4900 10300
Wire Wire Line
	4900 10700 4900 10750
Connection ~ 4900 10700
Wire Wire Line
	5350 10300 5350 10350
Wire Wire Line
	5350 10700 5350 10650
Wire Wire Line
	5700 5400 5700 5350
Wire Wire Line
	5700 5350 5800 5350
Wire Wire Line
	3050 5600 3300 5600
Connection ~ 3300 5600
Wire Wire Line
	3050 5550 3050 5600
Wire Wire Line
	3300 5550 3300 5600
Wire Wire Line
	3050 5200 3050 5250
Wire Wire Line
	3650 5200 3650 5300
Wire Wire Line
	4450 10700 4750 10700
Wire Wire Line
	4450 10300 4750 10300
Wire Wire Line
	8200 2850 8200 2800
Wire Wire Line
	8200 2800 8900 2800
Connection ~ 8200 3200
Wire Wire Line
	8850 3950 8850 3900
Wire Wire Line
	8850 3900 8900 3900
Wire Wire Line
	4300 5650 4300 5700
Wire Wire Line
	2200 2250 3800 2250
Wire Wire Line
	2200 2350 3800 2350
Wire Wire Line
	5100 1750 5200 1750
Connection ~ 5200 1750
Wire Wire Line
	5200 1750 5200 1700
Wire Wire Line
	2200 1350 3150 1350
Wire Wire Line
	3450 1300 3450 1350
Connection ~ 3450 1350
Wire Wire Line
	4350 1350 4450 1350
Wire Wire Line
	4450 1300 4450 1350
Connection ~ 4450 1350
Wire Wire Line
	3950 1650 3950 1750
Connection ~ 3950 1750
Wire Wire Line
	3150 1350 3150 1450
Wire Wire Line
	2200 1350 2200 2050
Connection ~ 3150 1350
Wire Wire Line
	3150 2750 3100 2750
Wire Wire Line
	3100 2750 3100 3050
Wire Wire Line
	3150 3050 3100 3050
Connection ~ 3100 3050
Wire Wire Line
	3800 2550 2800 2550
Wire Wire Line
	2800 2550 2800 3050
Wire Wire Line
	2750 3050 2800 3050
Connection ~ 2800 3050
Wire Wire Line
	2400 3000 2400 3050
Wire Wire Line
	2400 3050 2450 3050
Wire Wire Line
	3550 3450 3800 3450
Wire Wire Line
	3250 3350 3250 3450
Wire Wire Line
	2950 3250 2950 3450
Wire Wire Line
	2950 3750 3250 3750
Connection ~ 3250 3750
Wire Wire Line
	3250 3800 3250 3750
Wire Wire Line
	3250 3350 3800 3350
Wire Wire Line
	2950 3250 3800 3250
Wire Wire Line
	3800 3650 3700 3650
Wire Wire Line
	3700 3650 3700 4050
Wire Wire Line
	3700 4050 3550 4050
Wire Wire Line
	3050 4000 3050 4050
Wire Wire Line
	3050 4050 3250 4050
Wire Wire Line
	7750 2200 7750 2500
Wire Wire Line
	7750 2500 6600 2500
Wire Wire Line
	6600 3750 6600 4500
Wire Wire Line
	6600 4500 2600 4500
Wire Wire Line
	2600 4500 2600 6700
Wire Wire Line
	6600 3650 6700 3650
Wire Wire Line
	6700 3650 6700 4600
Wire Wire Line
	6700 4600 2700 4600
Wire Wire Line
	2700 4600 2700 6800
Wire Wire Line
	6600 2850 6750 2850
Wire Wire Line
	6750 2850 6750 2900
Wire Wire Line
	10050 1000 10150 1000
Connection ~ 10150 1000
Connection ~ 10250 1000
Wire Wire Line
	10100 6800 10200 6800
Connection ~ 10200 6800
Wire Wire Line
	10150 950  10150 1000
Wire Wire Line
	10200 6850 10200 6800
Wire Wire Line
	6950 2150 7000 2150
Wire Wire Line
	7000 2150 7000 2200
Wire Wire Line
	6650 2150 6600 2150
Wire Wire Line
	11500 2300 11900 2300
Wire Wire Line
	11500 2400 11900 2400
Wire Wire Line
	11500 2500 11900 2500
Wire Wire Line
	11500 5900 11900 5900
Wire Wire Line
	11500 5800 11900 5800
Wire Wire Line
	6700 7300 7150 7300
Wire Wire Line
	6700 9100 7150 9100
Wire Wire Line
	11500 4200 11900 4200
Wire Wire Line
	11500 4300 11900 4300
Wire Wire Line
	11500 2700 11900 2700
Wire Wire Line
	11500 2600 11900 2600
Wire Wire Line
	11500 2800 11900 2800
Wire Wire Line
	8850 2650 8850 2600
Wire Wire Line
	8850 2600 8900 2600
Wire Wire Line
	8150 2200 7750 2200
Wire Wire Line
	8450 2200 8900 2200
Wire Wire Line
	8900 2400 8450 2400
Wire Wire Line
	8150 2400 6600 2400
Wire Wire Line
	8350 1550 8350 1600
Wire Wire Line
	8350 1600 8400 1600
Wire Wire Line
	7850 1300 7850 5700
Wire Wire Line
	7850 5700 7350 5700
Wire Wire Line
	12100 1900 12400 1900
Wire Wire Line
	12400 1900 12400 2000
Wire Bus Line
	12000 9400 7250 9400
Wire Bus Line
	13900 6300 12000 6300
Wire Wire Line
	10800 8750 10800 8800
Wire Wire Line
	10800 9200 10850 9200
$Comp
L Device:LED D5
U 1 1 572DA6A5
P 11000 9200
F 0 "D5" H 11000 9300 50  0000 C CNN
F 1 "LED" V 11045 9278 50  0001 L CNN
F 2 "LEDs:LED_D5.0mm" H 11000 9200 50  0001 C CNN
F 3 "" H 11000 9200 50  0000 C CNN
F 4 "LTL2R3KYD-EM" V 11000 9200 60  0001 C CNN "manf#"
	1    11000 9200
	-1   0    0    -1  
$EndComp
$Comp
L Device:R R21
U 1 1 572D9F1E
P 11300 9200
F 0 "R21" V 11400 9200 50  0000 C CNN
F 1 "1k" V 11300 9200 50  0000 C CNN
F 2 "Resistors_SMD:R_0805" V 11230 9200 50  0001 C CNN
F 3 "" H 11300 9200 50  0000 C CNN
F 4 "RMCF0805JT220R" V 11300 9200 60  0001 C CNN "manf#"
	1    11300 9200
	0    -1   -1   0   
$EndComp
$Comp
L power:GND #PWR056
U 1 1 59A8BF02
P 11650 9250
F 0 "#PWR056" H 11650 9000 50  0001 C CNN
F 1 "GND" H 11658 9076 50  0001 C CNN
F 2 "" H 11650 9250 50  0000 C CNN
F 3 "" H 11650 9250 50  0000 C CNN
	1    11650 9250
	1    0    0    -1  
$EndComp
Wire Wire Line
	11450 9200 11650 9200
Wire Wire Line
	11650 9200 11650 9250
Wire Wire Line
	10800 8250 10800 8300
Connection ~ 10800 9000
Wire Wire Line
	11450 7650 11900 7650
Wire Wire Line
	11450 7750 11900 7750
Entry Wire Line
	11900 7650 12000 7750
Entry Wire Line
	11900 7750 12000 7850
$Comp
L power:GND #PWR046
U 1 1 59A94395
P 11550 8000
F 0 "#PWR046" H 11550 7750 50  0001 C CNN
F 1 "GND" H 11558 7826 50  0001 C CNN
F 2 "" H 11550 8000 50  0000 C CNN
F 3 "" H 11550 8000 50  0000 C CNN
	1    11550 8000
	1    0    0    -1  
$EndComp
Text Label 11900 7650 2    60   ~ 0
RXD
Text Label 11900 7750 2    60   ~ 0
TXD
$Comp
L Switch:SW_Push SW1
U 1 1 59A960FD
P 11250 7150
F 0 "SW1" H 11250 7343 50  0000 C CNN
F 1 "SW_Push" H 11250 7344 50  0001 C CNN
F 2 "Buttons_Switches_THT:SW_PUSH_6mm_h13mm" H 11250 7350 50  0001 C CNN
F 3 "" H 11250 7350 50  0001 C CNN
F 4 "3-1825910-1" H 11250 7150 60  0001 C CNN "manf#"
	1    11250 7150
	1    0    0    -1  
$EndComp
$Comp
L power:GND #PWR041
U 1 1 59A96472
P 10950 7200
F 0 "#PWR041" H 10950 6950 50  0001 C CNN
F 1 "GND" H 10958 7026 50  0001 C CNN
F 2 "" H 10950 7200 50  0000 C CNN
F 3 "" H 10950 7200 50  0000 C CNN
	1    10950 7200
	1    0    0    -1  
$EndComp
Wire Wire Line
	10950 7200 10950 7150
Wire Wire Line
	10950 7150 11050 7150
Wire Wire Line
	11450 7150 11900 7150
Entry Wire Line
	11900 7150 12000 7250
Wire Wire Line
	11500 2900 11900 2900
Entry Wire Line
	11900 2900 12000 3000
Text Label 11900 2900 2    60   ~ 0
SW_PUSH
Text Label 11900 7150 2    60   ~ 0
SW_PUSH
NoConn ~ 11500 4000
NoConn ~ 11500 4500
NoConn ~ 11500 4600
NoConn ~ 11500 4700
Wire Wire Line
	6700 6100 7150 6100
Entry Wire Line
	7150 6100 7250 6200
Text Label 7150 6100 2    60   ~ 0
SS_MCU
Wire Wire Line
	8800 2000 8900 2000
Wire Wire Line
	8800 1950 8800 2000
$Comp
L power:+5V #PWR013
U 1 1 59AA67FA
P 8800 1950
F 0 "#PWR013" H 8800 1800 50  0001 C CNN
F 1 "+5V" H 8800 2100 50  0000 C CNN
F 2 "" H 8800 1950 50  0000 C CNN
F 3 "" H 8800 1950 50  0000 C CNN
	1    8800 1950
	1    0    0    -1  
$EndComp
Text Notes 7450 1100 0    60   ~ 0
NOTE: For ~RESET~, VIHmin = 4.5V, VILmax = 1 V.\nThis makes difficult to connect this line to PRTPWR1\nwithout using additional logic.
$Comp
L Device:C C24
U 1 1 59A9259E
P 10200 7450
F 0 "C24" H 10315 7496 50  0000 L CNN
F 1 "100n" H 10315 7404 50  0000 L CNN
F 2 "Capacitors_SMD:C_0603" H 10238 7300 50  0001 C CNN
F 3 "" H 10200 7450 50  0000 C CNN
	1    10200 7450
	1    0    0    -1  
$EndComp
$Comp
L Device:C C25
U 1 1 59A9265A
P 10600 7450
F 0 "C25" H 10715 7496 50  0000 L CNN
F 1 "100n" H 10715 7404 50  0000 L CNN
F 2 "Capacitors_SMD:C_0603" H 10638 7300 50  0001 C CNN
F 3 "" H 10600 7450 50  0000 C CNN
	1    10600 7450
	1    0    0    -1  
$EndComp
Wire Wire Line
	9800 7600 10200 7600
Connection ~ 10200 7600
Wire Wire Line
	9800 7300 10200 7300
Connection ~ 10200 7300
Wire Wire Line
	10200 7300 10200 7250
Wire Wire Line
	10200 7600 10200 7650
$Comp
L Device:C C4
U 1 1 59A9470B
P 6000 1500
F 0 "C4" H 6050 1600 50  0000 L CNN
F 1 "100n" H 6050 1400 50  0000 L CNN
F 2 "Capacitors_SMD:C_0603" H 6038 1350 50  0001 C CNN
F 3 "" H 6000 1500 50  0000 C CNN
	1    6000 1500
	1    0    0    -1  
$EndComp
$Comp
L Device:C C5
U 1 1 59A947B3
P 6300 1500
F 0 "C5" H 6350 1600 50  0000 L CNN
F 1 "100n" H 6350 1400 50  0000 L CNN
F 2 "Capacitors_SMD:C_0603" H 6338 1350 50  0001 C CNN
F 3 "" H 6300 1500 50  0000 C CNN
	1    6300 1500
	1    0    0    -1  
$EndComp
Wire Wire Line
	5700 1350 6000 1350
Connection ~ 6000 1350
Wire Wire Line
	5700 1650 6000 1650
Connection ~ 6000 1650
Wire Wire Line
	6000 1650 6000 1700
Wire Wire Line
	6000 1350 6000 1300
Text Notes 7100 11100 0    60   ~ 0
For the MCU/CIC flasher check:\n====================\n1.- That when not initialized, the FT2232 keeps SS outputs high (or high Z)\n2.- That both SS pins can be independently configured.\n3.- That the unused SS pin can be set to 0 or 1 as needed.\n\nNOTE: This might not be needed because MCU can be flashed using the DFU bootloader,\nbut it is important to note that DFU cannot flash itself.
$Comp
L Device:CP C1
U 1 1 59AA0E34
P 12800 1300
F 0 "C1" H 12850 1400 50  0000 L CNN
F 1 "6.8u" H 12850 1200 50  0000 L CNN
F 2 "Capacitors_THT:CP_Radial_D5.0mm_P2.50mm" H 12838 1150 50  0001 C CNN
F 3 "" H 12800 1300 50  0000 C CNN
	1    12800 1300
	1    0    0    -1  
$EndComp
$Comp
L Device:C C2
U 1 1 59AA119B
P 13100 1300
F 0 "C2" H 13150 1400 50  0000 L CNN
F 1 "100n" H 13150 1200 50  0000 L CNN
F 2 "Capacitors_SMD:C_0603" H 13138 1150 50  0001 C CNN
F 3 "" H 13100 1300 50  0000 C CNN
	1    13100 1300
	1    0    0    -1  
$EndComp
$Comp
L power:+5V #PWR02
U 1 1 59AA14E3
P 12950 1100
F 0 "#PWR02" H 12950 950 50  0001 C CNN
F 1 "+5V" H 12950 1250 50  0000 C CNN
F 2 "" H 12950 1100 50  0000 C CNN
F 3 "" H 12950 1100 50  0000 C CNN
	1    12950 1100
	1    0    0    -1  
$EndComp
$Comp
L power:GND #PWR06
U 1 1 59AA17DC
P 12950 1500
F 0 "#PWR06" H 12950 1250 50  0001 C CNN
F 1 "GND" H 12958 1326 50  0001 C CNN
F 2 "" H 12950 1500 50  0000 C CNN
F 3 "" H 12950 1500 50  0000 C CNN
	1    12950 1500
	1    0    0    -1  
$EndComp
Wire Wire Line
	12800 1450 12950 1450
Wire Wire Line
	12950 1450 12950 1500
Connection ~ 12950 1450
Wire Wire Line
	12800 1150 12950 1150
Wire Wire Line
	12950 1150 12950 1100
Connection ~ 12950 1150
Wire Wire Line
	11500 4100 11900 4100
Wire Wire Line
	11500 4400 11900 4400
Entry Wire Line
	11900 4100 12000 4200
Entry Wire Line
	11900 4400 12000 4500
Text Label 11900 4100 2    60   ~ 0
CTS
Text Label 11900 4400 2    60   ~ 0
RTS
Wire Wire Line
	11550 7950 11550 8000
Wire Wire Line
	11450 7950 11550 7950
Wire Wire Line
	11450 7450 11550 7450
Wire Wire Line
	11550 7450 11550 7400
$Comp
L Connector_Generic:Conn_01x06 P3
U 1 1 59AEB68B
P 11250 7650
F 0 "P3" H 11350 7700 50  0000 L CNN
F 1 "CONN_01X06" H 11328 7600 50  0001 L CNN
F 2 "Pin_Headers:Pin_Header_Straight_2x03_Pitch2.54mm" H 11250 7650 50  0001 C CNN
F 3 "" H 11250 7650 50  0001 C CNN
F 4 "Debug" H 11350 7600 60  0000 L CNN "Function"
F 5 "M20-9760346" H 11250 7650 60  0001 C CNN "manf#"
	1    11250 7650
	-1   0    0    -1  
$EndComp
Wire Wire Line
	11450 7550 11900 7550
Wire Wire Line
	11450 7850 11900 7850
Text Label 11900 7550 2    60   ~ 0
CTS
Text Label 11900 7850 2    60   ~ 0
RTS
Entry Wire Line
	11900 7550 12000 7650
Entry Wire Line
	11900 7850 12000 7950
$Comp
L power:+5V #PWR043
U 1 1 59AEC32B
P 11550 7400
F 0 "#PWR043" H 11550 7250 50  0001 C CNN
F 1 "+5V" H 11568 7574 50  0000 C CNN
F 2 "" H 11550 7400 50  0000 C CNN
F 3 "" H 11550 7400 50  0000 C CNN
	1    11550 7400
	1    0    0    -1  
$EndComp
Wire Wire Line
	6600 3350 6800 3350
Wire Wire Line
	6800 3350 6800 4700
Wire Wire Line
	6800 4700 2800 4700
Wire Wire Line
	2800 4700 2800 7200
Wire Wire Line
	2800 7200 4300 7200
$Comp
L Interface_USB:FT2232H U4
U 1 1 57284E2F
P 5500 7600
F 0 "U4" H 6250 9800 50  0000 C CNN
F 1 "FT2232H" H 6350 9700 50  0000 C CNN
F 2 "Housings_QFP:LQFP-64_10x10mm_Pitch0.5mm" H 5500 7600 50  0001 C CNN
F 3 "" H 5500 7600 50  0000 C CNN
F 4 "FT2232HL-REEL" H 5500 7600 60  0001 C CNN "manf#"
	1    5500 7600
	1    0    0    -1  
$EndComp
NoConn ~ 6700 9300
NoConn ~ 6700 7900
NoConn ~ 11500 5400
$Comp
L power:GND #PWR031
U 1 1 59C4BF60
P 11600 5050
F 0 "#PWR031" H 11600 4800 50  0001 C CNN
F 1 "GND" H 11608 4876 50  0001 C CNN
F 2 "" H 11600 5050 50  0000 C CNN
F 3 "" H 11600 5050 50  0000 C CNN
	1    11600 5050
	1    0    0    -1  
$EndComp
Wire Wire Line
	11500 5000 11600 5000
Wire Wire Line
	11600 5000 11600 5050
$Comp
L power:GND #PWR024
U 1 1 59C4C476
P 11600 3850
F 0 "#PWR024" H 11600 3600 50  0001 C CNN
F 1 "GND" H 11608 3676 50  0001 C CNN
F 2 "" H 11600 3850 50  0000 C CNN
F 3 "" H 11600 3850 50  0000 C CNN
	1    11600 3850
	1    0    0    -1  
$EndComp
Wire Wire Line
	11500 3800 11600 3800
Wire Wire Line
	11600 3800 11600 3850
Wire Wire Line
	11500 5100 11500 5000
Connection ~ 11500 5000
Wire Wire Line
	1800 2700 1800 2650
$Comp
L Device:R R2
U 1 1 59C53131
P 2550 1700
F 0 "R2" V 2650 1700 50  0000 C CNN
F 1 "33k" V 2550 1700 50  0000 C CNN
F 2 "Resistors_SMD:R_0805" V 2480 1700 50  0001 C CNN
F 3 "" H 2550 1700 50  0000 C CNN
F 4 "RC0603JR-0733KL" V 2550 1700 60  0001 C CNN "manf#"
	1    2550 1700
	0    -1   -1   0   
$EndComp
$Comp
L Device:R R3
U 1 1 59C53C21
P 2750 1900
F 0 "R3" H 2700 1900 50  0000 R CNN
F 1 "100k" V 2750 1900 50  0000 C CNN
F 2 "Resistors_SMD:R_0805" V 2680 1900 50  0001 C CNN
F 3 "" H 2750 1900 50  0000 C CNN
F 4 "RMCF0805JT1K00" V 2750 1900 60  0001 C CNN "manf#"
	1    2750 1900
	1    0    0    -1  
$EndComp
Wire Wire Line
	2350 1650 2350 1700
Wire Wire Line
	2350 1700 2400 1700
Wire Wire Line
	2700 1700 2750 1700
Wire Wire Line
	2750 1700 2750 1750
Wire Wire Line
	2950 1700 2950 2050
Wire Wire Line
	2950 2050 3800 2050
Connection ~ 2750 1700
$Comp
L power:GND #PWR014
U 1 1 59C54756
P 2750 2050
F 0 "#PWR014" H 2750 1800 50  0001 C CNN
F 1 "GND" H 2758 1876 50  0001 C CNN
F 2 "" H 2750 2050 50  0000 C CNN
F 3 "" H 2750 2050 50  0000 C CNN
	1    2750 2050
	1    0    0    -1  
$EndComp
$Comp
L Device:C C26
U 1 1 59C5A58F
P 13500 8400
F 0 "C26" H 13650 8350 50  0000 L CNN
F 1 "NP" H 13650 8450 50  0000 L CNN
F 2 "Capacitors_SMD:C_0603" H 13538 8250 50  0001 C CNN
F 3 "" H 13500 8400 50  0000 C CNN
	1    13500 8400
	-1   0    0    1   
$EndComp
$Comp
L power:GND #PWR050
U 1 1 59C5C7E1
P 13500 8550
F 0 "#PWR050" H 13500 8300 50  0001 C CNN
F 1 "GND" H 13508 8376 50  0001 C CNN
F 2 "" H 13500 8550 50  0000 C CNN
F 3 "" H 13500 8550 50  0000 C CNN
	1    13500 8550
	1    0    0    -1  
$EndComp
$Comp
L power:+3.3V #PWR048
U 1 1 59C5D5C2
P 13500 8250
F 0 "#PWR048" H 13500 8100 50  0001 C CNN
F 1 "+3.3V" H 13500 8400 50  0000 C CNN
F 2 "" H 13500 8250 50  0000 C CNN
F 3 "" H 13500 8250 50  0000 C CNN
	1    13500 8250
	1    0    0    -1  
$EndComp
Text Notes 13050 8800 0    60   ~ 0
Split plane decoupling
Wire Wire Line
	13500 4400 13800 4400
Entry Wire Line
	13800 4400 13900 4500
Text Label 13800 4400 2    60   ~ 0
~C_DET
Wire Wire Line
	13500 4300 13800 4300
Entry Wire Line
	13800 4300 13900 4400
Text Label 13800 4300 2    60   ~ 0
C_PD
Entry Wire Line
	12000 6700 12100 6600
Wire Wire Line
	12100 6600 12400 6600
Text Label 12100 6600 0    60   ~ 0
C_PD
$Comp
L Device:R R22
U 1 1 59C99A0C
P 12400 6800
F 0 "R22" H 12450 6800 50  0000 L CNN
F 1 "10k" V 12400 6800 50  0000 C CNN
F 2 "Resistors_SMD:R_0805" V 12330 6800 50  0001 C CNN
F 3 "" H 12400 6800 50  0000 C CNN
F 4 "RMCF0805JT10K0" V 12400 6800 60  0001 C CNN "manf#"
	1    12400 6800
	-1   0    0    1   
$EndComp
$Comp
L power:GND #PWR064
U 1 1 59C9B00D
P 12400 6950
F 0 "#PWR064" H 12400 6700 50  0001 C CNN
F 1 "GND" H 12408 6776 50  0001 C CNN
F 2 "" H 12400 6950 50  0000 C CNN
F 3 "" H 12400 6950 50  0000 C CNN
	1    12400 6950
	1    0    0    -1  
$EndComp
Wire Wire Line
	12400 6600 12400 6650
Text Notes 12050 7300 0    60   ~ 0
Pull-downs for cartridge detection\non ~C_DET~ and ~POWE~.
Wire Wire Line
	11500 5300 11900 5300
Entry Wire Line
	11900 5300 12000 5400
Text Label 11900 5300 2    60   ~ 0
~C_DET
Entry Wire Line
	12000 6600 12100 6500
Wire Wire Line
	12100 6500 12700 6500
$Comp
L Device:R R23
U 1 1 59CA9A15
P 12700 6800
F 0 "R23" H 12750 6800 50  0000 L CNN
F 1 "100k" V 12700 6800 50  0000 C CNN
F 2 "Resistors_SMD:R_0805" V 12630 6800 50  0001 C CNN
F 3 "" H 12700 6800 50  0000 C CNN
F 4 "RMCF0805JT10K0" V 12700 6800 60  0001 C CNN "manf#"
	1    12700 6800
	-1   0    0    1   
$EndComp
Wire Wire Line
	12700 6500 12700 6650
$Comp
L power:GND #PWR065
U 1 1 59CAA405
P 12700 6950
F 0 "#PWR065" H 12700 6700 50  0001 C CNN
F 1 "GND" H 12708 6776 50  0001 C CNN
F 2 "" H 12700 6950 50  0000 C CNN
F 3 "" H 12700 6950 50  0000 C CNN
	1    12700 6950
	1    0    0    -1  
$EndComp
Text Label 12100 6500 0    60   ~ 0
~POWE
Wire Wire Line
	4200 8500 4300 8500
Wire Wire Line
	3800 8500 3850 8500
Wire Wire Line
	5400 5350 5500 5350
Wire Wire Line
	5300 5350 5400 5350
Wire Wire Line
	5300 5350 5300 5400
Wire Wire Line
	5900 5350 6000 5350
Wire Wire Line
	5800 5350 5800 5400
Wire Wire Line
	5800 5350 5900 5350
Wire Wire Line
	4000 7700 4200 7700
Wire Wire Line
	4000 7700 4000 7750
Wire Wire Line
	4000 8200 4000 8300
Wire Wire Line
	8200 3500 8200 3550
Wire Wire Line
	4750 10300 4900 10300
Wire Wire Line
	5050 10300 5350 10300
Wire Wire Line
	5050 10700 5350 10700
Wire Wire Line
	4750 10700 4900 10700
Wire Wire Line
	8800 1600 8900 1600
Wire Wire Line
	10800 8300 10800 8500
Wire Wire Line
	10800 8800 10800 9000
Wire Wire Line
	6200 10300 6500 10300
Wire Wire Line
	6200 10300 6200 10350
Wire Wire Line
	6200 10700 6500 10700
Wire Wire Line
	6200 10700 6200 10750
Wire Wire Line
	4900 10300 5050 10300
Wire Wire Line
	4900 10700 5050 10700
Wire Wire Line
	8200 3200 8200 3500
Wire Wire Line
	5200 1750 5300 1750
Wire Wire Line
	3450 1350 3550 1350
Wire Wire Line
	3450 1350 3450 1450
Wire Wire Line
	4450 1350 4450 1450
Wire Wire Line
	3950 1750 4450 1750
Wire Wire Line
	3950 1750 3950 1800
Wire Wire Line
	3150 1350 3450 1350
Wire Wire Line
	3100 3050 3100 3100
Wire Wire Line
	2800 3050 2800 3100
Wire Wire Line
	3250 3750 3550 3750
Wire Wire Line
	10150 1000 10250 1000
Wire Wire Line
	10250 1000 10350 1000
Wire Wire Line
	10200 6800 10300 6800
Wire Wire Line
	10800 9000 10800 9200
Wire Wire Line
	10200 7600 10600 7600
Wire Wire Line
	10200 7300 10600 7300
Wire Wire Line
	6000 1350 6300 1350
Wire Wire Line
	6000 1650 6300 1650
Wire Wire Line
	12950 1450 13100 1450
Wire Wire Line
	12950 1150 13100 1150
Wire Wire Line
	2750 1700 2950 1700
$Comp
L Connector:USB_B P1
U 1 1 5AD35BA4
P 1900 2250
F 0 "P1" H 1955 2717 50  0000 C CNN
F 1 "USB_B" H 1955 2626 50  0000 C CNN
F 2 "Connectors:USB_B" H 2050 2200 50  0001 C CNN
F 3 "" H 2050 2200 50  0001 C CNN
F 4 "E8144-B02022-L" H 1900 2250 50  0001 C CNN "manf#"
	1    1900 2250
	1    0    0    -1  
$EndComp
Wire Wire Line
	1900 2650 1800 2650
Connection ~ 1800 2650
Wire Wire Line
	3700 9500 3800 9500
Wire Wire Line
	8550 3500 8600 3500
Wire Wire Line
	8550 3200 8600 3200
Wire Wire Line
	3050 5250 3300 5250
Wire Wire Line
	3650 5300 3900 5300
Wire Wire Line
	3150 1750 3450 1750
Wire Wire Line
	3450 3050 3500 3050
Wire Wire Line
	3450 2750 3500 2750
Wire Wire Line
	3300 5600 3900 5600
Wire Wire Line
	4300 9800 4900 9800
Wire Wire Line
	5400 9800 5500 9800
Connection ~ 4150 5900
Connection ~ 3300 5250
Wire Wire Line
	3300 5250 5100 5250
Connection ~ 3650 5300
Connection ~ 3900 5300
Wire Wire Line
	3900 5300 5000 5300
Connection ~ 3050 5250
Connection ~ 3300 9500
Connection ~ 3800 9500
Wire Wire Line
	3800 9500 4200 9500
Connection ~ 4450 1450
Connection ~ 3450 1750
Wire Wire Line
	3450 1750 3950 1750
Connection ~ 3500 3050
Wire Wire Line
	3500 3050 3800 3050
Connection ~ 3500 2750
Wire Wire Line
	3500 2750 3800 2750
Connection ~ 8600 3500
Wire Wire Line
	8600 3500 8900 3500
Connection ~ 8600 3200
Wire Wire Line
	8600 3200 8900 3200
Wire Wire Line
	4200 8050 4200 8400
Wire Wire Line
	3650 8700 4200 8700
Connection ~ 4200 8500
Wire Wire Line
	3800 8500 3800 8800
Wire Wire Line
	3800 8800 3650 8800
Connection ~ 3800 8500
Wire Wire Line
	4200 8700 4200 8500
Connection ~ 4200 8400
Wire Wire Line
	4200 8400 3700 8400
Wire Wire Line
	2800 8600 2850 8600
Wire Wire Line
	3700 8400 3700 8600
Wire Wire Line
	3700 8600 3650 8600
Connection ~ 4900 9800
Wire Wire Line
	4900 9800 5100 9800
Connection ~ 5100 9800
Wire Wire Line
	5100 9800 5200 9800
Connection ~ 5200 9800
Wire Wire Line
	5200 9800 5300 9800
Connection ~ 5300 9800
Wire Wire Line
	5300 9800 5400 9800
Connection ~ 5500 9800
Wire Wire Line
	5500 9800 5600 9800
Connection ~ 5600 9800
Wire Wire Line
	5600 9800 5700 9800
Connection ~ 5700 9800
Wire Wire Line
	5700 9800 5800 9800
Wire Wire Line
	3250 9000 2800 9000
Wire Wire Line
	3250 9000 3250 9050
Connection ~ 3250 9000
Wire Wire Line
	2800 9000 2800 8800
Wire Wire Line
	2800 8800 2850 8800
Wire Wire Line
	2800 8700 2850 8700
Wire Bus Line
	7250 5800 7250 9400
Wire Bus Line
	12000 6300 12000 9400
Wire Bus Line
	13900 2200 13900 6300
Wire Bus Line
	12000 1400 12000 6300
$EndSCHEMATC
