EESchema Schematic File Version 4
EELAYER 30 0
EELAYER END
$Descr A3 11693 16535 portrait
encoding utf-8
Sheet 1 1
Title "MOJO-NES MKIII"
Date "2017-07-28"
Rev "A"
Comp "doragasu @ 1985alternativo"
Comment1 "License: CERN-OHL-S v2"
Comment2 ""
Comment3 ""
Comment4 ""
$EndDescr
$Comp
L doragasu:LCMXO256C U2
U 1 1 5718F4AA
P 6250 8600
F 0 "U2" H 8700 5600 60  0000 C CNN
F 1 "LCMXO256C" H 8900 5500 60  0000 C CNN
F 2 "Housings_QFP:LQFP-100_14x14mm_Pitch0.5mm" H 6250 8600 60  0001 C CNN
F 3 "" H 6250 8600 60  0000 C CNN
F 4 "LAMXO256C-3TN100E" H 6250 8600 60  0001 C CNN "manf#"
	1    6250 8600
	1    0    0    -1  
$EndComp
$Comp
L doragasu:74LVC162245 U4
U 1 1 5718F8BA
P 4950 1700
F 0 "U4" H 4950 2450 60  0000 C CNN
F 1 "74LVC162245" H 4950 2350 60  0000 C CNN
F 2 "Housings_SSOP:TSSOP-48_6.1x12.5mm_Pitch0.5mm" H 4950 1700 60  0001 C CNN
F 3 "" H 4950 1700 60  0000 C CNN
F 4 "74LVC162245ADGG:11" H 4950 1700 60  0001 C CNN "manf#"
	1    4950 1700
	1    0    0    -1  
$EndComp
$Comp
L doragasu:74LVC162245 U4
U 2 1 5718FA22
P 4950 3100
F 0 "U4" H 4950 3850 60  0000 C CNN
F 1 "74LVC162245" H 4950 3750 60  0000 C CNN
F 2 "Housings_SSOP:TSSOP-48_6.1x12.5mm_Pitch0.5mm" H 4950 3100 60  0001 C CNN
F 3 "" H 4950 3100 60  0000 C CNN
	2    4950 3100
	1    0    0    -1  
$EndComp
$Comp
L doragasu:74LVC162245 U3
U 2 1 5718FA94
P 4950 4700
F 0 "U3" H 4950 5450 60  0000 C CNN
F 1 "74LVC162245" H 4950 5350 60  0000 C CNN
F 2 "Housings_SSOP:TSSOP-48_6.1x12.5mm_Pitch0.5mm" H 4950 4700 60  0001 C CNN
F 3 "" H 4950 4700 60  0000 C CNN
	2    4950 4700
	-1   0    0    -1  
$EndComp
$Comp
L doragasu:74LVC162245 U3
U 1 1 5718FB51
P 4950 6200
F 0 "U3" H 4950 6950 60  0000 C CNN
F 1 "74LVC162245" H 4950 6850 60  0000 C CNN
F 2 "Housings_SSOP:TSSOP-48_6.1x12.5mm_Pitch0.5mm" H 4950 6200 60  0001 C CNN
F 3 "" H 4950 6200 60  0000 C CNN
	1    4950 6200
	-1   0    0    -1  
$EndComp
$Comp
L doragasu:74LVC162245 U5
U 1 1 5718FCA7
P 4950 7800
F 0 "U5" H 4950 8550 60  0000 C CNN
F 1 "74LVC162245" H 4950 8450 60  0000 C CNN
F 2 "Housings_SSOP:TSSOP-48_6.1x12.5mm_Pitch0.5mm" H 4950 7800 60  0001 C CNN
F 3 "" H 4950 7800 60  0000 C CNN
	1    4950 7800
	1    0    0    -1  
$EndComp
$Comp
L doragasu:74LVC162245 U5
U 2 1 5718FDA1
P 4950 9200
F 0 "U5" H 4950 9950 60  0000 C CNN
F 1 "74LVC162245" H 4950 9850 60  0000 C CNN
F 2 "Housings_SSOP:TSSOP-48_6.1x12.5mm_Pitch0.5mm" H 4950 9200 60  0001 C CNN
F 3 "" H 4950 9200 60  0000 C CNN
	2    4950 9200
	1    0    0    -1  
$EndComp
$Comp
L doragasu:74LVC162245 U6
U 1 1 5718FE11
P 4950 10600
F 0 "U6" H 4950 11350 60  0000 C CNN
F 1 "74LVC162245" H 4950 11250 60  0000 C CNN
F 2 "Housings_SSOP:TSSOP-48_6.1x12.5mm_Pitch0.5mm" H 4950 10600 60  0001 C CNN
F 3 "" H 4950 10600 60  0000 C CNN
	1    4950 10600
	1    0    0    -1  
$EndComp
$Comp
L doragasu:74LVC162245 U6
U 2 1 57190191
P 4950 12000
F 0 "U6" H 4950 12750 60  0000 C CNN
F 1 "74LVC162245" H 4950 12650 60  0000 C CNN
F 2 "Housings_SSOP:TSSOP-48_6.1x12.5mm_Pitch0.5mm" H 4950 12000 60  0001 C CNN
F 3 "" H 4950 12000 60  0000 C CNN
	2    4950 12000
	1    0    0    -1  
$EndComp
$Comp
L doragasu:AZ1117CH U1
U 1 1 57191F2C
P 2600 13750
F 0 "U1" H 2600 14050 60  0000 C CNN
F 1 "AZ1117CH" H 2600 13950 60  0000 C CNN
F 2 "TO_SOT_Packages_SMD:SOT-223" H 2600 13969 40  0001 C CNN
F 3 "" H 2600 13750 60  0000 C CNN
F 4 "AZ1117CH-3.3TRG1" H 2600 13750 60  0001 C CNN "manf#"
	1    2600 13750
	1    0    0    -1  
$EndComp
Text Label 1850 2000 0    60   ~ 0
_PA11
Entry Wire Line
	3550 2000 3650 2100
Entry Wire Line
	3550 2100 3650 2200
Entry Wire Line
	3550 2200 3650 2300
Entry Wire Line
	3550 2300 3650 2400
Entry Wire Line
	3550 2400 3650 2500
Entry Wire Line
	3550 2500 3650 2600
Entry Wire Line
	3550 2600 3650 2700
Entry Wire Line
	3550 2700 3650 2800
Entry Wire Line
	3550 2800 3650 2900
Entry Wire Line
	3550 2900 3650 3000
Entry Wire Line
	3550 3000 3650 3100
Entry Wire Line
	3550 3100 3650 3200
Entry Wire Line
	3550 3200 3650 3300
Entry Wire Line
	3550 4400 3650 4500
Entry Wire Line
	3550 4500 3650 4600
Entry Wire Line
	3550 4600 3650 4700
Entry Wire Line
	3550 4700 3650 4800
Entry Wire Line
	3550 4800 3650 4900
Entry Wire Line
	3550 4900 3650 5000
Entry Wire Line
	3550 5000 3650 5100
Entry Wire Line
	3550 5100 3650 5200
Entry Wire Line
	3550 5200 3650 5300
Entry Wire Line
	3550 5300 3650 5400
Entry Wire Line
	3550 5400 3650 5500
Entry Wire Line
	3550 5600 3650 5700
Entry Wire Line
	3550 5700 3650 5800
Entry Wire Line
	1750 2100 1850 2000
Entry Wire Line
	1750 2200 1850 2100
Entry Wire Line
	1750 2300 1850 2200
Entry Wire Line
	1750 2400 1850 2300
Entry Wire Line
	1750 2500 1850 2400
Entry Wire Line
	1750 2600 1850 2500
Entry Wire Line
	1750 2700 1850 2600
Entry Wire Line
	1750 2800 1850 2700
Entry Wire Line
	1750 2900 1850 2800
Entry Wire Line
	1750 3000 1850 2900
Entry Wire Line
	1750 3100 1850 3000
Entry Wire Line
	1750 3200 1850 3100
Entry Wire Line
	1750 3300 1850 3200
Entry Wire Line
	1750 3400 1850 3300
Entry Wire Line
	1750 4300 1850 4200
Entry Wire Line
	1750 4400 1850 4300
Entry Wire Line
	1750 4500 1850 4400
Entry Wire Line
	1750 4600 1850 4500
Entry Wire Line
	1750 4700 1850 4600
Entry Wire Line
	1750 4800 1850 4700
Entry Wire Line
	1750 4900 1850 4800
Entry Wire Line
	1750 5000 1850 4900
Entry Wire Line
	1750 5100 1850 5000
Entry Wire Line
	1750 5200 1850 5100
Entry Wire Line
	1750 5300 1850 5200
Entry Wire Line
	1750 5400 1850 5300
Entry Wire Line
	1750 5500 1850 5400
Entry Wire Line
	1750 5700 1850 5600
Entry Wire Line
	1750 5800 1850 5700
Text Label 1850 2100 0    60   ~ 0
_PA10
Text Label 1850 2200 0    60   ~ 0
_PA9
Text Label 1850 2300 0    60   ~ 0
_PA8
Text Label 1850 2400 0    60   ~ 0
_PA7
Text Label 1850 2500 0    60   ~ 0
_PA6
Text Label 1850 2600 0    60   ~ 0
_PA5
Text Label 1850 2700 0    60   ~ 0
_PA4
Text Label 1850 2800 0    60   ~ 0
_PA3
Text Label 1850 2900 0    60   ~ 0
_PA2
Text Label 1850 3000 0    60   ~ 0
_PA1
Text Label 1850 3100 0    60   ~ 0
_PA0
Text Label 1850 3200 0    60   ~ 0
_R/~W
Text Label 1850 3300 0    60   ~ 0
_~IRQ
Text Label 3550 2000 2    60   ~ 0
_PHI2
Text Label 3550 2100 2    60   ~ 0
_PA12
Text Label 3550 2200 2    60   ~ 0
_PA13
Text Label 3550 2300 2    60   ~ 0
_PA14
Text Label 3550 2400 2    60   ~ 0
_PD7
Text Label 3550 2500 2    60   ~ 0
_PD6
Text Label 3550 2600 2    60   ~ 0
_PD5
Text Label 3550 2700 2    60   ~ 0
_PD4
Text Label 3550 2800 2    60   ~ 0
_PD3
Text Label 3550 2900 2    60   ~ 0
_PD2
Text Label 3550 3000 2    60   ~ 0
_PD1
Text Label 3550 3100 2    60   ~ 0
_PD0
Text Label 3550 3200 2    60   ~ 0
_~PROM
Text Label 3550 4400 2    60   ~ 0
_CA7
Text Label 3550 4500 2    60   ~ 0
_CA8
Text Label 3550 4600 2    60   ~ 0
_CA9
Text Label 3550 4700 2    60   ~ 0
_CA11
Text Label 3550 4800 2    60   ~ 0
_CA10
Text Label 3550 4900 2    60   ~ 0
_CA12
Text Label 3550 5000 2    60   ~ 0
_CA13
Text Label 3550 5100 2    60   ~ 0
_CD7
Text Label 3550 5200 2    60   ~ 0
_CD6
Text Label 3550 5300 2    60   ~ 0
_CD5
Text Label 3550 5400 2    60   ~ 0
_CD4
Text Label 3550 5600 2    60   ~ 0
LS2
Text Label 3550 5700 2    60   ~ 0
LCK
Text Label 1850 4300 0    60   ~ 0
_VA10
Text Label 1850 4400 0    60   ~ 0
_CA6
Text Label 1850 4500 0    60   ~ 0
_CA5
Text Label 1850 4600 0    60   ~ 0
_CA4
Text Label 1850 4700 0    60   ~ 0
_CA3
Text Label 1850 4800 0    60   ~ 0
_CA2
Text Label 1850 4900 0    60   ~ 0
_CA1
Text Label 1850 5000 0    60   ~ 0
_CA0
Text Label 1850 5100 0    60   ~ 0
_CD0
Text Label 1850 5200 0    60   ~ 0
_CD1
Text Label 1850 5300 0    60   ~ 0
_CD2
Text Label 1850 5400 0    60   ~ 0
_CD3
Text Label 1850 5600 0    60   ~ 0
LS0
Text Label 1850 5700 0    60   ~ 0
LS1
Entry Wire Line
	4000 1300 4100 1200
Entry Wire Line
	4000 1400 4100 1300
Entry Wire Line
	4000 1500 4100 1400
Entry Wire Line
	4000 1600 4100 1500
Entry Wire Line
	4000 1700 4100 1600
Entry Wire Line
	4000 1800 4100 1700
Entry Wire Line
	4000 1900 4100 1800
Entry Wire Line
	4000 2000 4100 1900
Entry Wire Line
	4000 2700 4100 2600
Entry Wire Line
	4000 2800 4100 2700
Entry Wire Line
	4000 2900 4100 2800
Entry Wire Line
	4000 3000 4100 2900
Entry Wire Line
	4000 3100 4100 3000
Entry Wire Line
	4000 4300 4100 4200
Entry Wire Line
	4000 4400 4100 4300
Entry Wire Line
	4000 4500 4100 4400
Entry Wire Line
	4000 4600 4100 4500
Entry Wire Line
	4000 4700 4100 4600
Entry Wire Line
	4000 4800 4100 4700
Entry Wire Line
	4000 4900 4100 4800
Entry Wire Line
	4000 5000 4100 4900
Entry Wire Line
	4000 6000 4100 5900
Entry Wire Line
	4000 6100 4100 6000
Entry Wire Line
	4000 6200 4100 6100
Entry Wire Line
	4000 6300 4100 6200
Entry Wire Line
	4000 5900 4100 5800
Entry Wire Line
	4000 7500 4100 7400
Entry Wire Line
	4000 7600 4100 7500
Entry Wire Line
	4000 7700 4100 7600
Entry Wire Line
	4000 7800 4100 7700
Entry Wire Line
	4000 7900 4100 7800
Entry Wire Line
	4000 8000 4100 7900
Entry Wire Line
	4000 8100 4100 8000
Entry Wire Line
	4000 8800 4100 8700
Entry Wire Line
	4000 8900 4100 8800
Entry Wire Line
	4000 9000 4100 8900
Entry Wire Line
	4000 9100 4100 9000
Entry Wire Line
	4000 9200 4100 9100
Entry Wire Line
	4000 9300 4100 9200
Entry Wire Line
	4000 9400 4100 9300
Entry Wire Line
	4000 9500 4100 9400
Entry Wire Line
	4000 10200 4100 10100
Entry Wire Line
	4000 10300 4100 10200
Entry Wire Line
	4000 10400 4100 10300
Entry Wire Line
	4000 10500 4100 10400
Entry Wire Line
	4000 10600 4100 10500
Entry Wire Line
	4000 10700 4100 10600
Entry Wire Line
	4000 10800 4100 10700
Entry Wire Line
	4000 10900 4100 10800
Text Label 4100 4200 0    60   ~ 0
_PD0
Text Label 4100 4300 0    60   ~ 0
_PD1
Text Label 4100 4400 0    60   ~ 0
_PD2
Text Label 4100 4500 0    60   ~ 0
_PD3
Text Label 4100 4600 0    60   ~ 0
_PD4
Text Label 4100 4700 0    60   ~ 0
_PD5
Text Label 4100 4800 0    60   ~ 0
_PD6
Text Label 4100 4900 0    60   ~ 0
_PD7
Text Label 4100 6000 0    60   ~ 0
_PA11
Text Label 4100 3000 0    60   ~ 0
_PHI2
Text Label 4100 5900 0    60   ~ 0
_PA10
Text Label 4100 6100 0    60   ~ 0
_PA12
Text Label 4100 5800 0    60   ~ 0
_PA9
Text Label 4100 2600 0    60   ~ 0
_PA13
Text Label 4100 1300 0    60   ~ 0
_PA8
Text Label 4100 2700 0    60   ~ 0
_PA14
Text Label 4100 1400 0    60   ~ 0
_PA7
Text Label 4100 1500 0    60   ~ 0
_PA6
Text Label 4100 1600 0    60   ~ 0
_PA5
Text Label 4100 1700 0    60   ~ 0
_PA4
Text Label 4100 1800 0    60   ~ 0
_PA3
Text Label 4100 1900 0    60   ~ 0
_PA2
Text Label 4100 6300 0    60   ~ 0
_PA1
Text Label 4100 6200 0    60   ~ 0
_PA0
Text Label 4100 2800 0    60   ~ 0
_R/~W
Text Label 4100 3900 0    60   ~ 0
_~IRQ
Text Label 4100 2900 0    60   ~ 0
_~PROM
$Comp
L power:GND #PWR01
U 1 1 5719B636
P 1900 1800
F 0 "#PWR01" H 1900 1550 50  0001 C CNN
F 1 "GND" H 1908 1626 50  0001 C CNN
F 2 "" H 1900 1800 50  0000 C CNN
F 3 "" H 1900 1800 50  0000 C CNN
	1    1900 1800
	1    0    0    -1  
$EndComp
$Comp
L power:GND #PWR02
U 1 1 5719B789
P 3500 5850
F 0 "#PWR02" H 3500 5600 50  0001 C CNN
F 1 "GND" H 3508 5676 50  0001 C CNN
F 2 "" H 3500 5850 50  0000 C CNN
F 3 "" H 3500 5850 50  0000 C CNN
	1    3500 5850
	1    0    0    -1  
$EndComp
$Comp
L power:+5V #PWR03
U 1 1 5719BC24
P 2100 5800
F 0 "#PWR03" H 2100 5650 50  0001 C CNN
F 1 "+5V" V 2118 5927 50  0000 L CNN
F 2 "" H 2100 5800 50  0000 C CNN
F 3 "" H 2100 5800 50  0000 C CNN
	1    2100 5800
	0    -1   -1   0   
$EndComp
$Comp
L power:GND #PWR04
U 1 1 5719BED3
P 2600 14050
F 0 "#PWR04" H 2600 13800 50  0001 C CNN
F 1 "GND" H 2608 13876 50  0001 C CNN
F 2 "" H 2600 14050 50  0000 C CNN
F 3 "" H 2600 14050 50  0000 C CNN
	1    2600 14050
	1    0    0    -1  
$EndComp
$Comp
L Device:CP C4
U 1 1 5719BF4E
P 1650 13850
F 0 "C4" H 1768 13896 50  0000 L CNN
F 1 "22u" H 1768 13804 50  0000 L CNN
F 2 "Capacitors_SMD:c_elec_4x4.5" H 1688 13700 50  0001 C CNN
F 3 "" H 1650 13850 50  0000 C CNN
F 4 "865090140002" H 1650 13850 60  0001 C CNN "manf#"
	1    1650 13850
	1    0    0    -1  
$EndComp
$Comp
L Device:C C8
U 1 1 5719BFC2
P 2000 13850
F 0 "C8" H 2115 13896 50  0000 L CNN
F 1 "1u" H 2115 13804 50  0000 L CNN
F 2 "Capacitors_SMD:C_0805" H 2038 13700 50  0001 C CNN
F 3 "" H 2000 13850 50  0000 C CNN
F 4 "CL21B105KOFNNNG" H 2000 13850 60  0001 C CNN "manf#"
	1    2000 13850
	1    0    0    -1  
$EndComp
$Comp
L Device:C C19
U 1 1 5719C019
P 3200 13850
F 0 "C19" H 3315 13896 50  0000 L CNN
F 1 "1u" H 3315 13804 50  0000 L CNN
F 2 "Capacitors_SMD:C_0805" H 3238 13700 50  0001 C CNN
F 3 "" H 3200 13850 50  0000 C CNN
	1    3200 13850
	1    0    0    -1  
$EndComp
$Comp
L power:+5V #PWR05
U 1 1 5719C4E9
P 1650 13650
F 0 "#PWR05" H 1650 13500 50  0001 C CNN
F 1 "+5V" H 1668 13824 50  0000 C CNN
F 2 "" H 1650 13650 50  0000 C CNN
F 3 "" H 1650 13650 50  0000 C CNN
	1    1650 13650
	1    0    0    -1  
$EndComp
Text Label 4100 6900 0    60   ~ 0
_VA10
Text Label 4100 8000 0    60   ~ 0
_CA7
Text Label 4100 8700 0    60   ~ 0
_CA6
Text Label 4100 7900 0    60   ~ 0
_CA8
Text Label 4100 8800 0    60   ~ 0
_CA5
Text Label 4100 7700 0    60   ~ 0
_CA9
Text Label 4100 8900 0    60   ~ 0
_CA4
Text Label 4100 7500 0    60   ~ 0
_CA11
Text Label 4100 9000 0    60   ~ 0
_CA3
Text Label 4100 9100 0    60   ~ 0
_CA2
Text Label 4100 7400 0    60   ~ 0
_CA12
Text Label 4100 9200 0    60   ~ 0
_CA1
Text Label 4100 11100 0    60   ~ 0
_CA13
Text Label 4100 9400 0    60   ~ 0
_CA0
Text Label 4100 10800 0    60   ~ 0
_CD7
Text Label 4100 10100 0    60   ~ 0
_CD0
Text Label 4100 10700 0    60   ~ 0
_CD6
Text Label 4100 10200 0    60   ~ 0
_CD1
Text Label 4100 10600 0    60   ~ 0
_CD5
Text Label 4100 10300 0    60   ~ 0
_CD2
Text Label 4100 10500 0    60   ~ 0
_CD4
Text Label 4100 10400 0    60   ~ 0
_CD3
$Comp
L doragasu:S29GL064N90TFI040 U7
U 1 1 5719F73D
P 6950 2400
F 0 "U7" H 6950 3850 60  0000 C CNN
F 1 "S29GL064N90TFI040" H 6950 3750 60  0000 C CNN
F 2 "doragasu:TSOP48SP" H 7100 2900 60  0001 C CNN
F 3 "" H 7100 2900 60  0000 C CNN
F 4 "S29GL064N90TFI040" H 6950 2400 60  0001 C CNN "manf#"
	1    6950 2400
	1    0    0    -1  
$EndComp
$Comp
L doragasu:S29GL064N90TFI040 U9
U 1 1 5719F9C9
P 9150 2400
F 0 "U9" H 9150 3850 60  0000 C CNN
F 1 "S29GL064N90TFI040" H 9150 3750 60  0000 C CNN
F 2 "doragasu:TSOP48SP" H 9300 2900 60  0001 C CNN
F 3 "" H 9300 2900 60  0000 C CNN
	1    9150 2400
	1    0    0    -1  
$EndComp
NoConn ~ 7650 1300
NoConn ~ 7650 1400
NoConn ~ 7650 1500
NoConn ~ 7650 1600
NoConn ~ 7650 1700
NoConn ~ 7650 1800
NoConn ~ 7650 1900
$Comp
L power:GND #PWR06
U 1 1 571A00B0
P 7800 3550
F 0 "#PWR06" H 7800 3300 50  0001 C CNN
F 1 "GND" H 7808 3376 50  0001 C CNN
F 2 "" H 7800 3550 50  0000 C CNN
F 3 "" H 7800 3550 50  0000 C CNN
	1    7800 3550
	1    0    0    -1  
$EndComp
NoConn ~ 7650 2900
NoConn ~ 7650 3100
NoConn ~ 9850 1300
NoConn ~ 9850 1400
NoConn ~ 9850 1500
NoConn ~ 9850 1600
NoConn ~ 9850 1700
NoConn ~ 9850 1800
NoConn ~ 9850 1900
NoConn ~ 9850 2900
NoConn ~ 9850 3100
Entry Wire Line
	5850 1300 5950 1200
Entry Wire Line
	5850 1400 5950 1300
Entry Wire Line
	5850 1500 5950 1400
Entry Wire Line
	5850 1600 5950 1500
Entry Wire Line
	5850 1700 5950 1600
Entry Wire Line
	5850 1800 5950 1700
Entry Wire Line
	5850 1900 5950 1800
Entry Wire Line
	5850 2000 5950 1900
Entry Wire Line
	5850 2100 5950 2000
Entry Wire Line
	5850 2200 5950 2100
Entry Wire Line
	5850 2300 5950 2200
Entry Wire Line
	5850 2400 5950 2300
Entry Wire Line
	5850 2500 5950 2400
Entry Wire Line
	5850 2600 5950 2500
Entry Wire Line
	5850 2700 5950 2600
Entry Wire Line
	5850 2800 5950 2700
Entry Wire Line
	5850 2900 5950 2800
Entry Wire Line
	5850 3000 5950 2900
Entry Wire Line
	5850 3100 5950 3000
Entry Wire Line
	5850 3200 5950 3100
Entry Wire Line
	5850 3300 5950 3200
Entry Wire Line
	5850 3400 5950 3300
Entry Wire Line
	5850 3700 5950 3600
Entry Wire Line
	5850 3800 5950 3700
Entry Wire Line
	7950 1200 8050 1300
Entry Wire Line
	7950 2000 8050 2100
Entry Wire Line
	7950 2100 8050 2200
Entry Wire Line
	7950 2200 8050 2300
Entry Wire Line
	7950 2300 8050 2400
Entry Wire Line
	7950 2400 8050 2500
Entry Wire Line
	7950 2500 8050 2600
Entry Wire Line
	7950 2600 8050 2700
Entry Wire Line
	7950 2700 8050 2800
Entry Wire Line
	8050 1300 8150 1200
Entry Wire Line
	8050 1400 8150 1300
Entry Wire Line
	8050 1500 8150 1400
Entry Wire Line
	8050 1600 8150 1500
Entry Wire Line
	8050 1700 8150 1600
Entry Wire Line
	8050 1800 8150 1700
Entry Wire Line
	8050 1900 8150 1800
Entry Wire Line
	8050 2000 8150 1900
Entry Wire Line
	8050 2100 8150 2000
Entry Wire Line
	8050 2200 8150 2100
Entry Wire Line
	8050 2300 8150 2200
Entry Wire Line
	8050 2400 8150 2300
Entry Wire Line
	8050 2500 8150 2400
Entry Wire Line
	8050 2600 8150 2500
Entry Wire Line
	8050 2700 8150 2600
Entry Wire Line
	8050 2800 8150 2700
Entry Wire Line
	8050 2900 8150 2800
Entry Wire Line
	8050 3000 8150 2900
Entry Wire Line
	8050 3100 8150 3000
Entry Wire Line
	8050 3200 8150 3100
Entry Wire Line
	8050 3300 8150 3200
Entry Wire Line
	8050 3400 8150 3300
Entry Wire Line
	8050 3700 8150 3600
Entry Wire Line
	8050 3800 8150 3700
Entry Wire Line
	10150 1200 10250 1300
Entry Wire Line
	10150 2000 10250 2100
Entry Wire Line
	10150 2100 10250 2200
Entry Wire Line
	10150 2200 10250 2300
Entry Wire Line
	10150 2300 10250 2400
Entry Wire Line
	10150 2400 10250 2500
Entry Wire Line
	10150 2500 10250 2600
Entry Wire Line
	10150 2600 10250 2700
Entry Wire Line
	10150 2700 10250 2800
Entry Wire Line
	5750 1200 5850 1300
Entry Wire Line
	5750 1300 5850 1400
Entry Wire Line
	5750 1400 5850 1500
Entry Wire Line
	5750 1500 5850 1600
Entry Wire Line
	5750 1600 5850 1700
Entry Wire Line
	5750 1700 5850 1800
Entry Wire Line
	5750 1800 5850 1900
Entry Wire Line
	5750 1900 5850 2000
Entry Wire Line
	5750 2600 5850 2700
Entry Wire Line
	5750 2700 5850 2800
Entry Wire Line
	5750 2800 5850 2900
Entry Wire Line
	5750 2900 5850 3000
Entry Wire Line
	5750 3000 5850 3100
Entry Wire Line
	5750 4200 5850 4300
Entry Wire Line
	5750 4300 5850 4400
Entry Wire Line
	5750 4400 5850 4500
Entry Wire Line
	5750 4500 5850 4600
Entry Wire Line
	5750 4600 5850 4700
Entry Wire Line
	5750 4700 5850 4800
Entry Wire Line
	5750 4800 5850 4900
Entry Wire Line
	5750 4900 5850 5000
Entry Wire Line
	5750 5900 5850 6000
Entry Wire Line
	5750 6000 5850 6100
Entry Wire Line
	5750 6100 5850 6200
Entry Wire Line
	5750 6200 5850 6300
Entry Wire Line
	5750 7400 5850 7500
Entry Wire Line
	5750 7500 5850 7600
Entry Wire Line
	5750 7600 5850 7700
Entry Wire Line
	5750 7700 5850 7800
Entry Wire Line
	5750 7800 5850 7900
Entry Wire Line
	5750 7900 5850 8000
Entry Wire Line
	5750 8000 5850 8100
Entry Wire Line
	5750 8700 5850 8800
Entry Wire Line
	5750 8800 5850 8900
Entry Wire Line
	5750 8900 5850 9000
Entry Wire Line
	5750 9000 5850 9100
Entry Wire Line
	5750 9100 5850 9200
Entry Wire Line
	5750 9200 5850 9300
Entry Wire Line
	5750 9300 5850 9400
Entry Wire Line
	5750 9400 5850 9500
Entry Wire Line
	5750 10100 5850 10200
Entry Wire Line
	5750 10200 5850 10300
Entry Wire Line
	5750 10300 5850 10400
Entry Wire Line
	5750 10400 5850 10500
Entry Wire Line
	5750 10500 5850 10600
Entry Wire Line
	5750 10600 5850 10700
Entry Wire Line
	5750 10700 5850 10800
Entry Wire Line
	5750 10800 5850 10900
Text Label 5750 1300 2    60   ~ 0
PA8
Text Label 5750 2600 2    60   ~ 0
PA13
Text Label 5750 5800 2    60   ~ 0
PA9
Text Label 5750 6100 2    60   ~ 0
PA12
Text Label 5750 5900 2    60   ~ 0
PA10
Text Label 5750 3000 2    60   ~ 0
PHI2
Text Label 5750 6000 2    60   ~ 0
PA11
Text Label 5750 1900 2    60   ~ 0
PA2
Text Label 5750 1800 2    60   ~ 0
PA3
Text Label 5750 1700 2    60   ~ 0
PA4
Text Label 5750 1600 2    60   ~ 0
PA5
Text Label 5750 1500 2    60   ~ 0
PA6
Text Label 5750 1400 2    60   ~ 0
PA7
Text Label 5750 2700 2    60   ~ 0
PA14
Text Label 5750 4200 2    60   ~ 0
PD0
Text Label 5750 4300 2    60   ~ 0
PD1
Text Label 5750 4400 2    60   ~ 0
PD2
Text Label 5750 4500 2    60   ~ 0
PD3
Text Label 5750 4600 2    60   ~ 0
PD4
Text Label 5750 4700 2    60   ~ 0
PD5
Text Label 5750 4800 2    60   ~ 0
PD6
Text Label 5750 4900 2    60   ~ 0
PD7
Text Label 5750 2900 2    60   ~ 0
~PROM
Text Label 5750 2800 2    60   ~ 0
R/~W
Text Label 5750 6200 2    60   ~ 0
PA0
Text Label 5750 6300 2    60   ~ 0
PA1
Text Label 5750 8900 2    60   ~ 0
CA4
Text Label 5750 7700 2    60   ~ 0
CA9
Text Label 5750 8800 2    60   ~ 0
CA5
Text Label 5750 7900 2    60   ~ 0
CA8
Text Label 5750 8700 2    60   ~ 0
CA6
Text Label 5750 8000 2    60   ~ 0
CA7
Text Label 5750 7000 2    60   ~ 0
VA10
Text Label 5750 9400 2    60   ~ 0
CA0
Text Label 5750 9300 2    60   ~ 0
CA13
Text Label 5750 9200 2    60   ~ 0
CA1
Text Label 5750 7400 2    60   ~ 0
CA12
Text Label 5750 9100 2    60   ~ 0
CA2
Text Label 5750 7600 2    60   ~ 0
CA10
Text Label 5750 9000 2    60   ~ 0
CA3
Text Label 5750 7500 2    60   ~ 0
CA11
Text Label 5750 10400 2    60   ~ 0
CD3
Text Label 5750 10500 2    60   ~ 0
CD4
Text Label 5750 10300 2    60   ~ 0
CD2
Text Label 5750 10600 2    60   ~ 0
CD5
Text Label 5750 10200 2    60   ~ 0
CD1
Text Label 5750 10700 2    60   ~ 0
CD6
Text Label 5750 10100 2    60   ~ 0
CD0
Text Label 5750 10800 2    60   ~ 0
CD7
Text Label 7950 2700 2    60   ~ 0
PD0
Text Label 7950 2600 2    60   ~ 0
PD1
Text Label 7950 2500 2    60   ~ 0
PD2
Text Label 7950 2400 2    60   ~ 0
PD3
Text Label 7950 2300 2    60   ~ 0
PD4
Text Label 7950 2200 2    60   ~ 0
PD5
Text Label 7950 2100 2    60   ~ 0
PD6
Text Label 7950 2000 2    60   ~ 0
PD7
Text Label 7950 1200 2    60   ~ 0
PA0
Text Label 5950 3300 0    60   ~ 0
PA1
Text Label 5950 3200 0    60   ~ 0
PA2
Text Label 5950 3100 0    60   ~ 0
PA3
Text Label 5950 3000 0    60   ~ 0
PA4
Text Label 5950 2900 0    60   ~ 0
PA5
Text Label 5950 2800 0    60   ~ 0
PA6
Text Label 5950 2700 0    60   ~ 0
PA7
Text Label 5950 2600 0    60   ~ 0
PA8
Text Label 5950 2500 0    60   ~ 0
PA9
Text Label 5950 2400 0    60   ~ 0
PA10
Text Label 5950 2300 0    60   ~ 0
PA11
Text Label 5950 2200 0    60   ~ 0
PA12
Text Label 5950 2100 0    60   ~ 0
POA13
Text Label 5950 2000 0    60   ~ 0
POA14
Text Label 5950 1900 0    60   ~ 0
POA15
Text Label 5950 1800 0    60   ~ 0
POA16
Text Label 5950 1700 0    60   ~ 0
POA17
Text Label 5950 1600 0    60   ~ 0
POA18
Text Label 5950 1500 0    60   ~ 0
POA19
Text Label 5950 1400 0    60   ~ 0
POA20
Text Label 5950 1300 0    60   ~ 0
POA21
Text Label 5950 1200 0    60   ~ 0
POA22
Text Label 5950 3700 0    60   ~ 0
~POWE
Text Label 5950 3600 0    60   ~ 0
~POCE
Text Label 10150 2700 2    60   ~ 0
CD0
Text Label 10150 2600 2    60   ~ 0
CD1
Text Label 10150 2500 2    60   ~ 0
CD2
Text Label 10150 2400 2    60   ~ 0
CD3
Text Label 10150 2300 2    60   ~ 0
CD4
Text Label 10150 2200 2    60   ~ 0
CD5
Text Label 10150 2100 2    60   ~ 0
CD6
Text Label 10150 2000 2    60   ~ 0
CD7
Text Label 10150 1200 2    60   ~ 0
CA0
Text Label 8150 3300 0    60   ~ 0
CA1
Text Label 8150 3200 0    60   ~ 0
CA2
Text Label 8150 3100 0    60   ~ 0
CA3
Text Label 8150 3000 0    60   ~ 0
CA4
Text Label 8150 2900 0    60   ~ 0
CA5
Text Label 8150 2800 0    60   ~ 0
CA6
Text Label 8150 2700 0    60   ~ 0
CA7
Text Label 8150 2600 0    60   ~ 0
CA8
Text Label 8150 2500 0    60   ~ 0
CA9
Text Label 8150 2400 0    60   ~ 0
COA10
Text Label 8150 2300 0    60   ~ 0
COA11
Text Label 8150 2200 0    60   ~ 0
COA12
Text Label 8150 2100 0    60   ~ 0
COA13
Text Label 8150 2000 0    60   ~ 0
COA14
Text Label 8150 1900 0    60   ~ 0
COA15
Text Label 8150 1800 0    60   ~ 0
COA16
Text Label 8150 1700 0    60   ~ 0
COA17
Text Label 8150 1600 0    60   ~ 0
COA18
Text Label 8150 1500 0    60   ~ 0
COA19
Text Label 8150 1400 0    60   ~ 0
COA20
Text Label 8150 1300 0    60   ~ 0
COA21
Text Label 8150 1200 0    60   ~ 0
COA22
Text Label 8150 3500 0    60   ~ 0
CA13
$Comp
L power:VCC #PWR07
U 1 1 571A7C07
P 3200 13650
F 0 "#PWR07" H 3200 13500 50  0001 C CNN
F 1 "VCC" H 3200 13800 50  0000 C CNN
F 2 "" H 3200 13650 50  0000 C CNN
F 3 "" H 3200 13650 50  0000 C CNN
	1    3200 13650
	1    0    0    -1  
$EndComp
$Comp
L power:VCC #PWR08
U 1 1 571A7EC3
P 4450 2100
F 0 "#PWR08" H 4450 1950 50  0001 C CNN
F 1 "VCC" V 4450 2300 50  0000 C CNN
F 2 "" H 4450 2100 50  0000 C CNN
F 3 "" H 4450 2100 50  0000 C CNN
	1    4450 2100
	0    -1   -1   0   
$EndComp
$Comp
L power:GND #PWR09
U 1 1 571A8107
P 4400 2200
F 0 "#PWR09" H 4400 1950 50  0001 C CNN
F 1 "GND" H 4408 2026 50  0001 C CNN
F 2 "" H 4400 2200 50  0000 C CNN
F 3 "" H 4400 2200 50  0000 C CNN
	1    4400 2200
	1    0    0    -1  
$EndComp
$Comp
L power:VCC #PWR010
U 1 1 571A846D
P 4450 3500
F 0 "#PWR010" H 4450 3350 50  0001 C CNN
F 1 "VCC" V 4450 3700 50  0000 C CNN
F 2 "" H 4450 3500 50  0000 C CNN
F 3 "" H 4450 3500 50  0000 C CNN
	1    4450 3500
	0    -1   -1   0   
$EndComp
$Comp
L power:GND #PWR011
U 1 1 571A8473
P 4400 3600
F 0 "#PWR011" H 4400 3350 50  0001 C CNN
F 1 "GND" H 4408 3426 50  0001 C CNN
F 2 "" H 4400 3600 50  0000 C CNN
F 3 "" H 4400 3600 50  0000 C CNN
	1    4400 3600
	1    0    0    -1  
$EndComp
$Comp
L power:GND #PWR012
U 1 1 571A8CF3
P 5500 6750
F 0 "#PWR012" H 5500 6500 50  0001 C CNN
F 1 "GND" H 5508 6576 50  0001 C CNN
F 2 "" H 5500 6750 50  0000 C CNN
F 3 "" H 5500 6750 50  0000 C CNN
	1    5500 6750
	1    0    0    -1  
$EndComp
$Comp
L power:VCC #PWR013
U 1 1 571A98CD
P 4450 8200
F 0 "#PWR013" H 4450 8050 50  0001 C CNN
F 1 "VCC" V 4450 8400 50  0000 C CNN
F 2 "" H 4450 8200 50  0000 C CNN
F 3 "" H 4450 8200 50  0000 C CNN
	1    4450 8200
	0    -1   -1   0   
$EndComp
$Comp
L power:GND #PWR014
U 1 1 571A98D3
P 4400 8300
F 0 "#PWR014" H 4400 8050 50  0001 C CNN
F 1 "GND" H 4408 8126 50  0001 C CNN
F 2 "" H 4400 8300 50  0000 C CNN
F 3 "" H 4400 8300 50  0000 C CNN
	1    4400 8300
	1    0    0    -1  
$EndComp
$Comp
L power:VCC #PWR015
U 1 1 571A9ECC
P 4450 9600
F 0 "#PWR015" H 4450 9450 50  0001 C CNN
F 1 "VCC" V 4450 9800 50  0000 C CNN
F 2 "" H 4450 9600 50  0000 C CNN
F 3 "" H 4450 9600 50  0000 C CNN
	1    4450 9600
	0    -1   -1   0   
$EndComp
$Comp
L power:GND #PWR016
U 1 1 571A9ED2
P 4400 9700
F 0 "#PWR016" H 4400 9450 50  0001 C CNN
F 1 "GND" H 4408 9526 50  0001 C CNN
F 2 "" H 4400 9700 50  0000 C CNN
F 3 "" H 4400 9700 50  0000 C CNN
	1    4400 9700
	1    0    0    -1  
$EndComp
$Comp
L power:GND #PWR017
U 1 1 571AB491
P 4400 12500
F 0 "#PWR017" H 4400 12250 50  0001 C CNN
F 1 "GND" H 4408 12326 50  0001 C CNN
F 2 "" H 4400 12500 50  0000 C CNN
F 3 "" H 4400 12500 50  0000 C CNN
	1    4400 12500
	1    0    0    -1  
$EndComp
$Comp
L power:VCC #PWR018
U 1 1 571AB6E8
P 4200 11900
F 0 "#PWR018" H 4200 11750 50  0001 C CNN
F 1 "VCC" H 4200 12050 50  0000 C CNN
F 2 "" H 4200 11900 50  0000 C CNN
F 3 "" H 4200 11900 50  0000 C CNN
	1    4200 11900
	1    0    0    -1  
$EndComp
NoConn ~ 5450 11600
NoConn ~ 5450 11700
NoConn ~ 5450 11800
NoConn ~ 5450 11900
NoConn ~ 5450 12000
NoConn ~ 5450 12100
NoConn ~ 5450 12200
$Comp
L doragasu:LCMXO256C U2
U 2 1 571AC142
P 3800 7500
F 0 "U2" H 4200 6600 60  0000 C CNN
F 1 "LCMXO256C" H 4000 6500 60  0000 C CNN
F 2 "Housings_QFP:LQFP-100_14x14mm_Pitch0.5mm" H 3800 7500 60  0001 C CNN
F 3 "" H 3800 7500 60  0000 C CNN
	2    3800 7500
	-1   0    0    -1  
$EndComp
$Comp
L power:GND #PWR019
U 1 1 571ACD00
P 2700 8550
F 0 "#PWR019" H 2700 8300 50  0001 C CNN
F 1 "GND" H 2708 8376 50  0001 C CNN
F 2 "" H 2700 8550 50  0000 C CNN
F 3 "" H 2700 8550 50  0000 C CNN
	1    2700 8550
	-1   0    0    -1  
$EndComp
$Comp
L power:VCC #PWR020
U 1 1 571AD06D
P 2700 6750
F 0 "#PWR020" H 2700 6600 50  0001 C CNN
F 1 "VCC" H 2700 6900 50  0000 C CNN
F 2 "" H 2700 6750 50  0000 C CNN
F 3 "" H 2700 6750 50  0000 C CNN
	1    2700 6750
	-1   0    0    -1  
$EndComp
$Comp
L Device:R R1
U 1 1 571AD77C
P 1450 8000
F 0 "R1" H 1520 8046 50  0000 L CNN
F 1 "10k" V 1450 7950 50  0000 L CNN
F 2 "Resistors_SMD:R_0805" V 1380 8000 50  0001 C CNN
F 3 "" H 1450 8000 50  0000 C CNN
	1    1450 8000
	-1   0    0    -1  
$EndComp
Entry Wire Line
	7950 4500 8050 4600
Entry Wire Line
	7950 4600 8050 4700
Entry Wire Line
	7950 4700 8050 4800
Entry Wire Line
	7950 4800 8050 4900
Entry Wire Line
	7950 4900 8050 5000
Entry Wire Line
	7950 5000 8050 5100
Entry Wire Line
	7950 5100 8050 5200
Entry Wire Line
	7950 5200 8050 5300
Entry Wire Line
	5850 4600 5950 4500
Entry Wire Line
	5850 4700 5950 4600
Entry Wire Line
	5850 4800 5950 4700
Entry Wire Line
	5850 4900 5950 4800
Entry Wire Line
	5850 5000 5950 4900
Entry Wire Line
	5850 5100 5950 5000
Entry Wire Line
	5850 5200 5950 5100
Entry Wire Line
	5850 5300 5950 5200
Entry Wire Line
	5850 5400 5950 5300
Entry Wire Line
	5850 5500 5950 5400
Entry Wire Line
	5850 5600 5950 5500
Entry Wire Line
	5850 5700 5950 5600
Entry Wire Line
	5850 5800 5950 5700
Text Label 5950 4500 0    60   ~ 0
PA0
Text Label 5950 4600 0    60   ~ 0
PA1
Text Label 5950 4700 0    60   ~ 0
PA2
Text Label 5950 4800 0    60   ~ 0
PA3
Text Label 5950 4900 0    60   ~ 0
PA4
Text Label 5950 5000 0    60   ~ 0
PA5
Text Label 5950 5100 0    60   ~ 0
PA6
Text Label 5950 5200 0    60   ~ 0
PA7
Text Label 5950 5300 0    60   ~ 0
PA8
Text Label 5950 5400 0    60   ~ 0
PA9
Text Label 5950 5500 0    60   ~ 0
PA10
Text Label 5950 5600 0    60   ~ 0
PA11
Text Label 5950 5700 0    60   ~ 0
PA12
Text Label 7950 4500 2    60   ~ 0
PD0
Text Label 7950 4600 2    60   ~ 0
PD1
Text Label 7950 4700 2    60   ~ 0
PD2
Text Label 7950 4800 2    60   ~ 0
PD3
Text Label 7950 4900 2    60   ~ 0
PD4
Text Label 7950 5000 2    60   ~ 0
PD5
Text Label 7950 5100 2    60   ~ 0
PD6
Text Label 7950 5200 2    60   ~ 0
PD7
Entry Wire Line
	5850 9500 5950 9400
Entry Wire Line
	5850 9600 5950 9500
Entry Wire Line
	5850 9700 5950 9600
Entry Wire Line
	5850 9800 5950 9700
Entry Wire Line
	5850 9900 5950 9800
Entry Wire Line
	5850 10000 5950 9900
Entry Wire Line
	5850 10100 5950 10000
Entry Wire Line
	5850 10200 5950 10100
Entry Wire Line
	5850 10300 5950 10200
Entry Wire Line
	5850 10400 5950 10300
Entry Wire Line
	5850 10500 5950 10400
Entry Wire Line
	5850 10600 5950 10500
Entry Wire Line
	5850 10700 5950 10600
Entry Wire Line
	5850 10800 5950 10700
Entry Wire Line
	7150 12000 7250 12100
Entry Wire Line
	7250 12000 7350 12100
Entry Wire Line
	7350 12000 7450 12100
Entry Wire Line
	8450 12000 8550 12100
Text Label 9850 8900 2    60   ~ 0
PA0
Text Label 9850 10700 2    60   ~ 0
PA13
Text Label 8250 12000 1    60   ~ 0
PA14
Text Label 8550 12000 1    60   ~ 0
~PROM
Text Label 7350 12000 1    60   ~ 0
VA10
Text Label 9850 8800 2    60   ~ 0
PD0
Text Label 9850 8700 2    60   ~ 0
PD1
Text Label 9850 8600 2    60   ~ 0
PD2
Text Label 8950 7300 3    60   ~ 0
PD3
Text Label 8850 7300 3    60   ~ 0
PD4
Text Label 8750 7300 3    60   ~ 0
PD5
Text Label 8650 7300 3    60   ~ 0
PD6
Text Label 8550 7300 3    60   ~ 0
PD7
Text Label 8450 12000 1    60   ~ 0
~IRQ
Text Label 5750 3800 2    60   ~ 0
~IRQ
Text Label 9850 9300 2    60   ~ 0
POA14
Text Label 9850 9200 2    60   ~ 0
POA15
Text Label 9850 9100 2    60   ~ 0
POA16
Text Label 8150 7300 3    60   ~ 0
POA17
Text Label 9850 10300 2    60   ~ 0
POA18
Text Label 9850 10200 2    60   ~ 0
POA19
Text Label 9850 9900 2    60   ~ 0
POA20
Text Label 9850 10000 2    60   ~ 0
POA21
Text Label 9850 10100 2    60   ~ 0
POA22
Text Label 9850 9400 2    60   ~ 0
POA13
Text Label 9850 9000 2    60   ~ 0
~POCE
Text Label 8450 7300 3    60   ~ 0
~PACE
Text Label 5950 10000 0    60   ~ 0
COA10
Text Label 5950 10100 0    60   ~ 0
COA11
Text Label 5950 10200 0    60   ~ 0
COA12
Text Label 5950 10300 0    60   ~ 0
COA13
Text Label 5950 10400 0    60   ~ 0
COA14
Text Label 5950 10500 0    60   ~ 0
COA15
Text Label 5950 10600 0    60   ~ 0
COA16
Text Label 5950 9400 0    60   ~ 0
COA17
Text Label 5950 9500 0    60   ~ 0
COA18
Text Label 5950 9600 0    60   ~ 0
COA19
Text Label 5950 9900 0    60   ~ 0
COA20
Text Label 5950 9800 0    60   ~ 0
COA21
Text Label 5950 9700 0    60   ~ 0
COA22
Entry Wire Line
	9850 10700 9950 10800
Text Label 8350 12000 1    60   ~ 0
R/~W
Text Label 7750 12000 1    60   ~ 0
PHI2
Entry Wire Line
	9850 10300 9950 10400
Entry Wire Line
	9850 10400 9950 10500
Entry Wire Line
	9850 10600 9950 10700
Entry Wire Line
	9850 10300 9950 10400
Text Label 5950 10700 0    60   ~ 0
CA10
Text Label 7150 12000 1    60   ~ 0
CA11
Text Label 7250 12000 1    60   ~ 0
CA12
Entry Wire Line
	9850 10200 9950 10300
Text Label 8250 7300 3    60   ~ 0
~PAWE
Entry Wire Line
	4000 5500 4100 5400
Text Label 5750 5200 2    60   ~ 0
~TOE
Text Label 8050 7300 3    60   ~ 0
~TOE
Entry Wire Line
	9850 10100 9950 10200
NoConn ~ 7650 7600
NoConn ~ 7750 7600
NoConn ~ 7850 7600
NoConn ~ 7950 7600
Text Label 4100 1200 0    60   ~ 0
_~POWE
Text Label 5750 1200 2    60   ~ 0
~POWE
Entry Wire Line
	3550 3600 3650 3700
Entry Wire Line
	3550 3700 3650 3800
Text Label 3550 3600 2    60   ~ 0
_~POWE
$Comp
L power:GND #PWR021
U 1 1 571D6CB1
P 1450 8150
F 0 "#PWR021" H 1450 7900 50  0001 C CNN
F 1 "GND" H 1458 7976 50  0001 C CNN
F 2 "" H 1450 8150 50  0000 C CNN
F 3 "" H 1450 8150 50  0000 C CNN
	1    1450 8150
	-1   0    0    -1  
$EndComp
$Comp
L Device:R R2
U 1 1 571CF150
P 7800 3100
F 0 "R2" H 7870 3146 50  0000 L CNN
F 1 "10k" V 7800 3050 50  0000 L CNN
F 2 "Resistors_SMD:R_0805" V 7730 3100 30  0001 C CNN
F 3 "" H 7800 3100 30  0000 C CNN
	1    7800 3100
	1    0    0    -1  
$EndComp
$Comp
L power:VCC #PWR022
U 1 1 571CF44B
P 7800 2900
F 0 "#PWR022" H 7800 2750 50  0001 C CNN
F 1 "VCC" H 7800 3050 50  0000 C CNN
F 2 "" H 7800 2900 50  0000 C CNN
F 3 "" H 7800 2900 50  0000 C CNN
	1    7800 2900
	1    0    0    -1  
$EndComp
$Comp
L power:GND #PWR023
U 1 1 571D0632
P 10000 3550
F 0 "#PWR023" H 10000 3300 50  0001 C CNN
F 1 "GND" H 10008 3376 50  0001 C CNN
F 2 "" H 10000 3550 50  0000 C CNN
F 3 "" H 10000 3550 50  0000 C CNN
	1    10000 3550
	1    0    0    -1  
$EndComp
$Comp
L Device:R R6
U 1 1 571D0638
P 10000 3100
F 0 "R6" H 10070 3146 50  0000 L CNN
F 1 "10k" V 10000 3050 50  0000 L CNN
F 2 "Resistors_SMD:R_0805" V 9930 3100 30  0001 C CNN
F 3 "" H 10000 3100 30  0000 C CNN
	1    10000 3100
	1    0    0    -1  
$EndComp
$Comp
L power:VCC #PWR024
U 1 1 571D063E
P 10000 2900
F 0 "#PWR024" H 10000 2750 50  0001 C CNN
F 1 "VCC" H 10000 3050 50  0000 C CNN
F 2 "" H 10000 2900 50  0000 C CNN
F 3 "" H 10000 2900 50  0000 C CNN
	1    10000 2900
	1    0    0    -1  
$EndComp
$Comp
L Device:C C3
U 1 1 571D0CBB
P 1600 10800
F 0 "C3" H 1650 10900 50  0000 L CNN
F 1 "100n" H 1650 10700 50  0000 L CNN
F 2 "Capacitors_SMD:C_0805" H 1638 10650 30  0001 C CNN
F 3 "" H 1600 10800 60  0000 C CNN
	1    1600 10800
	1    0    0    -1  
$EndComp
$Comp
L Device:C C6
U 1 1 571D13DA
P 1900 10800
F 0 "C6" H 1950 10900 50  0000 L CNN
F 1 "100n" H 1950 10700 50  0000 L CNN
F 2 "Capacitors_SMD:C_0805" H 1938 10650 30  0001 C CNN
F 3 "" H 1900 10800 60  0000 C CNN
	1    1900 10800
	1    0    0    -1  
$EndComp
$Comp
L Device:C C9
U 1 1 571D143B
P 2200 10800
F 0 "C9" H 2250 10900 50  0000 L CNN
F 1 "100n" H 2250 10700 50  0000 L CNN
F 2 "Capacitors_SMD:C_0805" H 2238 10650 30  0001 C CNN
F 3 "" H 2200 10800 60  0000 C CNN
	1    2200 10800
	1    0    0    -1  
$EndComp
$Comp
L Device:C C12
U 1 1 571D149B
P 2500 10800
F 0 "C12" H 2550 10900 50  0000 L CNN
F 1 "100n" H 2550 10700 50  0000 L CNN
F 2 "Capacitors_SMD:C_0805" H 2538 10650 30  0001 C CNN
F 3 "" H 2500 10800 60  0000 C CNN
	1    2500 10800
	1    0    0    -1  
$EndComp
$Comp
L Device:C C15
U 1 1 571D14FE
P 2800 10800
F 0 "C15" H 2850 10900 50  0000 L CNN
F 1 "100n" H 2850 10700 50  0000 L CNN
F 2 "Capacitors_SMD:C_0805" H 2838 10650 30  0001 C CNN
F 3 "" H 2800 10800 60  0000 C CNN
	1    2800 10800
	1    0    0    -1  
$EndComp
$Comp
L Device:C C17
U 1 1 571D1568
P 3100 10800
F 0 "C17" H 3150 10900 50  0000 L CNN
F 1 "100n" H 3150 10700 50  0000 L CNN
F 2 "Capacitors_SMD:C_0805" H 3138 10650 30  0001 C CNN
F 3 "" H 3100 10800 60  0000 C CNN
	1    3100 10800
	1    0    0    -1  
$EndComp
$Comp
L Device:C C20
U 1 1 571D15D1
P 3400 10800
F 0 "C20" H 3450 10900 50  0000 L CNN
F 1 "100n" H 3450 10700 50  0000 L CNN
F 2 "Capacitors_SMD:C_0805" H 3438 10650 30  0001 C CNN
F 3 "" H 3400 10800 60  0000 C CNN
	1    3400 10800
	1    0    0    -1  
$EndComp
$Comp
L Device:C C22
U 1 1 571D163D
P 3700 10800
F 0 "C22" H 3750 10900 50  0000 L CNN
F 1 "100n" H 3750 10700 50  0000 L CNN
F 2 "Capacitors_SMD:C_0805" H 3738 10650 30  0001 C CNN
F 3 "" H 3700 10800 60  0000 C CNN
	1    3700 10800
	1    0    0    -1  
$EndComp
$Comp
L Device:C C1
U 1 1 571D16AC
P 1300 10800
F 0 "C1" H 1350 10900 50  0000 L CNN
F 1 "100n" H 1350 10700 50  0000 L CNN
F 2 "Capacitors_SMD:C_0805" H 1338 10650 30  0001 C CNN
F 3 "" H 1300 10800 60  0000 C CNN
F 4 "CL21F104ZBCNNNC" H 1300 10800 60  0001 C CNN "manf#"
	1    1300 10800
	1    0    0    -1  
$EndComp
$Comp
L power:VCC #PWR025
U 1 1 571D36A2
P 2500 10550
F 0 "#PWR025" H 2500 10400 50  0001 C CNN
F 1 "VCC" H 2500 10700 50  0000 C CNN
F 2 "" H 2500 10550 50  0000 C CNN
F 3 "" H 2500 10550 50  0000 C CNN
	1    2500 10550
	-1   0    0    -1  
$EndComp
$Comp
L power:GND #PWR026
U 1 1 571D3A17
P 2500 11050
F 0 "#PWR026" H 2500 10800 50  0001 C CNN
F 1 "GND" H 2508 10876 50  0001 C CNN
F 2 "" H 2500 11050 50  0000 C CNN
F 3 "" H 2500 11050 50  0000 C CNN
	1    2500 11050
	-1   0    0    -1  
$EndComp
$Comp
L Device:C C2
U 1 1 571D4824
P 1450 11800
F 0 "C2" H 1500 11900 50  0000 L CNN
F 1 "100n" H 1500 11700 50  0000 L CNN
F 2 "Capacitors_SMD:C_0805" H 1488 11650 30  0001 C CNN
F 3 "" H 1450 11800 60  0000 C CNN
	1    1450 11800
	1    0    0    -1  
$EndComp
$Comp
L Device:C C5
U 1 1 571D482A
P 1750 11800
F 0 "C5" H 1800 11900 50  0000 L CNN
F 1 "100n" H 1800 11700 50  0000 L CNN
F 2 "Capacitors_SMD:C_0805" H 1788 11650 30  0001 C CNN
F 3 "" H 1750 11800 60  0000 C CNN
	1    1750 11800
	1    0    0    -1  
$EndComp
$Comp
L Device:C C7
U 1 1 571D4830
P 2050 11800
F 0 "C7" H 2100 11900 50  0000 L CNN
F 1 "100n" H 2100 11700 50  0000 L CNN
F 2 "Capacitors_SMD:C_0805" H 2088 11650 30  0001 C CNN
F 3 "" H 2050 11800 60  0000 C CNN
	1    2050 11800
	1    0    0    -1  
$EndComp
$Comp
L Device:C C10
U 1 1 571D4836
P 2350 11800
F 0 "C10" H 2400 11900 50  0000 L CNN
F 1 "100n" H 2400 11700 50  0000 L CNN
F 2 "Capacitors_SMD:C_0805" H 2388 11650 30  0001 C CNN
F 3 "" H 2350 11800 60  0000 C CNN
	1    2350 11800
	1    0    0    -1  
$EndComp
$Comp
L Device:C C13
U 1 1 571D483C
P 2650 11800
F 0 "C13" H 2700 11900 50  0000 L CNN
F 1 "100n" H 2700 11700 50  0000 L CNN
F 2 "Capacitors_SMD:C_0805" H 2688 11650 30  0001 C CNN
F 3 "" H 2650 11800 60  0000 C CNN
	1    2650 11800
	1    0    0    -1  
$EndComp
$Comp
L Device:C C16
U 1 1 571D4842
P 2950 11800
F 0 "C16" H 3000 11900 50  0000 L CNN
F 1 "100n" H 3000 11700 50  0000 L CNN
F 2 "Capacitors_SMD:C_0805" H 2988 11650 30  0001 C CNN
F 3 "" H 2950 11800 60  0000 C CNN
	1    2950 11800
	1    0    0    -1  
$EndComp
$Comp
L Device:C C18
U 1 1 571D4848
P 3250 11800
F 0 "C18" H 3300 11900 50  0000 L CNN
F 1 "100n" H 3300 11700 50  0000 L CNN
F 2 "Capacitors_SMD:C_0805" H 3288 11650 30  0001 C CNN
F 3 "" H 3250 11800 60  0000 C CNN
	1    3250 11800
	1    0    0    -1  
$EndComp
$Comp
L Device:C C21
U 1 1 571D484E
P 3550 11800
F 0 "C21" H 3600 11900 50  0000 L CNN
F 1 "100n" H 3600 11700 50  0000 L CNN
F 2 "Capacitors_SMD:C_0805" H 3588 11650 30  0001 C CNN
F 3 "" H 3550 11800 60  0000 C CNN
	1    3550 11800
	1    0    0    -1  
$EndComp
$Comp
L power:VCC #PWR027
U 1 1 571D487C
P 2500 11550
F 0 "#PWR027" H 2500 11400 50  0001 C CNN
F 1 "VCC" H 2500 11700 50  0000 C CNN
F 2 "" H 2500 11550 50  0000 C CNN
F 3 "" H 2500 11550 50  0000 C CNN
	1    2500 11550
	-1   0    0    -1  
$EndComp
$Comp
L power:GND #PWR028
U 1 1 571D4882
P 2500 12050
F 0 "#PWR028" H 2500 11800 50  0001 C CNN
F 1 "GND" H 2508 11876 50  0001 C CNN
F 2 "" H 2500 12050 50  0000 C CNN
F 3 "" H 2500 12050 50  0000 C CNN
	1    2500 12050
	-1   0    0    -1  
$EndComp
Text Notes 2100 10350 0    60   ~ 0
FPGA decoupling
Text Notes 2000 11350 0    60   ~ 0
Transceivers decoupling
$Comp
L Device:C C11
U 1 1 571D7838
P 2350 12850
F 0 "C11" H 2400 12950 50  0000 L CNN
F 1 "100n" H 2400 12750 50  0000 L CNN
F 2 "Capacitors_SMD:C_0805" H 2388 12700 30  0001 C CNN
F 3 "" H 2350 12850 60  0000 C CNN
	1    2350 12850
	1    0    0    -1  
$EndComp
$Comp
L Device:C C14
U 1 1 571D783E
P 2650 12850
F 0 "C14" H 2700 12950 50  0000 L CNN
F 1 "100n" H 2700 12750 50  0000 L CNN
F 2 "Capacitors_SMD:C_0805" H 2688 12700 30  0001 C CNN
F 3 "" H 2650 12850 60  0000 C CNN
	1    2650 12850
	1    0    0    -1  
$EndComp
$Comp
L Device:C C23
U 1 1 571D7844
P 7600 6050
F 0 "C23" H 7650 6150 50  0000 L CNN
F 1 "100n" H 7650 5950 50  0000 L CNN
F 2 "Capacitors_SMD:C_0805" H 7638 5900 30  0001 C CNN
F 3 "" H 7600 6050 60  0000 C CNN
	1    7600 6050
	1    0    0    -1  
$EndComp
$Comp
L power:VCC #PWR029
U 1 1 571D7F19
P 2500 12600
F 0 "#PWR029" H 2500 12450 50  0001 C CNN
F 1 "VCC" H 2500 12750 50  0000 C CNN
F 2 "" H 2500 12600 50  0000 C CNN
F 3 "" H 2500 12600 50  0000 C CNN
	1    2500 12600
	-1   0    0    -1  
$EndComp
Text Notes 2100 12400 0    60   ~ 0
Flash decoupling
$Comp
L power:GND #PWR030
U 1 1 571D98C9
P 2500 13100
F 0 "#PWR030" H 2500 12850 50  0001 C CNN
F 1 "GND" H 2508 12926 50  0001 C CNN
F 2 "" H 2500 13100 50  0000 C CNN
F 3 "" H 2500 13100 50  0000 C CNN
	1    2500 13100
	-1   0    0    -1  
$EndComp
Entry Wire Line
	5850 6200 5950 6100
Entry Wire Line
	5850 6300 5950 6200
Entry Wire Line
	5850 6400 5950 6300
$Comp
L Device:C C24
U 1 1 571DD8DD
P 7900 6050
F 0 "C24" H 7950 6150 50  0000 L CNN
F 1 "1u" H 7950 5950 50  0000 L CNN
F 2 "Capacitors_SMD:C_0805" H 7938 5900 30  0001 C CNN
F 3 "" H 7900 6050 60  0000 C CNN
	1    7900 6050
	1    0    0    -1  
$EndComp
$Comp
L Device:Battery BT1
U 1 1 571DE6B8
P 8500 6650
F 0 "BT1" H 8618 6696 50  0000 L CNN
F 1 "CR2032" H 8618 6604 50  0000 L CNN
F 2 "doragasu:CR2032-BK883" V 8500 6690 60  0001 C CNN
F 3 "" V 8500 6690 60  0000 C CNN
F 4 "BK-883" H 8500 6650 60  0001 C CNN "manf#"
	1    8500 6650
	1    0    0    -1  
$EndComp
$Comp
L Device:D_Schottky_x2_KCom_AKA D1
U 1 1 571DEAE9
P 8500 5850
F 0 "D1" V 8454 5929 50  0000 L CNN
F 1 "RB715Z" V 8546 5929 50  0000 L CNN
F 2 "TO_SOT_Packages_SMD:SC-70" H 8500 5850 60  0001 C CNN
F 3 "" H 8500 5850 60  0000 C CNN
F 4 "RB715ZT2L" V 8500 5850 60  0001 C CNN "manf#"
	1    8500 5850
	0    1    1    0   
$EndComp
$Comp
L Device:R R5
U 1 1 571DEE10
P 8500 6300
F 0 "R5" H 8570 6346 50  0000 L CNN
F 1 "22" V 8500 6250 50  0000 L CNN
F 2 "Resistors_SMD:R_0805" V 8430 6300 30  0001 C CNN
F 3 "" H 8500 6300 30  0000 C CNN
F 4 "RMCF0805JT22R0" H 8500 6300 60  0001 C CNN "manf#"
	1    8500 6300
	1    0    0    -1  
$EndComp
$Comp
L power:VCC #PWR031
U 1 1 571E169F
P 8500 5500
F 0 "#PWR031" H 8500 5350 50  0001 C CNN
F 1 "VCC" H 8500 5650 50  0000 C CNN
F 2 "" H 8500 5500 50  0000 C CNN
F 3 "" H 8500 5500 50  0000 C CNN
	1    8500 5500
	1    0    0    -1  
$EndComp
$Comp
L power:GND #PWR032
U 1 1 571E1D2B
P 8350 6900
F 0 "#PWR032" H 8350 6650 50  0001 C CNN
F 1 "GND" H 8358 6726 50  0001 C CNN
F 2 "" H 8350 6900 50  0000 C CNN
F 3 "" H 8350 6900 50  0000 C CNN
	1    8350 6900
	1    0    0    -1  
$EndComp
$Comp
L Device:R R3
U 1 1 571E2060
P 8200 6300
F 0 "R3" H 8270 6346 50  0000 L CNN
F 1 "1k" V 8200 6250 50  0000 L CNN
F 2 "Resistors_SMD:R_0805" V 8130 6300 30  0001 C CNN
F 3 "" H 8200 6300 30  0000 C CNN
F 4 "RMCF0805JT1K00" H 8200 6300 60  0001 C CNN "manf#"
	1    8200 6300
	1    0    0    -1  
$EndComp
$Comp
L Device:R R4
U 1 1 571E21A2
P 8200 6700
F 0 "R4" H 8270 6746 50  0000 L CNN
F 1 "10k" V 8200 6650 50  0000 L CNN
F 2 "Resistors_SMD:R_0805" V 8130 6700 30  0001 C CNN
F 3 "" H 8200 6700 30  0000 C CNN
	1    8200 6700
	1    0    0    -1  
$EndComp
Entry Wire Line
	5750 5200 5850 5300
Text Label 4100 5400 0    60   ~ 0
_R/~W
Text Label 5950 6100 0    60   ~ 0
~PACE
Text Label 5950 6300 0    60   ~ 0
~PAWE
Entry Wire Line
	9850 10500 9950 10600
Text Label 8350 7300 3    60   ~ 0
~PAOE
Text Label 5950 6200 0    60   ~ 0
~PAOE
$Comp
L power:GND #PWR033
U 1 1 571F0DE8
P 4400 6450
F 0 "#PWR033" H 4400 6200 50  0001 C CNN
F 1 "GND" H 4408 6276 50  0001 C CNN
F 2 "" H 4400 6450 50  0000 C CNN
F 3 "" H 4400 6450 50  0000 C CNN
	1    4400 6450
	1    0    0    -1  
$EndComp
NoConn ~ 5450 6400
NoConn ~ 5450 3100
$Comp
L Device:R R7
U 1 1 57203920
P 6250 6700
F 0 "R7" H 6320 6746 50  0000 L CNN
F 1 "10k" V 6250 6650 50  0000 L CNN
F 2 "Resistors_SMD:R_0805" V 6180 6700 30  0001 C CNN
F 3 "" H 6250 6700 30  0000 C CNN
F 4 "RMCF0805JT10K0" H 6250 6700 60  0001 C CNN "manf#"
	1    6250 6700
	1    0    0    -1  
$EndComp
$Comp
L power:GND #PWR034
U 1 1 572046A2
P 6250 6900
F 0 "#PWR034" H 6250 6650 50  0001 C CNN
F 1 "GND" H 6258 6726 50  0001 C CNN
F 2 "" H 6250 6900 50  0000 C CNN
F 3 "" H 6250 6900 50  0000 C CNN
	1    6250 6900
	1    0    0    -1  
$EndComp
$Comp
L power:+5V #PWR035
U 1 1 57207C65
P 2700 8850
F 0 "#PWR035" H 2700 8700 50  0001 C CNN
F 1 "+5V" H 2650 9000 50  0000 L CNN
F 2 "" H 2700 8850 50  0000 C CNN
F 3 "" H 2700 8850 50  0000 C CNN
	1    2700 8850
	1    0    0    -1  
$EndComp
$Comp
L power:GND #PWR036
U 1 1 57208BFE
P 1850 9700
F 0 "#PWR036" H 1850 9450 50  0001 C CNN
F 1 "GND" H 1858 9526 50  0001 C CNN
F 2 "" H 1850 9700 50  0000 C CNN
F 3 "" H 1850 9700 50  0000 C CNN
	1    1850 9700
	-1   0    0    -1  
$EndComp
NoConn ~ 3300 9550
Entry Wire Line
	3900 9150 4000 9250
Entry Wire Line
	3900 9250 4000 9350
Entry Wire Line
	3900 9350 4000 9450
Entry Wire Line
	3900 9450 4000 9550
Text Label 3900 9250 2    60   ~ 0
LS0
Text Label 3900 9150 2    60   ~ 0
LS1
Text Label 3900 9350 2    60   ~ 0
LS2
Text Label 3900 9450 2    60   ~ 0
LCK
$Comp
L Device:C C25
U 1 1 5720E84A
P 1850 9450
F 0 "C25" H 1900 9550 50  0000 L CNN
F 1 "100n" H 1900 9350 50  0000 L CNN
F 2 "Capacitors_SMD:C_0805" H 1888 9300 30  0001 C CNN
F 3 "" H 1850 9450 60  0000 C CNN
	1    1850 9450
	1    0    0    -1  
$EndComp
$Comp
L power:GND #PWR037
U 1 1 571E190A
P 7600 6300
F 0 "#PWR037" H 7600 6050 50  0001 C CNN
F 1 "GND" H 7608 6126 50  0001 C CNN
F 2 "" H 7600 6300 50  0000 C CNN
F 3 "" H 7600 6300 50  0000 C CNN
	1    7600 6300
	1    0    0    -1  
$EndComp
Text Label 4100 7600 0    60   ~ 0
_CA10
Entry Wire Line
	9850 9000 9950 9100
Entry Wire Line
	9850 9100 9950 9200
Entry Wire Line
	9850 9200 9950 9300
Entry Wire Line
	9850 9300 9950 9400
Entry Wire Line
	9850 9400 9950 9500
Entry Wire Line
	9850 9900 9950 10000
Entry Wire Line
	9850 10000 9950 10100
NoConn ~ 7550 7600
Text Label 4100 11000 0    60   ~ 0
_C_~R
Text Label 1850 4200 0    60   ~ 0
_C_~R
Entry Wire Line
	9850 8600 9950 8700
Entry Wire Line
	9850 8700 9950 8800
Entry Wire Line
	9850 8800 9950 8900
Entry Wire Line
	9850 8900 9950 9000
Entry Wire Line
	8250 7300 8350 7200
Entry Wire Line
	8350 7300 8450 7200
Entry Wire Line
	8450 7300 8550 7200
Entry Wire Line
	8550 7300 8650 7200
Entry Wire Line
	8650 7300 8750 7200
Entry Wire Line
	8750 7300 8850 7200
Entry Wire Line
	8850 7300 8950 7200
Entry Wire Line
	8050 7300 8150 7200
Entry Wire Line
	8150 7300 8250 7200
NoConn ~ 6250 9000
NoConn ~ 7450 11700
NoConn ~ 7650 11700
NoConn ~ 7850 11700
NoConn ~ 7950 11700
NoConn ~ 8050 11700
NoConn ~ 8150 11700
Entry Wire Line
	7750 12000 7850 12100
Text Label 1150 7500 0    60   ~ 0
TDI
Text Label 1150 7600 0    60   ~ 0
TDO
Text Label 1150 7700 0    60   ~ 0
TCK
Text Label 1150 7800 0    60   ~ 0
TMS
Text Label 1850 3800 0    60   ~ 0
TMS
Text Label 1850 3600 0    60   ~ 0
TCK
Text Label 3550 3900 2    60   ~ 0
TDO
Text Label 3550 3700 2    60   ~ 0
TDI
Entry Wire Line
	4000 11200 4100 11100
Entry Wire Line
	4000 11100 4100 11000
Text Notes 6700 3900 0    60   ~ 0
PRG ROM
Text Notes 8950 3900 0    60   ~ 0
CHR ROM
Text Label 4100 9300 0    60   ~ 0
_CA13
Entry Wire Line
	4000 6400 4100 6300
Entry Wire Line
	5750 6300 5850 6400
$Comp
L power:GND #PWR038
U 1 1 5726B5AB
P 6250 5800
F 0 "#PWR038" H 6250 5550 50  0001 C CNN
F 1 "GND" H 6258 5626 50  0001 C CNN
F 2 "" H 6250 5800 50  0000 C CNN
F 3 "" H 6250 5800 50  0000 C CNN
	1    6250 5800
	1    0    0    -1  
$EndComp
Entry Wire Line
	3550 3900 3650 4000
Entry Wire Line
	1750 3700 1850 3600
Entry Wire Line
	1750 3900 1850 3800
Entry Wire Line
	1750 4000 1850 3900
NoConn ~ 3250 3800
NoConn ~ 3250 3500
NoConn ~ 2150 3700
NoConn ~ 2150 3500
Entry Wire Line
	1050 10300 1150 10200
Entry Wire Line
	1050 7600 1150 7500
Entry Wire Line
	1050 7700 1150 7600
Entry Wire Line
	1050 7800 1150 7700
Entry Wire Line
	1050 7900 1150 7800
Entry Wire Line
	8050 3600 8150 3500
Entry Wire Line
	4000 11600 4100 11500
Text Label 4100 11500 0    60   ~ 0
_C_~R
Entry Wire Line
	5750 11500 5850 11600
Text Label 5750 11500 2    60   ~ 0
C_~R
Text Label 8150 3600 0    60   ~ 0
C_~R
$Comp
L power:GND #PWR039
U 1 1 572B5D7F
P 6100 3400
F 0 "#PWR039" H 6100 3150 50  0001 C CNN
F 1 "GND" H 6108 3226 50  0001 C CNN
F 2 "" H 6100 3400 50  0000 C CNN
F 3 "" H 6100 3400 50  0000 C CNN
	1    6100 3400
	1    0    0    -1  
$EndComp
Entry Wire Line
	3550 4100 3650 4200
Text Label 3550 4100 2    60   ~ 0
_C_~W
Text Label 4100 7800 0    60   ~ 0
_C_~W
Text Label 5750 7800 2    60   ~ 0
C_~W
Text Label 8150 3700 0    60   ~ 0
C_~W
Entry Wire Line
	5850 9200 5950 9100
Entry Wire Line
	5850 9300 5950 9200
Entry Wire Line
	5850 9400 5950 9300
Text Label 5950 9100 0    60   ~ 0
LEDR
Text Label 5950 9200 0    60   ~ 0
LEDG
Text Label 5950 9300 0    60   ~ 0
LEDB
$Comp
L doragasu:RGB_LED D2
U 1 1 572C79BC
P 7300 13150
F 0 "D2" V 7328 12872 60  0000 R CNN
F 1 "RGB_LED" V 7222 12872 60  0000 R CNN
F 2 "doragasu:SMD_0606_4PAD" H 7300 13150 60  0001 C CNN
F 3 "" H 7300 13150 60  0000 C CNN
F 4 "LTST-C19HE1WT" V 7300 13150 60  0001 C CNN "manf#"
	1    7300 13150
	0    -1   -1   0   
$EndComp
Entry Wire Line
	7150 12200 7250 12100
Entry Wire Line
	7300 12200 7400 12100
Entry Wire Line
	7450 12200 7550 12100
$Comp
L Device:R R8
U 1 1 572C8C43
P 7150 12750
F 0 "R8" V 7100 12900 50  0000 L CNN
F 1 "47" V 7150 12700 50  0000 L CNN
F 2 "Resistors_SMD:R_0603" V 7080 12750 50  0001 C CNN
F 3 "" H 7150 12750 50  0000 C CNN
F 4 "RMCF0805JT47R0" V 7150 12750 60  0001 C CNN "manf#"
	1    7150 12750
	1    0    0    -1  
$EndComp
$Comp
L Device:R R9
U 1 1 572C90D3
P 7300 12750
F 0 "R9" V 7250 12900 50  0000 L CNN
F 1 "47" V 7300 12700 50  0000 L CNN
F 2 "Resistors_SMD:R_0603" V 7230 12750 50  0001 C CNN
F 3 "" H 7300 12750 50  0000 C CNN
	1    7300 12750
	1    0    0    -1  
$EndComp
$Comp
L Device:R R10
U 1 1 572C9184
P 7450 12750
F 0 "R10" V 7400 12900 50  0000 L CNN
F 1 "150" V 7450 12700 50  0000 L CNN
F 2 "Resistors_SMD:R_0603" V 7380 12750 50  0001 C CNN
F 3 "" H 7450 12750 50  0000 C CNN
F 4 "RMCF0805JT150R" V 7450 12750 60  0001 C CNN "manf#"
	1    7450 12750
	1    0    0    -1  
$EndComp
Text Label 7150 12200 3    60   ~ 0
LEDR
Text Label 7300 12200 3    60   ~ 0
LEDG
Text Label 7450 12200 3    60   ~ 0
LEDB
$Comp
L power:VCC #PWR040
U 1 1 572CC38C
P 7300 13450
F 0 "#PWR040" H 7300 13300 50  0001 C CNN
F 1 "VCC" H 7300 13600 50  0000 C CNN
F 2 "" H 7300 13450 50  0000 C CNN
F 3 "" H 7300 13450 50  0000 C CNN
	1    7300 13450
	-1   0    0    1   
$EndComp
NoConn ~ 5450 5700
Wire Bus Line
	1750 6500 4000 6500
Wire Bus Line
	1750 1550 4000 1550
Wire Wire Line
	4450 7700 4100 7700
Wire Wire Line
	4450 10800 4100 10800
Wire Wire Line
	4450 10700 4100 10700
Wire Wire Line
	4450 10600 4100 10600
Wire Wire Line
	4450 10500 4100 10500
Wire Wire Line
	4450 10400 4100 10400
Wire Wire Line
	4450 10300 4100 10300
Wire Wire Line
	4450 10200 4100 10200
Wire Wire Line
	4450 10100 4100 10100
Wire Wire Line
	4450 9400 4100 9400
Wire Wire Line
	4450 9300 4100 9300
Wire Wire Line
	4450 9200 4100 9200
Wire Wire Line
	4450 9100 4100 9100
Wire Wire Line
	4450 9000 4100 9000
Wire Wire Line
	4450 8900 4100 8900
Wire Wire Line
	4450 8800 4100 8800
Wire Wire Line
	4450 8700 4100 8700
Wire Wire Line
	4450 8000 4100 8000
Wire Wire Line
	4450 7900 4100 7900
Wire Wire Line
	4450 7800 4100 7800
Wire Wire Line
	4450 7600 4100 7600
Wire Wire Line
	4450 7500 4100 7500
Wire Wire Line
	4450 7400 4100 7400
Wire Wire Line
	4450 7300 4450 7000
Wire Wire Line
	4100 6300 4450 6300
Wire Wire Line
	4450 6100 4100 6100
Wire Wire Line
	4450 6000 4100 6000
Wire Wire Line
	4450 5900 4100 5900
Wire Wire Line
	5500 5400 4100 5400
Wire Wire Line
	4450 4900 4100 4900
Wire Wire Line
	4450 4800 4100 4800
Wire Wire Line
	4450 4700 4100 4700
Wire Wire Line
	4450 4600 4100 4600
Wire Wire Line
	4450 4500 4100 4500
Wire Wire Line
	4450 4400 4100 4400
Wire Wire Line
	4450 4300 4100 4300
Wire Wire Line
	4450 4200 4100 4200
Wire Wire Line
	4450 3300 4150 3300
Wire Wire Line
	4450 3000 4100 3000
Wire Wire Line
	4450 2900 4100 2900
Wire Wire Line
	4450 2800 4100 2800
Wire Wire Line
	4450 2700 4100 2700
Wire Wire Line
	4450 2600 4100 2600
Wire Wire Line
	4450 1900 4100 1900
Wire Wire Line
	4450 1800 4100 1800
Wire Wire Line
	4450 1700 4100 1700
Wire Wire Line
	4450 1600 4100 1600
Wire Wire Line
	4450 1500 4100 1500
Wire Wire Line
	4450 1400 4100 1400
Wire Wire Line
	4450 1300 4100 1300
Wire Wire Line
	4450 1200 4100 1200
Wire Wire Line
	3250 4200 3250 4300
Wire Wire Line
	3250 5700 3550 5700
Wire Wire Line
	3250 5600 3550 5600
Wire Wire Line
	3250 5400 3550 5400
Wire Wire Line
	3250 5300 3550 5300
Wire Wire Line
	3250 5200 3550 5200
Wire Wire Line
	3250 5100 3550 5100
Wire Wire Line
	3250 5000 3550 5000
Wire Wire Line
	3250 4900 3550 4900
Wire Wire Line
	3250 4800 3550 4800
Wire Wire Line
	3250 4700 3550 4700
Wire Wire Line
	3250 4600 3550 4600
Wire Wire Line
	3250 4500 3550 4500
Wire Wire Line
	3250 4400 3550 4400
Wire Wire Line
	3250 3200 3550 3200
Wire Wire Line
	3250 3100 3550 3100
Wire Wire Line
	3250 3000 3550 3000
Wire Wire Line
	3250 2900 3550 2900
Wire Wire Line
	3250 2800 3550 2800
Wire Wire Line
	3250 2700 3550 2700
Wire Wire Line
	3250 2600 3550 2600
Wire Wire Line
	3250 2500 3550 2500
Wire Wire Line
	3250 2400 3550 2400
Wire Wire Line
	3250 2300 3550 2300
Wire Wire Line
	3250 2200 3550 2200
Wire Wire Line
	3250 2100 3550 2100
Wire Wire Line
	3250 2000 3550 2000
Wire Wire Line
	2150 5700 1850 5700
Wire Wire Line
	2150 5600 1850 5600
Wire Wire Line
	2150 5400 1850 5400
Wire Wire Line
	2150 5300 1850 5300
Wire Wire Line
	2150 5200 1850 5200
Wire Wire Line
	2150 5100 1850 5100
Wire Wire Line
	2150 5000 1850 5000
Wire Wire Line
	2150 4900 1850 4900
Wire Wire Line
	2150 4800 1850 4800
Wire Wire Line
	2150 4700 1850 4700
Wire Wire Line
	2150 4600 1850 4600
Wire Wire Line
	2150 4500 1850 4500
Wire Wire Line
	2150 4400 1850 4400
Wire Wire Line
	2150 4300 1850 4300
Wire Wire Line
	2150 4200 1850 4200
Wire Wire Line
	2150 3300 1850 3300
Wire Wire Line
	2150 3200 1850 3200
Wire Wire Line
	2150 3100 1850 3100
Wire Wire Line
	2150 3000 1850 3000
Wire Wire Line
	2150 2900 1850 2900
Wire Wire Line
	2150 2800 1850 2800
Wire Wire Line
	2150 2700 1850 2700
Wire Wire Line
	2150 2600 1850 2600
Wire Wire Line
	2150 2500 1850 2500
Wire Wire Line
	2150 2400 1850 2400
Wire Wire Line
	2150 2300 1850 2300
Wire Wire Line
	2150 2200 1850 2200
Wire Wire Line
	2150 2100 1850 2100
Wire Wire Line
	2150 2000 1850 2000
Wire Wire Line
	1900 1800 2150 1800
Wire Wire Line
	2150 1800 2150 1900
Wire Wire Line
	3250 5800 3500 5800
Wire Wire Line
	3500 5800 3500 5850
Wire Wire Line
	2150 5800 2100 5800
Wire Wire Line
	1650 13700 2000 13700
Wire Wire Line
	1650 14000 2000 14000
Wire Wire Line
	3200 13700 3000 13700
Wire Wire Line
	3000 13700 3000 13800
Connection ~ 3000 13700
Wire Wire Line
	2600 14000 2600 14050
Connection ~ 2600 14000
Connection ~ 2000 14000
Connection ~ 2000 13700
Wire Wire Line
	1650 13700 1650 13650
Connection ~ 1650 13700
Wire Wire Line
	3200 13650 3200 13700
Connection ~ 3200 13700
Wire Wire Line
	6250 1200 5950 1200
Wire Wire Line
	6250 1300 5950 1300
Wire Wire Line
	6250 1400 5950 1400
Wire Wire Line
	6250 1500 5950 1500
Wire Wire Line
	6250 1600 5950 1600
Wire Wire Line
	6250 1700 5950 1700
Wire Wire Line
	6250 1800 5950 1800
Wire Wire Line
	6250 1900 5950 1900
Wire Wire Line
	6250 2000 5950 2000
Wire Wire Line
	6250 2100 5950 2100
Wire Wire Line
	6250 2200 5950 2200
Wire Wire Line
	6250 2300 5950 2300
Wire Wire Line
	6250 2400 5950 2400
Wire Wire Line
	6250 2500 5950 2500
Wire Wire Line
	6250 2600 5950 2600
Wire Wire Line
	6250 2700 5950 2700
Wire Wire Line
	6250 2800 5950 2800
Wire Wire Line
	6250 2900 5950 2900
Wire Wire Line
	6250 3000 5950 3000
Wire Wire Line
	6250 3100 5950 3100
Wire Wire Line
	6250 3200 5950 3200
Wire Wire Line
	6250 3300 5950 3300
Wire Wire Line
	6250 3600 5950 3600
Wire Wire Line
	6250 3700 5950 3700
Wire Wire Line
	7650 1200 7950 1200
Wire Wire Line
	7650 2000 7950 2000
Wire Wire Line
	7650 2100 7950 2100
Wire Wire Line
	7650 2200 7950 2200
Wire Wire Line
	7650 2300 7950 2300
Wire Wire Line
	7650 2400 7950 2400
Wire Wire Line
	7650 2500 7950 2500
Wire Wire Line
	7650 2600 7950 2600
Wire Wire Line
	7650 2700 7950 2700
Wire Wire Line
	8450 1200 8150 1200
Wire Wire Line
	8450 1300 8150 1300
Wire Wire Line
	8450 1400 8150 1400
Wire Wire Line
	8450 1500 8150 1500
Wire Wire Line
	8450 1600 8150 1600
Wire Wire Line
	8450 1700 8150 1700
Wire Wire Line
	8450 1800 8150 1800
Wire Wire Line
	8450 1900 8150 1900
Wire Wire Line
	8450 2000 8150 2000
Wire Wire Line
	8450 2100 8150 2100
Wire Wire Line
	8450 2200 8150 2200
Wire Wire Line
	8450 2300 8150 2300
Wire Wire Line
	8450 2500 8150 2500
Wire Wire Line
	8450 2600 8150 2600
Wire Wire Line
	8450 2700 8150 2700
Wire Wire Line
	8450 2800 8150 2800
Wire Wire Line
	8450 2900 8150 2900
Wire Wire Line
	8450 3000 8150 3000
Wire Wire Line
	8450 3100 8150 3100
Wire Wire Line
	8450 3200 8150 3200
Wire Wire Line
	8450 3300 8150 3300
Wire Wire Line
	8450 3600 8150 3600
Wire Wire Line
	8450 3700 8150 3700
Wire Wire Line
	9850 1200 10150 1200
Wire Wire Line
	9850 2000 10150 2000
Wire Wire Line
	9850 2100 10150 2100
Wire Wire Line
	9850 2200 10150 2200
Wire Wire Line
	9850 2300 10150 2300
Wire Wire Line
	9850 2400 10150 2400
Wire Wire Line
	9850 2500 10150 2500
Wire Wire Line
	9850 2600 10150 2600
Wire Wire Line
	9850 2700 10150 2700
Wire Wire Line
	5450 1200 5750 1200
Wire Wire Line
	5450 1300 5750 1300
Wire Wire Line
	5450 1400 5750 1400
Wire Wire Line
	5450 1500 5750 1500
Wire Wire Line
	5450 1600 5750 1600
Wire Wire Line
	5450 1700 5750 1700
Wire Wire Line
	5450 1800 5750 1800
Wire Wire Line
	5450 1900 5750 1900
Wire Wire Line
	5450 2600 5750 2600
Wire Wire Line
	5450 2700 5750 2700
Wire Wire Line
	5450 2800 5750 2800
Wire Wire Line
	5450 2900 5750 2900
Wire Wire Line
	5450 3000 5750 3000
Wire Wire Line
	5450 4200 5750 4200
Wire Wire Line
	5450 4300 5750 4300
Wire Wire Line
	5450 4400 5750 4400
Wire Wire Line
	5450 4500 5750 4500
Wire Wire Line
	5450 4600 5750 4600
Wire Wire Line
	5450 4700 5750 4700
Wire Wire Line
	5450 4800 5750 4800
Wire Wire Line
	5450 4900 5750 4900
Wire Wire Line
	5450 5900 5750 5900
Wire Wire Line
	5450 6000 5750 6000
Wire Wire Line
	5450 6100 5750 6100
Wire Wire Line
	5450 6200 5750 6200
Wire Wire Line
	5450 6300 5750 6300
Wire Wire Line
	5450 7300 5450 6900
Wire Wire Line
	5450 7400 5750 7400
Wire Wire Line
	5450 7500 5750 7500
Wire Wire Line
	5450 7600 5750 7600
Wire Wire Line
	5450 7700 5750 7700
Wire Wire Line
	5450 7800 5750 7800
Wire Wire Line
	5450 7900 5750 7900
Wire Wire Line
	5450 8000 5750 8000
Wire Wire Line
	5450 8700 5750 8700
Wire Wire Line
	5450 8800 5750 8800
Wire Wire Line
	5450 8900 5750 8900
Wire Wire Line
	5450 9000 5750 9000
Wire Wire Line
	5450 9100 5750 9100
Wire Wire Line
	5450 9200 5750 9200
Wire Wire Line
	5450 9300 5750 9300
Wire Wire Line
	5450 9400 5750 9400
Wire Wire Line
	5450 10100 5750 10100
Wire Wire Line
	5450 10200 5750 10200
Wire Wire Line
	5450 10300 5750 10300
Wire Wire Line
	5450 10400 5750 10400
Wire Wire Line
	5450 10500 5750 10500
Wire Wire Line
	5450 10600 5750 10600
Wire Wire Line
	5450 10700 5750 10700
Wire Wire Line
	5450 10800 5750 10800
Wire Bus Line
	10250 4100 5850 4100
Wire Wire Line
	4450 2200 4400 2200
Wire Wire Line
	4400 3600 4450 3600
Wire Wire Line
	4400 8300 4450 8300
Wire Wire Line
	4400 9700 4450 9700
Wire Wire Line
	4450 11500 4100 11500
Connection ~ 4350 11700
Connection ~ 4350 11800
Connection ~ 4350 11900
Connection ~ 4350 12000
Connection ~ 4350 12100
Connection ~ 4350 12200
Wire Wire Line
	4450 11600 4350 11600
Wire Wire Line
	4450 11700 4350 11700
Wire Wire Line
	4350 11800 4450 11800
Wire Wire Line
	4200 11900 4350 11900
Wire Wire Line
	4350 12000 4450 12000
Wire Wire Line
	4350 12100 4450 12100
Wire Wire Line
	4350 12200 4450 12200
Wire Wire Line
	2200 6800 2300 6800
Connection ~ 3200 6800
Connection ~ 3000 6800
Connection ~ 2800 6800
Connection ~ 2700 6800
Connection ~ 2600 6800
Connection ~ 2400 6800
Connection ~ 2300 6800
Wire Wire Line
	2200 8500 2300 8500
Connection ~ 3200 8500
Connection ~ 2800 8500
Connection ~ 2700 8500
Connection ~ 2600 8500
Connection ~ 2400 8500
Connection ~ 2300 8500
Wire Wire Line
	2700 8550 2700 8500
Wire Wire Line
	2700 6750 2700 6800
Wire Wire Line
	3800 6800 3800 7500
Connection ~ 3300 6800
Wire Wire Line
	1150 7700 1450 7700
Wire Wire Line
	6400 4500 5950 4500
Wire Wire Line
	6400 4600 5950 4600
Wire Wire Line
	6400 4700 5950 4700
Wire Wire Line
	6400 4800 5950 4800
Wire Wire Line
	6400 4900 5950 4900
Wire Wire Line
	6400 5000 5950 5000
Wire Wire Line
	6400 5100 5950 5100
Wire Wire Line
	6400 5200 5950 5200
Wire Wire Line
	6400 5300 5950 5300
Wire Wire Line
	6400 5400 5950 5400
Wire Wire Line
	6400 5500 5950 5500
Wire Wire Line
	6400 5600 5950 5600
Wire Wire Line
	6400 5700 5950 5700
Wire Wire Line
	7500 4500 7950 4500
Wire Wire Line
	7500 4600 7950 4600
Wire Wire Line
	7500 4700 7950 4700
Wire Wire Line
	7500 4800 7950 4800
Wire Wire Line
	7500 4900 7950 4900
Wire Wire Line
	7500 5000 7950 5000
Wire Wire Line
	7500 5100 7950 5100
Wire Wire Line
	7500 5200 7950 5200
Wire Wire Line
	6250 9400 5950 9400
Wire Wire Line
	6250 9500 5950 9500
Wire Wire Line
	6250 9600 5950 9600
Wire Wire Line
	6250 9700 5950 9700
Wire Wire Line
	6250 9800 5950 9800
Wire Wire Line
	6250 10000 5950 10000
Wire Wire Line
	6250 10100 5950 10100
Wire Wire Line
	6250 10200 5950 10200
Wire Wire Line
	6250 10300 5950 10300
Wire Wire Line
	6250 10400 5950 10400
Wire Wire Line
	6250 10500 5950 10500
Wire Wire Line
	6250 10600 5950 10600
Wire Wire Line
	6250 10700 5950 10700
Wire Wire Line
	7150 11700 7150 12000
Wire Wire Line
	7250 11700 7250 12000
Wire Wire Line
	8450 12000 8450 11700
Wire Wire Line
	6250 9900 5950 9900
Wire Wire Line
	9550 10600 9850 10600
Wire Wire Line
	9550 10500 9850 10500
Wire Wire Line
	9850 10300 9550 10300
Wire Wire Line
	9550 10200 9850 10200
Wire Wire Line
	9550 10100 9850 10100
Wire Wire Line
	3250 3600 3550 3600
Wire Wire Line
	3250 3700 3550 3700
Wire Wire Line
	1150 7500 1700 7500
Wire Wire Line
	1700 7600 1150 7600
Connection ~ 1450 7700
Wire Wire Line
	1700 7800 1150 7800
Wire Wire Line
	7800 2900 7800 2950
Wire Wire Line
	7800 3300 7650 3300
Wire Wire Line
	7650 3500 7800 3500
Wire Wire Line
	10000 2900 10000 2950
Wire Wire Line
	10000 3300 9850 3300
Wire Wire Line
	9850 3500 10000 3500
Wire Wire Line
	1300 10650 1300 10600
Wire Wire Line
	1300 10600 1600 10600
Wire Wire Line
	3700 10600 3700 10650
Wire Wire Line
	1300 10950 1300 11000
Wire Wire Line
	1300 11000 1600 11000
Wire Wire Line
	3700 11000 3700 10950
Wire Wire Line
	1600 10650 1600 10600
Connection ~ 1600 10600
Wire Wire Line
	1900 10650 1900 10600
Connection ~ 1900 10600
Wire Wire Line
	2200 10650 2200 10600
Connection ~ 2200 10600
Wire Wire Line
	2500 10550 2500 10600
Connection ~ 2500 10600
Wire Wire Line
	2800 10650 2800 10600
Connection ~ 2800 10600
Wire Wire Line
	3100 10650 3100 10600
Connection ~ 3100 10600
Wire Wire Line
	3400 10650 3400 10600
Connection ~ 3400 10600
Wire Wire Line
	1600 10950 1600 11000
Connection ~ 1600 11000
Wire Wire Line
	1900 10950 1900 11000
Connection ~ 1900 11000
Wire Wire Line
	2200 10950 2200 11000
Connection ~ 2200 11000
Wire Wire Line
	2500 10950 2500 11000
Connection ~ 2500 11000
Wire Wire Line
	2800 10950 2800 11000
Connection ~ 2800 11000
Wire Wire Line
	3100 10950 3100 11000
Connection ~ 3100 11000
Wire Wire Line
	3400 10950 3400 11000
Connection ~ 3400 11000
Wire Wire Line
	3550 11600 3550 11650
Wire Wire Line
	3550 12000 3550 11950
Wire Wire Line
	1450 11650 1450 11600
Wire Wire Line
	1750 11650 1750 11600
Connection ~ 1750 11600
Wire Wire Line
	2050 11600 2050 11650
Connection ~ 2050 11600
Connection ~ 2350 11600
Wire Wire Line
	2650 11600 2650 11650
Connection ~ 2650 11600
Wire Wire Line
	2950 11600 2950 11650
Connection ~ 2950 11600
Wire Wire Line
	3250 11600 3250 11650
Connection ~ 3250 11600
Wire Wire Line
	1450 11950 1450 12000
Wire Wire Line
	1750 11950 1750 12000
Connection ~ 1750 12000
Wire Wire Line
	2050 12000 2050 11950
Connection ~ 2050 12000
Connection ~ 2350 12000
Wire Wire Line
	2650 12000 2650 11950
Connection ~ 2650 12000
Wire Wire Line
	2950 12000 2950 11950
Connection ~ 2950 12000
Wire Wire Line
	3250 12000 3250 11950
Connection ~ 3250 12000
Wire Wire Line
	1450 11600 1750 11600
Wire Wire Line
	1450 12000 1750 12000
Wire Wire Line
	2350 11650 2350 11600
Wire Wire Line
	2350 11950 2350 12000
Wire Wire Line
	2500 12050 2500 12000
Connection ~ 2500 12000
Wire Wire Line
	2500 11550 2500 11600
Connection ~ 2500 11600
Wire Wire Line
	2350 12700 2350 12650
Wire Wire Line
	2350 13000 2350 13050
Wire Wire Line
	2350 12650 2500 12650
Wire Wire Line
	2650 12650 2650 12700
Wire Wire Line
	2350 13050 2500 13050
Wire Wire Line
	2650 13050 2650 13000
Wire Wire Line
	2500 12600 2500 12650
Connection ~ 2500 12650
Wire Wire Line
	2500 13100 2500 13050
Connection ~ 2500 13050
Wire Wire Line
	5950 6100 6250 6100
Wire Wire Line
	6400 6200 5950 6200
Wire Wire Line
	6400 6300 5950 6300
Wire Wire Line
	7500 5850 7600 5850
Wire Wire Line
	7900 5850 7900 5900
Wire Wire Line
	7600 5900 7600 5850
Connection ~ 7600 5850
Wire Wire Line
	7900 6250 7900 6200
Wire Wire Line
	7500 6250 7600 6250
Wire Wire Line
	7600 6200 7600 6250
Connection ~ 7600 6250
Connection ~ 7900 5850
Wire Wire Line
	8200 6850 8350 6850
Wire Wire Line
	8350 6900 8350 6850
Connection ~ 8350 6850
Wire Wire Line
	8200 6450 8200 6500
Wire Wire Line
	8200 6500 6350 6500
Wire Wire Line
	6350 6500 6350 6000
Wire Wire Line
	6350 6000 6400 6000
Connection ~ 8200 6500
Wire Wire Line
	8500 5550 8200 5550
Wire Wire Line
	8200 5550 8200 6150
Wire Wire Line
	8500 5500 8500 5550
Connection ~ 8500 5550
Wire Wire Line
	9550 10400 9850 10400
Wire Wire Line
	4450 6400 4400 6400
Wire Wire Line
	7350 12000 7350 11700
Wire Wire Line
	8150 2400 8450 2400
Wire Wire Line
	6250 6550 6250 6100
Connection ~ 6250 6100
Wire Wire Line
	6250 6850 6250 6900
Wire Wire Line
	3300 9150 3900 9150
Wire Wire Line
	3300 9250 3900 9250
Wire Wire Line
	3300 9350 3900 9350
Wire Wire Line
	3300 9450 3900 9450
Wire Wire Line
	7800 3250 7800 3300
Wire Wire Line
	10000 3250 10000 3300
Wire Wire Line
	10000 3500 10000 3550
Wire Wire Line
	7800 3500 7800 3550
Wire Wire Line
	9850 10700 9550 10700
Wire Wire Line
	9550 9000 9850 9000
Wire Wire Line
	9550 9100 9850 9100
Wire Wire Line
	9550 9200 9850 9200
Wire Wire Line
	9550 9300 9850 9300
Wire Wire Line
	9550 9400 9850 9400
Wire Wire Line
	9550 9900 9850 9900
Wire Wire Line
	9550 10000 9850 10000
Wire Wire Line
	9550 8600 9850 8600
Wire Wire Line
	9550 8700 9850 8700
Wire Wire Line
	9550 8800 9850 8800
Wire Wire Line
	9550 8900 9850 8900
Wire Wire Line
	8550 7600 8550 7300
Wire Wire Line
	8650 7300 8650 7600
Wire Wire Line
	8750 7600 8750 7300
Wire Wire Line
	8850 7300 8850 7600
Wire Wire Line
	8450 7600 8450 7300
Wire Wire Line
	8350 7300 8350 7600
Wire Wire Line
	8250 7600 8250 7300
Wire Wire Line
	8150 7600 8150 7300
Wire Wire Line
	8050 7300 8050 7600
Wire Wire Line
	7750 11700 7750 12000
Wire Wire Line
	1850 3900 2150 3900
Wire Wire Line
	1850 3800 2150 3800
Wire Wire Line
	1850 3600 2150 3600
Wire Wire Line
	1450 7700 1450 7850
Wire Wire Line
	3250 3900 3550 3900
Wire Wire Line
	4450 11000 4100 11000
Wire Wire Line
	4100 11100 4450 11100
Wire Wire Line
	6200 3500 6250 3500
Wire Wire Line
	4450 5800 4100 5800
Wire Wire Line
	6250 5800 6400 5800
Wire Wire Line
	3650 10200 3650 9650
Wire Wire Line
	1150 10200 3650 10200
Wire Bus Line
	1750 4000 1050 4000
Wire Wire Line
	8450 3500 8150 3500
Wire Wire Line
	4450 12500 4400 12500
Wire Wire Line
	4350 11600 4350 11700
Wire Wire Line
	4350 12400 4450 12400
Wire Wire Line
	5450 11500 5750 11500
Wire Wire Line
	6200 3500 6200 3400
Wire Wire Line
	6200 3400 6100 3400
Wire Wire Line
	3250 4100 3550 4100
Wire Wire Line
	6250 9300 5950 9300
Wire Wire Line
	6250 9200 5950 9200
Wire Wire Line
	6250 9100 5950 9100
Wire Wire Line
	7150 12200 7150 12600
Wire Wire Line
	7300 12600 7300 12200
Wire Wire Line
	7450 12200 7450 12600
Wire Wire Line
	5750 5200 5450 5200
Wire Wire Line
	5450 5100 5500 5100
Wire Wire Line
	5500 5100 5500 5400
Wire Wire Line
	5500 6600 5500 6700
Wire Wire Line
	5500 6700 5450 6700
Wire Wire Line
	5450 6600 5500 6600
Connection ~ 5500 6700
Wire Wire Line
	4450 6200 4100 6200
Wire Wire Line
	4400 5700 4400 6400
Wire Wire Line
	4450 5700 4400 5700
Connection ~ 4400 6400
Wire Wire Line
	5450 5800 5750 5800
Entry Wire Line
	5750 5800 5850 5900
NoConn ~ 3250 1900
NoConn ~ 5450 3200
NoConn ~ 7550 11700
Wire Wire Line
	4450 3100 4450 3200
$Comp
L power:GND #PWR041
U 1 1 572F6C55
P 4300 3100
F 0 "#PWR041" H 4300 2850 50  0001 C CNN
F 1 "GND" H 4308 2926 50  0001 C CNN
F 2 "" H 4300 3100 50  0000 C CNN
F 3 "" H 4300 3100 50  0000 C CNN
	1    4300 3100
	1    0    0    -1  
$EndComp
Wire Wire Line
	4300 3100 4450 3100
Connection ~ 4450 3100
Text Label 1850 3900 0    60   ~ 0
CICRS
Text Label 1150 10200 0    60   ~ 0
CICRS
Wire Wire Line
	5450 3300 5450 3900
Wire Wire Line
	5450 3900 4100 3900
Wire Wire Line
	4150 3300 4150 3800
Wire Wire Line
	4150 3800 5750 3800
Entry Wire Line
	5750 3800 5850 3900
Entry Wire Line
	4000 4000 4100 3900
Wire Wire Line
	4450 7000 5750 7000
Wire Wire Line
	5450 6900 4100 6900
Entry Wire Line
	4000 7000 4100 6900
Entry Wire Line
	5750 7000 5850 7100
$Comp
L doragasu:NES-CART J1
U 1 1 5730C3C7
P 2700 3800
F 0 "J1" H 2700 5987 60  0000 C CNN
F 1 "NES-CART" H 2700 5881 60  0000 C CNN
F 2 "doragasu:NES_CART_FINGERS" H 2700 4000 60  0001 C CNN
F 3 "" H 2700 4000 60  0000 C CNN
	1    2700 3800
	1    0    0    -1  
$EndComp
Wire Wire Line
	9550 9500 9850 9500
Entry Wire Line
	9850 9500 9950 9600
Text Label 9850 9500 2    60   ~ 0
PA12
Wire Wire Line
	8950 7600 8950 7300
Entry Wire Line
	8950 7300 9050 7200
Wire Wire Line
	8550 11700 8550 12000
Entry Wire Line
	8550 12000 8650 12100
Wire Wire Line
	8350 11700 8350 12000
Entry Wire Line
	8350 12000 8450 12100
Entry Wire Line
	8250 12000 8350 12100
Wire Wire Line
	8250 11700 8250 12000
Wire Wire Line
	9550 9600 9850 9600
Wire Wire Line
	9550 9700 9850 9700
Wire Wire Line
	9550 9800 9850 9800
Entry Wire Line
	9850 9600 9950 9700
Entry Wire Line
	9850 9700 9950 9800
Entry Wire Line
	9850 9800 9950 9900
Text Label 9850 9600 2    60   ~ 0
PA11
Text Label 9850 9700 2    60   ~ 0
PA10
Text Label 9850 9800 2    60   ~ 0
PA9
Text Label 9850 10400 2    60   ~ 0
PA8
Text Label 9850 10500 2    60   ~ 0
PA7
Text Label 9850 10600 2    60   ~ 0
PA6
NoConn ~ 7250 7600
NoConn ~ 7350 7600
NoConn ~ 7450 7600
$Comp
L power:GND #PWR042
U 1 1 5978A21C
P 6000 8850
F 0 "#PWR042" H 6000 8600 50  0001 C CNN
F 1 "GND" H 6008 8676 50  0001 C CNN
F 2 "" H 6000 8850 50  0000 C CNN
F 3 "" H 6000 8850 50  0000 C CNN
	1    6000 8850
	1    0    0    -1  
$EndComp
Wire Wire Line
	6250 8700 6150 8700
Wire Wire Line
	6150 8700 6150 8800
Wire Wire Line
	6150 8900 6250 8900
Wire Wire Line
	6000 8800 6150 8800
Connection ~ 6150 8800
Wire Wire Line
	6000 8800 6000 8850
$Comp
L Device:R R11
U 1 1 597A6897
P 4450 950
F 0 "R11" H 4500 950 50  0000 L CNN
F 1 "10k" V 4450 950 50  0000 C CNN
F 2 "Resistors_SMD:R_0805" V 4380 950 30  0001 C CNN
F 3 "" H 4450 950 30  0000 C CNN
	1    4450 950 
	1    0    0    -1  
$EndComp
Wire Wire Line
	4450 1100 4450 1200
Connection ~ 4450 1200
$Comp
L power:VCC #PWR043
U 1 1 597A7773
P 4450 800
F 0 "#PWR043" H 4450 650 50  0001 C CNN
F 1 "VCC" H 4450 950 50  0000 C CNN
F 2 "" H 4450 800 50  0000 C CNN
F 3 "" H 4450 800 50  0000 C CNN
	1    4450 800 
	1    0    0    -1  
$EndComp
Wire Wire Line
	2600 14000 3200 14000
Wire Wire Line
	2000 14000 2600 14000
Wire Wire Line
	2000 13700 2200 13700
Wire Wire Line
	4350 11700 4350 11800
Wire Wire Line
	4350 11800 4350 11900
Wire Wire Line
	4350 11900 4450 11900
Wire Wire Line
	4350 11900 4350 12000
Wire Wire Line
	4350 12000 4350 12100
Wire Wire Line
	4350 12100 4350 12200
Wire Wire Line
	4350 12200 4350 12400
Wire Wire Line
	3200 6800 3300 6800
Wire Wire Line
	3000 6800 3200 6800
Wire Wire Line
	2800 6800 3000 6800
Wire Wire Line
	2700 6800 2800 6800
Wire Wire Line
	2600 6800 2700 6800
Wire Wire Line
	2400 6800 2600 6800
Wire Wire Line
	2300 6800 2400 6800
Wire Wire Line
	3200 8500 3300 8500
Wire Wire Line
	2800 8500 3200 8500
Wire Wire Line
	2700 8500 2800 8500
Wire Wire Line
	2600 8500 2700 8500
Wire Wire Line
	2400 8500 2600 8500
Wire Wire Line
	2300 8500 2400 8500
Wire Wire Line
	3300 6800 3800 6800
Wire Wire Line
	1450 7700 1700 7700
Wire Wire Line
	1600 10600 1900 10600
Wire Wire Line
	1900 10600 2200 10600
Wire Wire Line
	2200 10600 2500 10600
Wire Wire Line
	2500 10600 2500 10650
Wire Wire Line
	2500 10600 2800 10600
Wire Wire Line
	2800 10600 3100 10600
Wire Wire Line
	3100 10600 3400 10600
Wire Wire Line
	3400 10600 3700 10600
Wire Wire Line
	1600 11000 1900 11000
Wire Wire Line
	1900 11000 2200 11000
Wire Wire Line
	2200 11000 2500 11000
Wire Wire Line
	2500 11000 2500 11050
Wire Wire Line
	2500 11000 2800 11000
Wire Wire Line
	2800 11000 3100 11000
Wire Wire Line
	3100 11000 3400 11000
Wire Wire Line
	3400 11000 3700 11000
Wire Wire Line
	1750 11600 2050 11600
Wire Wire Line
	2050 11600 2350 11600
Wire Wire Line
	2350 11600 2500 11600
Wire Wire Line
	2650 11600 2950 11600
Wire Wire Line
	2950 11600 3250 11600
Wire Wire Line
	3250 11600 3550 11600
Wire Wire Line
	1750 12000 2050 12000
Wire Wire Line
	2050 12000 2350 12000
Wire Wire Line
	2350 12000 2500 12000
Wire Wire Line
	2650 12000 2950 12000
Wire Wire Line
	2950 12000 3250 12000
Wire Wire Line
	3250 12000 3550 12000
Wire Wire Line
	2500 12000 2650 12000
Wire Wire Line
	2500 11600 2650 11600
Wire Wire Line
	2500 12650 2650 12650
Wire Wire Line
	2500 13050 2650 13050
Wire Wire Line
	7600 5850 7900 5850
Wire Wire Line
	7600 6250 7900 6250
Wire Wire Line
	7600 6250 7600 6300
Wire Wire Line
	7900 5850 8300 5850
Wire Wire Line
	8350 6850 8500 6850
Wire Wire Line
	8200 6500 8200 6550
Wire Wire Line
	6250 6100 6400 6100
Wire Wire Line
	5500 6700 5500 6750
Wire Wire Line
	4400 6400 4400 6450
Wire Wire Line
	6150 8800 6150 8900
Wire Wire Line
	6150 8800 6250 8800
$Comp
L MCU_Microchip_ATtiny:ATtiny13-20SSU U10
U 1 1 5ACFEE6E
P 2700 9450
F 0 "U10" H 2850 10100 50  0000 C CNN
F 1 "ATTINY13A-SSU" H 3050 10000 50  0000 C CNN
F 2 "Housings_SOIC:SOIC-8_3.9x4.9mm_Pitch1.27mm" H 3300 9450 50  0001 C CIN
F 3 "http://www.atmel.com/Images/doc8126.pdf" H 1900 9800 50  0001 C CNN
F 4 "ATTINY13A-SSU" H 2700 9450 50  0001 C CNN "manf#"
	1    2700 9450
	1    0    0    -1  
$EndComp
$Comp
L doragasu:AS6C6264-55SCN U8
U 1 1 5AD6EEE1
P 6950 5100
F 0 "U8" H 6950 5989 60  0000 C CNN
F 1 "AS6C6264-55SCN" H 6950 5883 60  0000 C CNN
F 2 "doragasu:SOIC-28W_8.6x18.5mm_Pitch1.27mm" H 6950 5875 50  0001 C CNN
F 3 "" H 6950 5100 50  0000 C CNN
F 4 "AS6C6264-55SCN" H 6950 5100 50  0001 C CNN "manf#"
	1    6950 5100
	1    0    0    -1  
$EndComp
$Comp
L Connector:TestPoint_Alt TP1
U 1 1 5AD73893
P 7150 7600
F 0 "TP1" H 7208 7674 50  0000 L CNN
F 1 "Test_Point_ALT" H 7208 7629 50  0001 L CNN
F 2 "Measurement_Points:Measurement_Point_Round-SMD-Pad_Small" H 7350 7600 50  0001 C CNN
F 3 "~" H 7350 7600 50  0001 C CNN
	1    7150 7600
	1    0    0    -1  
$EndComp
$Comp
L Connector:TestPoint_Alt TP2
U 1 1 5AD73E26
P 6250 8600
F 0 "TP2" V 6353 8674 50  0000 C CNN
F 1 "Test_Point_ALT" H 6308 8629 50  0001 L CNN
F 2 "Measurement_Points:Measurement_Point_Round-SMD-Pad_Small" H 6450 8600 50  0001 C CNN
F 3 "~" H 6450 8600 50  0001 C CNN
	1    6250 8600
	0    -1   -1   0   
$EndComp
$Comp
L power:+5V #PWR0101
U 1 1 5C00198C
P 1850 9200
F 0 "#PWR0101" H 1850 9050 50  0001 C CNN
F 1 "+5V" H 1800 9350 50  0000 L CNN
F 2 "" H 1850 9200 50  0000 C CNN
F 3 "" H 1850 9200 50  0000 C CNN
	1    1850 9200
	1    0    0    -1  
$EndComp
Wire Wire Line
	1850 9200 1850 9300
Wire Wire Line
	1850 9600 1850 9700
$Comp
L power:GND #PWR0102
U 1 1 5C143289
P 2700 10050
F 0 "#PWR0102" H 2700 9800 50  0001 C CNN
F 1 "GND" H 2708 9876 50  0001 C CNN
F 2 "" H 2700 10050 50  0000 C CNN
F 3 "" H 2700 10050 50  0000 C CNN
	1    2700 10050
	-1   0    0    -1  
$EndComp
Wire Wire Line
	3300 9650 3650 9650
Wire Bus Line
	1050 4000 1050 10300
Wire Bus Line
	5850 7200 9050 7200
Wire Bus Line
	5850 12100 9950 12100
Wire Bus Line
	10250 1300 10250 4100
Wire Bus Line
	3650 4200 3650 6500
Wire Bus Line
	1750 4300 1750 6500
Wire Bus Line
	9950 8700 9950 12100
Wire Bus Line
	1750 1550 1750 4000
Wire Bus Line
	3650 1550 3650 4000
Wire Bus Line
	4000 1300 4000 6400
Wire Bus Line
	8050 1300 8050 5300
Wire Bus Line
	4000 6500 4000 11600
Wire Bus Line
	5850 1300 5850 12100
$EndSCHEMATC
